*** Settings ***
Suite Setup       Create Http Context    localhost:8015
Test Teardown     CloseClient
Default Tags      G240WB    G240WC    G240WZA    MXXT    MXXV    SAIB    VFSP
...               VFNB
Resource          %{ROBOTREPO}/HLK/res/l2-tr069.txt
Library           HttpLibrary.HTTP
Resource          %{ROBOTREPO}/HLK/res/l3-tr069.txt
Library           %{RFPATH}/Python-2.7/lib/python2.7/site-packages/robot/libraries/String.py
Library           %{RFPATH}/Python-2.7/lib/python2.7/site-packages/robot/libraries/Collections.py
Resource          %{ROBOTREPO}/HLK/res/l3-telnet.txt
Resource          %{ROBOTREPO}/HLK/res/l3-selenium2.txt
Resource          %{ROBOTREPO}/HLK/res/l2-pcta.txt
Library           Dialogs

*** Test Cases ***
01
    [Documentation]    R GetParameterValues - Device.DeviceInfo.ModelNumber
    ...    ---
    ...    == Summary ==
    ...
    ...    *string*
    ...
    ...    DiffServ codepoint to be used for the test packets. By
    ...    default the CPE SHOULD set this value to zero.
    ...
    ...
    ...    ---
    ...    *RCR:* _*ALU02328747*_
    ...
    ...    *IR:* _*ALU02328747*_
    ...
    ...    *Author:* Zixiao Zhao <zixiao.zhao@alcatel-sbell.com.cn>
    ...
    ...    *Last Reviser:* Zixiao Zhao
    ...
    ...    ---
    ...    == Implementaion Details ==
    ...    Please reference to : Nokia Lib
    ...    [
    ...    http//ct.web.alcatel-lucent.com/scm-lib4/view.cgi?number=3HH-14516-6001-DFZZA
    ...    | 3HH-14516-6001-DFZZA-Feature Readiness Checklists ALU02328747 ]
    ...    - [
    ...    http//ct.web.alcatel-lucent.com/scm-lib4/view.cgi?number=3HH-14314-600B-DFZZA
    ...    | 3HH-14516-6001-DFZZA-Feature Readiness Checklists ALU02328747 FDT1575
    ...    ]
    ...    | *TR-181 spec* | None |
    ...    | *Nokia's implementation* | None |
    ...    ---
    ...    == Customers ==
    ...
    ...    COMMON
    ...    ---
    ...    == History ==
    ...    _*0:*_ 2017.6.21 --- Zixiao Zhao <@zixiao.zhaoalcatel-sbell.com.cn> Create this case.
    TriggerInform
    @{parameter_list}=    GetParameterValuesEx    Device.DeviceInfo.ModelNumber

02
    [Documentation]    R GetParameterValues - Device.DeviceInfo.X_TELMEX-COM_FriendlyName
    ...    ---
    ...    == Summary ==
    ...
    ...    *string*
    ...
    ...    DiffServ codepoint to be used for the test packets. By
    ...    default the CPE SHOULD set this value to zero.
    ...
    ...
    ...    ---
    ...    *RCR:* _*ALU02328747*_
    ...
    ...    *IR:* _*ALU02328747*_
    ...
    ...    *Author:* Zixiao Zhao <zixiao.zhao@alcatel-sbell.com.cn>
    ...
    ...    *Last Reviser:* Zixiao Zhao
    ...
    ...    ---
    ...    == Implementaion Details ==
    ...    Please reference to : Nokia Lib
    ...    [
    ...    http//ct.web.alcatel-lucent.com/scm-lib4/view.cgi?number=3HH-14516-6001-DFZZA
    ...    | 3HH-14516-6001-DFZZA-Feature Readiness Checklists ALU02328747 ]
    ...    - [
    ...    http//ct.web.alcatel-lucent.com/scm-lib4/view.cgi?number=3HH-14314-600B-DFZZA
    ...    | 3HH-14516-6001-DFZZA-Feature Readiness Checklists ALU02328747 FDT1575
    ...    ]
    ...    | *TR-181 spec* | None |
    ...    | *Nokia's implementation* | None |
    ...    ---
    ...    == Customers ==
    ...
    ...    COMMON
    ...    ---
    ...    == History ==
    ...    _*0:*_ 2017.6.21 --- Zixiao Zhao <@zixiao.zhaoalcatel-sbell.com.cn> Create this case.
    TriggerInform
    @{parameter_list}=    GetParameterValuesEx    Device.DeviceInfo.X_TELMEX-COM_FriendlyName

03
    [Documentation]    R GetParameterValues - Device.DeviceInfo.Description
    ...    ---
    ...    == Summary ==
    ...
    ...    *string*
    ...
    ...    DiffServ codepoint to be used for the test packets. By
    ...    default the CPE SHOULD set this value to zero.
    ...
    ...
    ...    ---
    ...    *RCR:* _*ALU02328747*_
    ...
    ...    *IR:* _*ALU02328747*_
    ...
    ...    *Author:* Zixiao Zhao <zixiao.zhao@alcatel-sbell.com.cn>
    ...
    ...    *Last Reviser:* Zixiao Zhao
    ...
    ...    ---
    ...    == Implementaion Details ==
    ...    Please reference to : Nokia Lib
    ...    [
    ...    http//ct.web.alcatel-lucent.com/scm-lib4/view.cgi?number=3HH-14516-6001-DFZZA
    ...    | 3HH-14516-6001-DFZZA-Feature Readiness Checklists ALU02328747 ]
    ...    - [
    ...    http//ct.web.alcatel-lucent.com/scm-lib4/view.cgi?number=3HH-14314-600B-DFZZA
    ...    | 3HH-14516-6001-DFZZA-Feature Readiness Checklists ALU02328747 FDT1575
    ...    ]
    ...    | *TR-181 spec* | None |
    ...    | *Nokia's implementation* | None |
    ...    ---
    ...    == Customers ==
    ...
    ...    COMMON
    ...    ---
    ...    == History ==
    ...    _*0:*_ 2017.6.21 --- Zixiao Zhao <@zixiao.zhaoalcatel-sbell.com.cn> Create this case.
    TriggerInform
    @{parameter_list}=    GetParameterValuesEx    Device.DeviceInfo.Description

04
    [Documentation]    Get Parameter Name-Device.DeviceInfor.ProductClass
    ...
    ...    This is a read-only parameter and can not support modify
    ...
    ...    This support from HDR56
    ...
    ...
    ...    RCR ID:ALU02106045
    ...
    ...
    ...    Author:Zhang Yaping
    TriggerInform
    @{paramter_list}=    GetParameterValuesEx    Device.DeviceInfo.ProductClass
    ${status}    ${body}    SetParameterAndGetResponse    Device.DeviceInfo.ProductClass 1234567890    9008
    Should be Equal    ${status}    ${True}
    log    ${status}
    log many    ${body}

05
    [Documentation]    Get Parameter Value-Device.DeviceInfor.SerialNumber
    ...
    ...    This is a read-only parameter and can not support modify
    ...
    ...    This support from HDR56
    ...
    ...
    ...    RCR ID:ALU02106045
    ...
    ...
    ...    Author:Zhang Yaping
    TriggerInform
    @{paramter_list}=    GetParameterValuesEx    Device.DeviceInfo.SerialNumber
    ${status}    ${body}    SetParameterAndGetResponse    Device.DeviceInfo.SerialNumber ALCL000000    9008
    Should be Equal    ${status}    ${True}
    log    ${status}
    log many    ${body}

06
    [Documentation]    Get Parameter Value-Device.DeviceInfor.HardwareVersion
    ...
    ...    This is a read-only parameter and can not support modify
    ...
    ...    This support from HDR56
    ...
    ...
    ...    RCR ID:ALU02106045
    ...
    ...
    ...    Author:Zhang Yaping
    TriggerInform
    @{paramter_list}=    GetParameterValuesEx    Device.DeviceInfo.HardwareVersion
    ${status}    ${body}    SetParameterAndGetResponse    Device.DeviceInfo.HardwareVersion 3FE56756ADBB    9008
    Should be Equal    ${status}    ${True}
    log    ${status}
    log many    ${body}

07
    [Documentation]    Get Parameter Value-Device.DeviceInfor.SoftwareVersion
    ...
    ...    This is a read-only parameter and can not support modify
    ...
    ...    This support from HDR56
    ...
    ...
    ...    RCR ID:ALU02106045
    ...
    ...
    ...    Author:Zhang Yaping
    TriggerInform
    @{paramter_list}=    GetParameterValuesEx    Device.DeviceInfo.SoftwareVersion
    ${status}    ${body}    SetParameterAndGetResponse    Device.DeviceInfo.SoftwareVersion 3FE56773AFGA78    9008
    Should be Equal    ${status}    ${True}
    log    ${status}
    log many    ${body}

08
    [Documentation]    Get Parameter Value-Device.DeviceInfor.ProvisioningCode
    ...
    ...    This is a read-write parameter
    ...
    ...    This support from HDR56
    ...
    ...
    ...    RCR ID:ALU02106045
    ...
    ...
    ...    Author:Zhang Yaping
    TriggerInform
    @{paramter_list}=    GetParameterValuesEx    Device.DeviceInfo.ProvisioningCode
    log many    @{paramter_list}
    ${status}=    SetParameterValuesEx    Device.DeviceInfo.ProvisioningCode 1123
    Should be Equal    ${status}    0

09
    [Documentation]    Get Parameter Value-Device.DeviceInfo.UpTime
    ...
    ...    This is a read-only parameter and can not support modify
    ...
    ...    This support from HDR56
    ...
    ...
    ...    RCR ID:ALU02106045
    ...
    ...
    ...    Author:Zhang Yaping
    TriggerInform
    @{paramter_list}=    GetParameterValuesEx    Device.DeviceInfo.UpTime
    ${status}    ${body}    SetParameterAndGetResponse    Device.DeviceInfo.UpTime 1123    9008
    Should be Equal    ${status}    ${True}
    log    ${status}
    log many    ${body}

10
    [Documentation]    R GetParameterValues - Device.DeviceInfo.ModelName
    ...
    ...    This is a read-only parameter and can not support modify
    ...
    ...    This support from HDR56
    ...
    ...
    ...    RCR ID:ALU02106045
    ...
    ...
    ...    Author:Zhang Yaping
    TriggerInform
    @{parameter_list}=    GetParameterValuesEx    Device.DeviceInfo.ModelName
    log many    @{parameter_list}
    ${status}    ${body}    SetParameterAndGetResponse    Device.DeviceInfo.ModelName ALCALTEL-LUCENT    9008
    Should be Equal    ${status}    ${True}
    log    ${status}
    log many    ${body}

11
    [Documentation]    R GetParameterAttributesEx - Device.DeviceInfo.ModelNumber
    ...    ---
    ...    == Summary ==
    ...
    ...    *string*
    ...
    ...    DiffServ codepoint to be used for the test packets. By
    ...    default the CPE SHOULD set this value to zero.
    ...
    ...
    ...    ---
    ...    *RCR:* _*ALU02106045*_
    ...
    ...
    ...
    ...    *Author:* Yaping Zhang <yaping.zhang@nokia-sbell.com>
    ...
    ...    *Last Reviser:* yaping zhang
    ...
    ...    ---
    ...
    ...    COMMON
    ...    ---
    ...    == History ==
    ...    _*0:*_ 2017.11.07 --- Yaping ZHANG <@yaping.zhang@nolia-sbell.com> Create this case.
    TriggerInform
    @{parameter_list}=    GetParameterAttributesEx    Device.DeviceInfo.ModelNumber
    log many    @{parameter_list}
    ${parameter_dict}=    Create Dictionary
    : FOR    ${string}    IN    @{parameter_list}
    \    @{entry}=    Split String    ${string}    ${SPACE}
    \    Set To Dictionary    ${parameter_dict}    @{entry}[0]    @{entry}[1]
    ${ModelNumber}=    Get From Dictionary    ${parameter_dict}    Device.DeviceInfo.ModelNumber
    Should Not be Empty    ${ModelNumber}

12
    [Documentation]    R GetParameterAttributes - Device.DeviceInfo.Description
    ...    ---
    ...    == Summary ==
    ...
    ...    *string*
    ...
    ...    DiffServ codepoint to be used for the test packets. By
    ...    default the CPE SHOULD set this value to zero.
    ...
    ...
    ...    ---
    ...    *RCR:* _*ALU02106045*_
    ...
    ...
    ...
    ...    *Author:* Yaping ZHANG <yaping.zhang@nokia-sbell.com>
    ...
    ...    *Last Reviser:* Yaping Zhang
    ...
    ...
    ...    COMMON
    ...    ---
    ...    == History ==
    ...    _*0:*_ 2017.11.07 --- Yaping Zhang <@yaping.zhang@nokia-sbell.com> Create this case.
    TriggerInform
    @{parameter_list}=    GetParameterAttributesEx    Device.DeviceInfo.Description
    log many    @{parameter_list}
    ${parameter_dict}=    Create Dictionary
    : FOR    ${string}    IN    @{parameter_list}
    \    @{entry}=    Split String    ${string}    ${SPACE}
    \    Set To Dictionary    ${parameter_dict}    @{entry}[0]    @{entry}[1]
    ${Description}=    Get From Dictionary    ${parameter_dict}    Device.DeviceInfo.Description
    Should Not be Empty    ${Description}

13
    [Documentation]    Get Parameter Attributes-Device.DeviceInfor.ProductClass
    ...
    ...    This is a read-only parameter and can not support modify
    ...
    ...    This support from HDR56
    ...
    ...
    ...    RCR ID:ALU02106045
    ...
    ...
    ...    Author:Zhang Yaping
    TriggerInform
    @{parameter_list}=    GetParameterAttributesEx    Device.DeviceInfo.ProductClass
    log many    @{parameter_list}
    ${parameter_dict}=    Create Dictionary
    : FOR    ${string}    IN    @{parameter_list}
    \    @{entry}=    Split String    ${string}    ${SPACE}
    \    Set To Dictionary    ${parameter_dict}    @{entry}[0]    @{entry}[1]
    ${ProductClass}=    Get From Dictionary    ${parameter_dict}    Device.DeviceInfo.ProductClass
    Should Not be Empty    ${ProductClass}

14
    [Documentation]    R GetParameterValues - Device.DeviceInfo.MemoryStatus.Free
    ...    ---
    ...    == Summary ==
    ...
    ...    *int*
    ...
    ...    DiffServ codepoint to be used for the test packets. By
    ...    default the CPE SHOULD set this value to zero.
    ...
    ...
    ...    ---
    ...    *RCR:* _*ALU02328747*_
    ...
    ...    *IR:* _*ALU02328747*_
    ...
    ...    *Author:* Zixiao Zhao <zixiao.zhao@alcatel-sbell.com.cn>
    ...
    ...    *Last Reviser:* Zixiao Zhao
    ...
    ...    ---
    ...    == Implementaion Details ==
    ...    Please reference to : Nokia Lib
    ...    [
    ...    http//ct.web.alcatel-lucent.com/scm-lib4/view.cgi?number=3HH-14516-6001-DFZZA
    ...    | 3HH-14516-6001-DFZZA-Feature Readiness Checklists ALU02328747 ]
    ...    - [
    ...    http//ct.web.alcatel-lucent.com/scm-lib4/view.cgi?number=3HH-14314-600B-DFZZA
    ...    | 3HH-14516-6001-DFZZA-Feature Readiness Checklists ALU02328747 FDT1575
    ...    ]
    ...    | *TR-181 spec* | None |
    ...    | *Nokia's implementation* | None |
    ...    ---
    ...    == Customers ==
    ...
    ...    COMMON
    ...    ---
    ...    == History ==
    ...    _*0:*_ 2018.1.29 --- Zixiao Zhao <@zixiao.zhaoalcatel-sbell.com.cn> Create this case.
    TriggerInform
    ${node} =    Set Variable    Device.DeviceInfo.MemoryStatus.Free
    ${new} =    Set Variable    1101010
    #get current value
    @{parameter_list}=    GetParameterValuesEx    ${node}
    ${org} =    Remove String    @{parameter_list}[0]    ${node}${SPACE}
    #read only
    ${w} =    Set Variable    ${node}${SPACE}${new}
    @{ret}=    SetParameterAndGetResponse    ${w}
    Run Keyword And Continue On Failure    Should Contain    ${ret[1]}    9008

15
    [Documentation]    R GetParameterValues - Device.DeviceInfo.MemoryStatus.Total
    ...    ---
    ...    == Summary ==
    ...
    ...    *int*
    ...
    ...    DiffServ codepoint to be used for the test packets. By
    ...    default the CPE SHOULD set this value to zero.
    ...
    ...
    ...    ---
    ...    *RCR:* _*ALU02328747*_
    ...
    ...    *IR:* _*ALU02328747*_
    ...
    ...    *Author:* Zixiao Zhao <zixiao.zhao@alcatel-sbell.com.cn>
    ...
    ...    *Last Reviser:* Zixiao Zhao
    ...
    ...    ---
    ...    == Implementaion Details ==
    ...    Please reference to : Nokia Lib
    ...    [
    ...    http//ct.web.alcatel-lucent.com/scm-lib4/view.cgi?number=3HH-14516-6001-DFZZA
    ...    | 3HH-14516-6001-DFZZA-Feature Readiness Checklists ALU02328747 ]
    ...    - [
    ...    http//ct.web.alcatel-lucent.com/scm-lib4/view.cgi?number=3HH-14314-600B-DFZZA
    ...    | 3HH-14516-6001-DFZZA-Feature Readiness Checklists ALU02328747 FDT1575
    ...    ]
    ...    | *TR-181 spec* | None |
    ...    | *Nokia's implementation* | None |
    ...    ---
    ...    == Customers ==
    ...
    ...    COMMON
    ...    ---
    ...    == History ==
    ...    _*0:*_ 2018.1.29 --- Zixiao Zhao <@zixiao.zhaoalcatel-sbell.com.cn> Create this case.
    TriggerInform
    ${node} =    Set Variable    Device.DeviceInfo.MemoryStatus.Total
    ${new} =    Set Variable    1101010
    #get current value
    @{parameter_list}=    GetParameterValuesEx    ${node}
    ${org} =    Remove String    @{parameter_list}[0]    ${node}${SPACE}
    #read only
    ${w} =    Set Variable    ${node}${SPACE}${new}
    @{ret}=    SetParameterAndGetResponse    ${w}
    Run Keyword And Continue On Failure    Should Contain    ${ret[1]}    9008

16
    [Documentation]    R GetParameterValues - Device.DeviceInfo.ProcessStatus.CPUUsage
    ...    ---
    ...    == Summary ==
    ...
    ...    *int*
    ...
    ...    DiffServ codepoint to be used for the test packets. By
    ...    default the CPE SHOULD set this value to zero.
    ...
    ...
    ...    ---
    ...    *RCR:* _*ALU02328747*_
    ...
    ...    *IR:* _*ALU02328747*_
    ...
    ...    *Author:* Zixiao Zhao <zixiao.zhao@alcatel-sbell.com.cn>
    ...
    ...    *Last Reviser:* Zixiao Zhao
    ...
    ...    ---
    ...    == Implementaion Details ==
    ...    Please reference to : Nokia Lib
    ...    [
    ...    http//ct.web.alcatel-lucent.com/scm-lib4/view.cgi?number=3HH-14516-6001-DFZZA
    ...    | 3HH-14516-6001-DFZZA-Feature Readiness Checklists ALU02328747 ]
    ...    - [
    ...    http//ct.web.alcatel-lucent.com/scm-lib4/view.cgi?number=3HH-14314-600B-DFZZA
    ...    | 3HH-14516-6001-DFZZA-Feature Readiness Checklists ALU02328747 FDT1575
    ...    ]
    ...    | *TR-181 spec* | None |
    ...    | *Nokia's implementation* | None |
    ...    ---
    ...    == Customers ==
    ...
    ...    COMMON
    ...    ---
    ...    == History ==
    ...    _*0:*_ 2018.1.29 --- Zixiao Zhao <@zixiao.zhaoalcatel-sbell.com.cn> Create this case.
    TriggerInform
    ${node} =    Set Variable    Device.DeviceInfo.ProcessStatus.CPUUsage
    ${new} =    Set Variable    1101010
    #get current value
    @{parameter_list}=    GetParameterValuesEx    ${node}
    ${org} =    Remove String    @{parameter_list}[0]    ${node}${SPACE}
    #read only
    ${w} =    Set Variable    ${node}${SPACE}${new}
    @{ret}=    SetParameterAndGetResponse    ${w}
    Run Keyword And Continue On Failure    Should Contain    ${ret[1]}    9008

17
    [Documentation]    RW GetSetParameterValues - Device.DeviceInfo.ProcessStatus.TcpSessionTimer
    ...    ---
    ...    == Summary ==
    ...
    ...    *int*
    ...
    ...    DiffServ codepoint to be used for the test packets. By
    ...    default the CPE SHOULD set this value to zero.
    ...
    ...
    ...    ---
    ...    *RCR:* _*ALU02328747*_
    ...
    ...    *IR:* _*ALU02328747*_
    ...
    ...    *Author:* Zixiao Zhao <zixiao.zhao@alcatel-sbell.com.cn>
    ...
    ...    *Last Reviser:* Zixiao Zhao
    ...
    ...    ---
    ...    == Implementaion Details ==
    ...    Please reference to : Nokia Lib
    ...    [
    ...    http//ct.web.alcatel-lucent.com/scm-lib4/view.cgi?number=3HH-14516-6001-DFZZA
    ...    | 3HH-14516-6001-DFZZA-Feature Readiness Checklists ALU02328747 ]
    ...    - [
    ...    http//ct.web.alcatel-lucent.com/scm-lib4/view.cgi?number=3HH-14314-600B-DFZZA
    ...    | 3HH-14516-6001-DFZZA-Feature Readiness Checklists ALU02328747 FDT1575
    ...    ]
    ...    | *TR-181 spec* | None |
    ...    | *Nokia's implementation* | None |
    ...    ---
    ...    == Customers ==
    ...
    ...    COMMON
    ...    ---
    ...    == History ==
    ...    _*0:*_ 2018.1.29 --- Zixiao Zhao <@zixiao.zhaoalcatel-sbell.com.cn> Create this case.
    # 0 = false, 1 = true
    ${node} =    Set Variable    Device.DeviceInfo.X_ALU-COM_NetworkProperties.TcpSessionTimer
    #${df} =    Set Variable    0
    #tcl soap only support string, and treats all as string, thus no 9006
    ${ec9006} =    Set Variable    9007
    ${ec9007} =    Set Variable    9007
    ${new_9006} =    Set Variable    k!3
    ${new_9007} =    Set Variable    bv
    ${new} =    Set Variable    ${20}
    TriggerInform
    #get current value
    @{parameter_list}=    GetParameterValuesEx    ${node}
    ${org} =    Remove String    @{parameter_list}[0]    ${node}${SPACE}
    #Run Keyword And Continue On Failure    Should Be Equal    ${org}    ${df}
    #9006
    ${w} =    Set Variable    ${node}${SPACE}${new_9006}
    @{ret}=    SetParameterAndGetResponse    ${w}
    Run Keyword And Continue On Failure    Should Contain    ${ret[1]}    ${ec9006}
    #9007
    ${w} =    Set Variable    ${node}${SPACE}${new_9007}
    @{ret}=    SetParameterAndGetResponse    ${w}
    Run Keyword And Continue On Failure    Should Contain    ${ret[1]}    ${ec9007}
    #set to new value
    ${w} =    Set Variable    ${node}${SPACE}${new}
    SetParameterValuesEx    ${w}
    @{parameter_list}=    GetParameterValuesEx    ${node}
    ${new_v} =    Remove String    @{parameter_list}[0]    ${node}${SPACE}
    Run Keyword And Continue On Failure    Should Match Regexp    ${new_v}    (?i)${new}
    #recover back org value
    ${w} =    Set Variable    ${node}${SPACE}${org}
    SetParameterValuesEx    ${w}
    @{parameter_list}=    GetParameterValuesEx    ${node}
    ${rec} =    Remove String    @{parameter_list}[0]    ${node}${SPACE}
    Should Be Equal    ${rec}    ${org}

18
    [Documentation]    RW GetSetParameterValues - Device.DeviceInfo.ProcessStatus.UdpSessionTimer
    ...    ---
    ...    == Summary ==
    ...
    ...    *int*
    ...
    ...    DiffServ codepoint to be used for the test packets. By
    ...    default the CPE SHOULD set this value to zero.
    ...
    ...
    ...    ---
    ...    *RCR:* _*ALU02328747*_
    ...
    ...    *IR:* _*ALU02328747*_
    ...
    ...    *Author:* Zixiao Zhao <zixiao.zhao@alcatel-sbell.com.cn>
    ...
    ...    *Last Reviser:* Zixiao Zhao
    ...
    ...    ---
    ...    == Implementaion Details ==
    ...    Please reference to : Nokia Lib
    ...    [
    ...    http//ct.web.alcatel-lucent.com/scm-lib4/view.cgi?number=3HH-14516-6001-DFZZA
    ...    | 3HH-14516-6001-DFZZA-Feature Readiness Checklists ALU02328747 ]
    ...    - [
    ...    http//ct.web.alcatel-lucent.com/scm-lib4/view.cgi?number=3HH-14314-600B-DFZZA
    ...    | 3HH-14516-6001-DFZZA-Feature Readiness Checklists ALU02328747 FDT1575
    ...    ]
    ...    | *TR-181 spec* | None |
    ...    | *Nokia's implementation* | None |
    ...    ---
    ...    == Customers ==
    ...
    ...    COMMON
    ...    ---
    ...    == History ==
    ...    _*0:*_ 2018.1.29 --- Zixiao Zhao <@zixiao.zhaoalcatel-sbell.com.cn> Create this case.
    # 0 = false, 1 = true
    ${node} =    Set Variable    Device.DeviceInfo.X_ALU-COM_NetworkProperties.UdpSessionTimer
    #${df} =    Set Variable    0
    #tcl soap only support string, and treats all as string, thus no 9006
    ${ec9006} =    Set Variable    9007
    ${ec9007} =    Set Variable    9007
    ${new_9006} =    Set Variable    k!3
    ${new_9007} =    Set Variable    bv
    ${new} =    Set Variable    ${20}
    TriggerInform
    #get current value
    @{parameter_list}=    GetParameterValuesEx    ${node}
    ${org} =    Remove String    @{parameter_list}[0]    ${node}${SPACE}
    #Run Keyword And Continue On Failure    Should Be Equal    ${org}    ${df}
    #9006
    ${w} =    Set Variable    ${node}${SPACE}${new_9006}
    @{ret}=    SetParameterAndGetResponse    ${w}
    Run Keyword And Continue On Failure    Should Contain    ${ret[1]}    ${ec9006}
    #9007
    ${w} =    Set Variable    ${node}${SPACE}${new_9007}
    @{ret}=    SetParameterAndGetResponse    ${w}
    Run Keyword And Continue On Failure    Should Contain    ${ret[1]}    ${ec9007}
    #set to new value
    ${w} =    Set Variable    ${node}${SPACE}${new}
    SetParameterValuesEx    ${w}
    @{parameter_list}=    GetParameterValuesEx    ${node}
    ${new_v} =    Remove String    @{parameter_list}[0]    ${node}${SPACE}
    Run Keyword And Continue On Failure    Should Match Regexp    ${new_v}    (?i)${new}
    #recover back org value
    ${w} =    Set Variable    ${node}${SPACE}${org}
    SetParameterValuesEx    ${w}
    @{parameter_list}=    GetParameterValuesEx    ${node}
    ${rec} =    Remove String    @{parameter_list}[0]    ${node}${SPACE}
    Should Be Equal    ${rec}    ${org}

19
    [Documentation]    R Device.DeviceInfo.Manufacturer
    ...
    ...    == Summary =
    ...
    ...
    ...
    ...    *Author:* Yaping Zhang <Yaping.Zhang@nokia-sbell.com>
    ...
    ...    *Last Reviser:* Yaping Zhang
    ...
    ...    ---
    ...    == Customers ==
    ...
    ...    COMMON
    ...    ---
    ...    == History ==
    ...    _*Rev 0:*_ 2018.05.21 --- Yaping Zhang <yaping.zhang@nokia-sbell.com> Create this case.
    TriggerInform
    @{paramter_list}=    GetParameterValuesEx    Device.DeviceInfo.Manufacturer
    ${status}    ${body}    SetParameterAndGetResponse    Device.DeviceInfo.Manufacturer abcdefg    9008
    Should be Equal    ${status}    ${True}
    log    ${status}
    log many    ${body}

20
    [Documentation]    R Device.DeviceInfo.ManufacturerOUI
    ...
    ...    == Summary =
    ...
    ...
    ...
    ...    *Author:* Yaping Zhang <Yaping.Zhang@nokia-sbell.com>
    ...
    ...    *Last Reviser:* Yaping Zhang
    ...
    ...    ---
    ...    == Customers ==
    ...
    ...    COMMON
    ...    ---
    ...    == History ==
    ...    _*Rev 0:*_ 2018.05.21 --- Yaping Zhang <yaping.zhang@nokia-sbell.com> Create this case.
    TriggerInform
    @{paramter_list}=    GetParameterValuesEx    Device.DeviceInfo.ManufacturerOUI
    ${status}    ${body}    SetParameterAndGetResponse    Device.DeviceInfo.ManufacturerOUI DD:EE:FF    9008
    Should be Equal    ${status}    ${True}
    log    ${status}
    log many    ${body}

21
    [Documentation]    Parameter readOnly - Device.DeviceInfo.SupportedDataModelNumberOfEntries
    ...    ---
    ...    == Summary ==
    ...
    ...    *unsignedInt*
    ...
    ...
    ...    {{numentries}}
    ...
    ...
    ...
    ...    ---
    ...    *RCR:* _*//your rcr//*_
    ...
    ...    *IR:* _*//your ir//*_
    ...
    ...    *Author:* Zhang Yaping
    ...
    ...    *Last Reviser:* Yaping Zhang<yaping.zhang@nokia-sbell.com>
    ...
    ...    ---
    ...    == Implementaion Details ==
    ...    Please reference to : Nokia Lib
    ...    ---
    ...    == Customers ==
    ...
    ...    COMMON
    ...    ---
    ...    == History ==
    ...    _*0:*_ //your date// --- //your author// Created this case.
    ...    [Tags] //your tag//
    TriggerInform
    @{parameter_list}=    GetParameterValuesEx    Device.DeviceInfo.SupportedDataModelNumberOfEntries
    log many    @{parameter_list}
    ${modelentry}=    Evaluate    random.randint(1,100)    random
    ${status}    ${body}    SetParameterAndGetResponse    Device.DeviceInfo.SupportedDataModelNumberOfEntries ${modelentry}    9008
    Should be Equal    ${status}    ${True}
    log    ${status}
    log many    ${body}

22
    [Documentation]    Parameter readOnly - Device.DeviceInfo.ProcessStatus.ProcessNumberOfEntries
    ...    ---
    ...    == Summary ==
    ...
    ...    *unsignedInt*
    ...
    ...
    ...    {{numentries}}
    ...
    ...
    ...
    ...    ---
    ...    *RCR:* _*//your rcr//*_
    ...
    ...    *IR:* _*//your ir//*_
    ...
    ...    *Author:* Zhang Yaping
    ...
    ...    *Last Reviser:* Yaping Zhang<yaping.zhang@nokia-sbell.com>
    ...
    ...    ---
    ...    == Implementaion Details ==
    ...    Please reference to : Nokia Lib
    ...    ---
    ...    == Customers ==
    ...
    ...    COMMON
    ...    ---
    ...    == History ==
    ...    _*0:*_ //your date// --- //your author// Created this case.
    ...    [Tags] //your tag//
    TriggerInform
    @{parameter_list}=    GetParameterValuesEx    Device.DeviceInfo.ProcessStatus.ProcessNumberOfEntries
    log many    @{parameter_list}
    ${processnumber}=    Evaluate    random.randint(1,200)    random
    ${status}    ${body}    SetParameterAndGetResponse    Device.DeviceInfo.ProcessStatus.ProcessNumberOfEntries ${processnumber}    9008
    Should be Equal    ${status}    ${True}
    log    ${status}
    log many    ${body}

23
    [Documentation]    Parameter readOnly - Device.DeviceInfo.ProcessorNumberOfEntries
    ...    ---
    ...    == Summary ==
    ...
    ...    *unsignedInt*
    ...
    ...
    ...    {{numentries}}
    ...
    ...
    ...
    ...    ---
    ...    *RCR:* _*//your rcr//*_
    ...
    ...    *IR:* _*//your ir//*_
    ...
    ...    *Author:* Zhang Yaping
    ...
    ...    *Last Reviser:* Yaping Zhang<yaping.zhang@nokia-sbell.com>
    ...
    ...    ---
    ...    == Implementaion Details ==
    ...    Please reference to : Nokia Lib
    ...    ---
    ...    == Customers ==
    ...
    ...    COMMON
    ...    ---
    ...    == History ==
    ...    _*0:*_ 2018 05 24 --- Yaping ZHANG<yaping.zhang@nokia-sbell.com> Created this case.
    ...    [Tags] //your tag//
    TriggerInform
    @{parameter_list}=    GetParameterValuesEx    Device.DeviceInfo.ProcessorNumberOfEntries
    log many    @{parameter_list}
    ${processornumber}=    Evaluate    random.randint(1,150)    random
    ${status}    ${body}    SetParameterAndGetResponse    Device.DeviceInfo.ProcessorNumberOfEntries ${processornumber}    9008
    Should be Equal    ${status}    ${True}
    log    ${status}
    log many    ${body}

24
    [Documentation]    Parameter readOnly - Device.DeviceInfo.Processor.{i}.Architecture
    ...    ---
    ...    == Summary ==
    ...
    ...    *string*
    ...
    ...
    ...    The architecture of the processor on the underlying hardware. {{enum}}
    ...    For processor architectures not included in this list, the vendor MAY include vendor-specific values, which MUST use the format defined in {{bibref|TR-106a4|Section 3.3}}.
    ...
    ...
    ...
    ...    ---
    ...    *RCR:* _*//your rcr//*_
    ...
    ...    *IR:* _*//your ir//*_
    ...
    ...    *Author:* Yaping Zhang
    ...
    ...    *Last Reviser:* Yaping Zhang
    ...
    ...    ---
    ...    == Implementaion Details ==
    ...    Please reference to : Nokia Lib
    ...    ---
    ...    == Customers ==
    ...
    ...    COMMON
    ...    ---
    ...    == History ==
    ...    _*0:*_ //your date// --- //your author// Created this case.
    ...    [Tags] //your tag//
    TriggerInform
    @{parameter_list}=    GetParameterValuesEx    Device.DeviceInfo.ProcessorNumberOfEntries
    log many    @{parameter_list}
    ${parameter_dict}=    Create Dictionary
    : FOR    ${string}    IN    @{parameter_list}
    \    @{entry}=    Split String    ${string}    ${SPACE}
    \    Set To Dictionary    ${parameter_dict}    @{entry}[0]    @{entry}[1]
    ${ProcessorNumber}=    Get From Dictionary    ${parameter_dict}    Device.DeviceInfo.ProcessorNumberOfEntries
    Should Not be Equal As Integers    ${ProcessorNumber}    0
    : FOR    ${i}    IN RANGE    1    ${ProcessorNumber}+1
    \    @{parameter_list}=    GetParameterValuesEx    Device.DeviceInfo.Processor.${i}.Architecture
    \    log many    @{parameter_list}
    \    ${status}    ${body}    SetParameterAndGetResponse    Device.DeviceInfo.Processor.${i}.Architecture abcde    9008
    \    Should be Equal    ${status}    ${True}
    \    log    ${status}
    \    log many    ${body}

25
    [Documentation]    Parameter readOnly - Device.DeviceInfo.ProcessStatus.Process.{i}.PID
    ...    ---
    ...    == Summary ==
    ...
    ...    *unsignedInt*
    ...
    ...
    ...    The Process Identifier.
    ...
    ...
    ...
    ...    ---
    ...    *RCR:* _*//your rcr//*_
    ...
    ...    *IR:* _*//your ir//*_
    ...
    ...    *Author:* Yaping Zhang
    ...
    ...    *Last Reviser:* Yaping Zhang
    ...
    ...    ---
    ...    == Implementaion Details ==
    ...    Please reference to : Nokia Lib
    ...    ---
    ...    == Customers ==
    ...
    ...    COMMON
    ...    ---
    ...    == History ==
    ...    _*0:*_ 2018.05.25 --- Yaping Zhang<yaping.zhang@nokia-sbell.com> Created this case.
    TriggerInform
    @{parameter_list}=    GetParameterValuesEx    Device.DeviceInfo.ProcessStatus.ProcessNumberOfEntries
    log many    @{parameter_list}
    ${parameter_dict}=    Create Dictionary
    : FOR    ${string}    IN    @{parameter_list}
    \    @{entry}=    Split String    ${string}    ${SPACE}
    \    Set To Dictionary    ${parameter_dict}    @{entry}[0]    @{entry}[1]
    ${ProcessNumber}=    Get From Dictionary    ${parameter_dict}    Device.DeviceInfo.ProcessStatus.ProcessNumberOfEntries
    Should Not be Equal As Integers    ${ProcessNumber}    0
    : FOR    ${i}    IN RANGE    1    ${ProcessNumber}+1
    \    @{parameter_list}=    GetParameterValuesEx    Device.DeviceInfo.ProcessStatus.Process.${i}.PID
    \    log many    @{parameter_list}
    \    ${random_int}=    Evaluate    random.randint(1,500)    random
    \    ${status}    ${body}    SetParameterAndGetResponse    Device.DeviceInfo.ProcessStatus.Process.${i}.PID ${random_int}    9008
    \    Should be Equal    ${status}    ${True}
    \    log    ${status}
    \    log many    ${body}

26
    [Documentation]    Parameter readOnly - Device.DeviceInfo.ProcessStatus.Process.{i}.Command
    ...    ---
    ...    == Summary ==
    ...
    ...    *string*
    ...
    ...
    ...    The name of the command that has caused the process to exist.
    ...
    ...
    ...
    ...    ---
    ...    *RCR:* _*//your rcr//*_
    ...
    ...    *IR:* _*//your ir//*_
    ...
    ...    *Author:* Yaping ZHANG
    ...
    ...    *Last Reviser:* Yaping ZHANG
    ...
    ...    ---
    ...    == Implementaion Details ==
    ...    Please reference to : Nokia Lib
    ...    ---
    ...    == Customers ==
    ...
    ...    COMMON
    ...    ---
    ...    == History ==
    ...    _*0:*_ 2018.05.25 --- Yaping ZHANG<yaping.zhang@nokia-sbell.com> Created this case.
    TriggerInform
    @{parameter_list}=    GetParameterValuesEx    Device.DeviceInfo.ProcessStatus.ProcessNumberOfEntries
    log many    @{parameter_list}
    ${parameter_dict}=    Create Dictionary
    : FOR    ${string}    IN    @{parameter_list}
    \    @{entry}=    Split String    ${string}    ${SPACE}
    \    Set To Dictionary    ${parameter_dict}    @{entry}[0]    @{entry}[1]
    ${ProcessNumber}=    Get From Dictionary    ${parameter_dict}    Device.DeviceInfo.ProcessStatus.ProcessNumberOfEntries
    Should Not be Equal As Integers    ${ProcessNumber}    0
    : FOR    ${i}    IN RANGE    1    ${ProcessNumber}+1
    \    @{parameter_list}=    GetParameterValuesEx    Device.DeviceInfo.ProcessStatus.Process.${i}.Command
    \    log many    @{parameter_list}
    \    ${random_string}=    Generate Random String    10    [LOWER][NUMBERS]
    \    ${status}    ${body}    SetParameterAndGetResponse    Device.DeviceInfo.ProcessStatus.Process.${i}.Command ${random_string}    9008
    \    Should be Equal    ${status}    ${True}
    \    log    ${status}
    \    log many    ${body}

27
    [Documentation]    Parameter readOnly - Device.DeviceInfo.ProcessStatus.Process.{i}.Size
    ...    ---
    ...    == Summary ==
    ...
    ...    *unsignedInt*
    ...
    ...
    ...    The size in {{units}} of the memory occupied by the process.
    ...
    ...
    ...
    ...    ---
    ...    *RCR:* _*//your rcr//*_
    ...
    ...    *IR:* _*//your ir//*_
    ...
    ...    *Author:* Yaping ZHANG
    ...
    ...    *Last Reviser:* Yaping ZHANG
    ...
    ...    ---
    ...    == Implementaion Details ==
    ...    Please reference to : Nokia Lib
    ...    ---
    ...    == Customers ==
    ...
    ...    COMMON
    ...    ---
    ...    == History ==
    ...    _*0:*_ 2018.05.25 --- Yaping ZHANG<yaping.zhang@nokia-sbell.com> Created this case.
    TriggerInform
    @{parameter_list}=    GetParameterValuesEx    Device.DeviceInfo.ProcessStatus.ProcessNumberOfEntries
    log many    @{parameter_list}
    ${parameter_dict}=    Create Dictionary
    : FOR    ${string}    IN    @{parameter_list}
    \    @{entry}=    Split String    ${string}    ${SPACE}
    \    Set To Dictionary    ${parameter_dict}    @{entry}[0]    @{entry}[1]
    ${ProcessNumber}=    Get From Dictionary    ${parameter_dict}    Device.DeviceInfo.ProcessStatus.ProcessNumberOfEntries
    Should Not be Equal As Integers    ${ProcessNumber}    0
    : FOR    ${i}    IN RANGE    1    ${ProcessNumber}+1
    \    @{parameter_list}=    GetParameterValuesEx    Device.DeviceInfo.ProcessStatus.Process.${i}.Size
    \    log many    @{parameter_list}
    \    ${random_int}=    Evaluate    random.randint(1,500)    random
    \    ${status}    ${body}    SetParameterAndGetResponse    Device.DeviceInfo.ProcessStatus.Process.${i}.Size ${random_int}    9008
    \    Should be Equal    ${status}    ${True}
    \    log    ${status}
    \    log many    ${body}

28
    [Documentation]    Parameter readOnly - Device.DeviceInfo.ProcessStatus.Process.{i}.Priority
    ...    ---
    ...    == Summary ==
    ...
    ...    *unsignedInt*
    ...
    ...
    ...    The priority of the process where 0 is highest.
    ...
    ...
    ...
    ...    ---
    ...    *RCR:* _*//your rcr//*_
    ...
    ...    *IR:* _*//your ir//*_
    ...
    ...    *Author:* Yaping Zhang
    ...
    ...    *Last Reviser:* Yaping Zhang
    ...
    ...    ---
    ...    == Implementaion Details ==
    ...    Please reference to : Nokia Lib
    ...    ---
    ...    == Customers ==
    ...
    ...    COMMON
    ...    ---
    ...    == History ==
    ...    _*0:*_ 2018.05.25 --- Yaping ZHANG<yaping.zhang@nokia-sbell.com> Created this case.
    TriggerInform
    @{parameter_list}=    GetParameterValuesEx    Device.DeviceInfo.ProcessStatus.ProcessNumberOfEntries
    log many    @{parameter_list}
    ${parameter_dict}=    Create Dictionary
    : FOR    ${string}    IN    @{parameter_list}
    \    @{entry}=    Split String    ${string}    ${SPACE}
    \    Set To Dictionary    ${parameter_dict}    @{entry}[0]    @{entry}[1]
    ${ProcessNumber}=    Get From Dictionary    ${parameter_dict}    Device.DeviceInfo.ProcessStatus.ProcessNumberOfEntries
    Should Not be Equal As Integers    ${ProcessNumber}    0
    : FOR    ${i}    IN RANGE    1    ${ProcessNumber}+1
    \    @{parameter_list}=    GetParameterValuesEx    Device.DeviceInfo.ProcessStatus.Process.${i}.Priority
    \    log many    @{parameter_list}
    \    ${random_int}=    Evaluate    random.randint(1,8)    random
    \    ${status}    ${body}    SetParameterAndGetResponse    Device.DeviceInfo.ProcessStatus.Process.${i}.Priority ${random_int}    9008
    \    Should be Equal    ${status}    ${True}
    \    log    ${status}
    \    log many    ${body}

29
    [Documentation]    Parameter readOnly - Device.DeviceInfo.ProcessStatus.Process.{i}.CPUTime
    ...    ---
    ...    == Summary ==
    ...
    ...    *unsignedInt*
    ...
    ...
    ...    The amount of time in {{units}} that the process has spent taking up CPU time since the process was started.
    ...
    ...
    ...
    ...    ---
    ...    *RCR:* _*//your rcr//*_
    ...
    ...    *IR:* _*//your ir//*_
    ...
    ...    *Author:* Yaping Zhang
    ...
    ...    *Last Reviser:* Yaping Zhang
    ...
    ...    ---
    ...    == Implementaion Details ==
    ...    Please reference to : Nokia Lib
    ...    ---
    ...    == Customers ==
    ...
    ...    COMMON
    ...    ---
    ...    == History ==
    ...    _*0:*_ 2018.05.25 --- Yaping ZHANG<yaping.zhang@nokia-sbell.com> Created this case.
    TriggerInform
    @{parameter_list}=    GetParameterValuesEx    Device.DeviceInfo.ProcessStatus.ProcessNumberOfEntries
    log many    @{parameter_list}
    ${parameter_dict}=    Create Dictionary
    : FOR    ${string}    IN    @{parameter_list}
    \    @{entry}=    Split String    ${string}    ${SPACE}
    \    Set To Dictionary    ${parameter_dict}    @{entry}[0]    @{entry}[1]
    ${ProcessNumber}=    Get From Dictionary    ${parameter_dict}    Device.DeviceInfo.ProcessStatus.ProcessNumberOfEntries
    Should Not be Equal As Integers    ${ProcessNumber}    0
    : FOR    ${i}    IN RANGE    1    ${ProcessNumber}+1
    \    @{parameter_list}=    GetParameterValuesEx    Device.DeviceInfo.ProcessStatus.Process.${i}.CPUTime
    \    log many    @{parameter_list}
    \    ${random_time}=    Evaluate    random.randint(1,5000)    random
    \    ${status}    ${body}    SetParameterAndGetResponse    Device.DeviceInfo.ProcessStatus.Process.${i}.CPUTime ${random_time}    9008
    \    Should be Equal    ${status}    ${True}
    \    log    ${status}
    \    log many    ${body}

30
    [Documentation]    Parameter readOnly - Device.DeviceInfo.ProcessStatus.Process.{i}.State
    ...    ---
    ...    == Summary ==
    ...
    ...    *string*
    ...
    ...
    ...    The current state that the process is in.
    ...
    ...
    ...
    ...    ---
    ...    *RCR:* _*//your rcr//*_
    ...
    ...    *IR:* _*//your ir//*_
    ...
    ...    *Author:* Yaping Zhang
    ...
    ...    *Last Reviser:* Yaping Zhang
    ...
    ...    ---
    ...    == Implementaion Details ==
    ...    Please reference to : Nokia Lib
    ...    ---
    ...    == Customers ==
    ...
    ...    COMMON
    ...    ---
    ...    == History ==
    ...    _*0:*_ 2018.05.22--- Yaping ZHANG<yaping.zhang@nokia-sbell.com> Created this case.
    TriggerInform
    @{parameter_list}=    GetParameterValuesEx    Device.DeviceInfo.ProcessStatus.ProcessNumberOfEntries
    log many    @{parameter_list}
    ${parameter_dict}=    Create Dictionary
    : FOR    ${string}    IN    @{parameter_list}
    \    @{entry}=    Split String    ${string}    ${SPACE}
    \    Set To Dictionary    ${parameter_dict}    @{entry}[0]    @{entry}[1]
    ${ProcessNumber}=    Get From Dictionary    ${parameter_dict}    Device.DeviceInfo.ProcessStatus.ProcessNumberOfEntries
    Should Not be Equal As Integers    ${ProcessNumber}    0
    : FOR    ${i}    IN RANGE    1    ${ProcessNumber}+1
    \    @{parameter_list}=    GetParameterValuesEx    Device.DeviceInfo.ProcessStatus.Process.${i}.State
    \    log many    @{parameter_list}
    \    ${random_string1}=    Generate Random String    8    [LOWER][NUMBERS]
    \    ${status}    ${body}    SetParameterAndGetResponse    Device.DeviceInfo.ProcessStatus.Process.${i}.State ${random_string1}    9008
    \    Should be Equal    ${status}    ${True}
    \    log    ${status}
    \    log many    ${body}

31
    [Documentation]    R Device.DeviceInfo.FirstUseDate
    ...
    ...
    ...    *Author:* Yue Hong
    ...
    ...    ---
    ...    == Customer ==
    ...
    ...    G240WB,G240WC,G240WZA,MXXT,MXXV,SAIB
    ...    ---
    ...    == History ==
    ...    _*Rev 0:*_ May 28, 2018 --- Yue Hong \ <Hong.Yue@nokia-sbell.com>: Create this case.
    ${node}    Set Variable    Device.DeviceInfo.FirstUseDate
    TriggerInform
    #check the parameter writable or not
    ${w}=    GetParameterNamesEx    ${node}
    log many    ${w}
    ${w}=    Split String    @{w}
    log many    @{w}[1]
    Should Be Equal As Strings    @{w}[1]    0
    #get the value
    ${v}=    GetParameterValuesEx    ${node}
    log many    ${v}
    ${v}    Split String    @{v}
    #get the attribute
    ${attribute}=    GetParameterAttributesEx    ${node}
    log many    ${attribute}
    #set the attribute
    SetParameterAttributesEx    ${node} true 1 false x
    #set value and check
    ${status}    ${body}    SetParameterAndGetResponse    ${node} @{v}[1]    9008
    Should be Equal    ${status}    ${True}
