*** Settings ***
Documentation     Port mapping rules can be created/deleted by TR069 method. And Port mapping function should work fine.
...
...               == History ==
...               _*Rev 1:*_ 23. June, 2017 --- Cai Jinglu \ <Jinglu.A.Cai@alcatel-sbell.com.cn>: Before HDR56, ${ex_end_path} should be X_ASB_COM_ExternalPortEnd, in HDR56 MXXT, MXXV and SAIB uses ExternalPortEndRange to replace X_ASB_COM_ExternalPortEnd. After HDR5601, all OPIDs use ExternalPortEndRange.
Suite Setup       SuiteSetup
Suite Teardown    SuiteTeardown
Default Tags      COMMON
Resource          %{ROBOTREPO}/HLK/res/l2-pcta.txt
Library           %{RFPATH}/Python-2.7/lib/python2.7/site-packages/robot/libraries/String.py
Library           %{RFPATH}/Python-2.7/lib/python2.7/site-packages/robot/libraries/Process.py
Library           HttpLibrary.HTTP
Resource          %{ROBOTREPO}/HLK/res/l3-tr069.txt
Resource          %{ROBOTREPO}/HLK/res/l3-selenium2.txt
Library           Dialogs

*** Test Cases ***
01
    [Documentation]    port mapping single port for tcp packet
    ...
    ...    --2017-01-09: edit by rock. split NAT suite to NAT, PASSTHROUGH, PORTMAPPING; Get environment values in GetENV on STARTUP
    Run keyword if    '${TRMode}'=='TR098'    l3-tr069.setportmapping    add    ${cpe_internet_interface}    9201    9201
    ...    9201    9201    TCP    ${pc['lan_ip']}    true
    Run keyword if    '${TRMode}'=='TR181'    l3-tr069.setportmappingTR181    add    ${cpe_internet_interface}    9201    9201
    ...    9201    9201    TCP    ${pc['lan_ip']}    true
    ${cap_dist_id}=    ta_start_capt_tcp_packet    ${pc['lan_interface'][3]}    -tcp_dest_port 9201
    ta_send_tcp_packet    ${pc['wan_interface'][3]}    -mac_src ${pc_wan_mac} -ip_src ${pc['wan_ip']} -mac_dest ${cpe_gateway_mac} -ip_dest ${cpe_internet_ip} -tcp_dest_port 9201 -tcp_control_bits 000010 -packet_count 3
    sleep    2s
    ${cap_result_dict}=    ta_stop_capt_tcp_packet    ${pc['lan_interface'][3]}    -dist_id ${cap_dist_id}
    Should Not Be Equal As Strings    ${cap_result_dict}    NONE
    [Teardown]    Run Keyword    Run Keyword If    '${TRMode}'=='TR098'    l3-tr069.setportmapping    clear
    ...    ELSE IF    '${TRMode}'=='TR181'    l3-tr069.setportmappingTR181    clear

02
    [Documentation]    port mapping multiple port for tcp packet
    ...
    ...    --2017-01-09: edit by rock. split NAT suite to NAT, PASSTHROUGH, PORTMAPPING; Get environment values in GetENV on STARTUP
    Run keyword if    '${TRMode}'=='TR098'    l3-tr069.setportmapping    add    ${cpe_internet_interface}    9211    9220
    ...    9211    9220    TCP    ${pc['lan_ip']}    true
    Run keyword if    '${TRMode}'=='TR181'    l3-tr069.setportmappingTR181    add    ${cpe_internet_interface}    9211    9220
    ...    9211    9220    TCP    ${pc['lan_ip']}    true
    # check tcp port 9211
    ${cap_dist_id}=    ta_start_capt_tcp_packet    ${pc['lan_interface'][3]}    -tcp_dest_port 9211
    ta_send_tcp_packet    ${pc['wan_interface'][3]}    -mac_src ${pc_wan_mac} -ip_src ${pc['wan_ip']} -mac_dest ${cpe_gateway_mac} -ip_dest ${cpe_internet_ip} -tcp_dest_port 9211 -tcp_control_bits 000010 -packet_count 3
    ${cap_result_dict}=    ta_stop_capt_tcp_packet    ${pc['lan_interface'][3]}    -dist_id ${cap_dist_id}
    Should Not Be Equal As Strings    ${cap_result_dict}    NONE
    # check tcp port 9220
    ${cap_dist_id}=    ta_start_capt_tcp_packet    ${pc['lan_interface'][3]}    -tcp_dest_port 9220
    ta_send_tcp_packet    ${pc['wan_interface'][3]}    -mac_src ${pc_wan_mac} -ip_src ${pc['wan_ip']} -mac_dest ${cpe_gateway_mac} -ip_dest ${cpe_internet_ip} -tcp_dest_port 9220 -tcp_control_bits 000010 -packet_count 3
    ${cap_result_dict}=    ta_stop_capt_tcp_packet    ${pc['lan_interface'][3]}    -dist_id ${cap_dist_id}
    Should Not Be Equal As Strings    ${cap_result_dict}    NONE
    # check tcp port 9218
    ${cap_dist_id}=    ta_start_capt_tcp_packet    ${pc['lan_interface'][3]}    -tcp_dest_port 9218
    ta_send_tcp_packet    ${pc['wan_interface'][3]}    -mac_src ${pc_wan_mac} -ip_src ${pc['wan_ip']} -mac_dest ${cpe_gateway_mac} -ip_dest ${cpe_internet_ip} -tcp_dest_port 9218 -tcp_control_bits 000010 -packet_count 3
    ${cap_result_dict}=    ta_stop_capt_tcp_packet    ${pc['lan_interface'][3]}    -dist_id ${cap_dist_id}
    Should Not Be Equal As Strings    ${cap_result_dict}    NONE
    [Teardown]    Run Keyword    Run Keyword If    '${TRMode}'=='TR098'    l3-tr069.setportmapping    clear
    ...    ELSE IF    '${TRMode}'=='TR181'    l3-tr069.setportmappingTR181    clear

03
    [Documentation]    multiple port port mapping to single port for tcp
    ...
    ...    --2017-01-09: edit by rock. split NAT suite to NAT, PASSTHROUGH, PORTMAPPING; Get environment values in GetENV on STARTUP
    Run keyword if    '${TRMode}'=='TR098'    l3-tr069.setportmapping    add    ${cpe_internet_interface}    9251    9260
    ...    9261    9261    TCP    ${pc['lan_ip']}    true
    Run keyword if    '${TRMode}'=='TR181'    l3-tr069.setportmappingTR181    add    ${cpe_internet_interface}    9251    9260
    ...    9261    9261    TCP    ${pc['lan_ip']}    true
    # check tcp port 9251 to 9261
    ${cap_dist_id}=    ta_start_capt_tcp_packet    ${pc['lan_interface'][3]}    -tcp_dest_port 9261
    ta_send_tcp_packet    ${pc['wan_interface'][3]}    -mac_src ${pc_wan_mac} -ip_src ${pc['wan_ip']} -mac_dest ${cpe_gateway_mac} -ip_dest ${cpe_internet_ip} -tcp_dest_port 9251 -tcp_control_bits 000010 -packet_count 3
    ${cap_result_dict}=    ta_stop_capt_tcp_packet    ${pc['lan_interface'][3]}    -dist_id ${cap_dist_id}
    Should Not Be Equal As Strings    ${cap_result_dict}    NONE
    # check tcp port 9258 to 9261
    ${cap_dist_id}=    ta_start_capt_tcp_packet    ${pc['lan_interface'][3]}    -tcp_dest_port 9261
    ta_send_tcp_packet    ${pc['wan_interface'][3]}    -mac_src ${pc_wan_mac} -ip_src ${pc['wan_ip']} -mac_dest ${cpe_gateway_mac} -ip_dest ${cpe_internet_ip} -tcp_dest_port 9258 -tcp_control_bits 000010 -packet_count 3
    ${cap_result_dict}=    ta_stop_capt_tcp_packet    ${pc['lan_interface'][3]}    -dist_id ${cap_dist_id}
    Should Not Be Equal As Strings    ${cap_result_dict}    NONE
    # check tcp port 9260 to 9261
    ${cap_dist_id}=    ta_start_capt_tcp_packet    ${pc['lan_interface'][3]}    -tcp_dest_port 9261
    ta_send_tcp_packet    ${pc['wan_interface'][3]}    -mac_src ${pc_wan_mac} -ip_src ${pc['wan_ip']} -mac_dest ${cpe_gateway_mac} -ip_dest ${cpe_internet_ip} -tcp_dest_port 9260 -tcp_control_bits 000010 -packet_count 3
    ${cap_result_dict}=    ta_stop_capt_tcp_packet    ${pc['lan_interface'][3]}    -dist_id ${cap_dist_id}
    Should Not Be Equal As Strings    ${cap_result_dict}    NONE
    [Teardown]    Run Keyword    Run Keyword If    '${TRMode}'=='TR098'    l3-tr069.setportmapping    clear
    ...    ELSE IF    '${TRMode}'=='TR181'    l3-tr069.setportmappingTR181    clear

04
    [Documentation]    port mapping single port for udp packet
    ...
    ...    --2017-01-09: edit by rock. split NAT suite to NAT, PASSTHROUGH, PORTMAPPING; Get environment values in GetENV on STARTUP
    Run keyword if    '${TRMode}'=='TR098'    l3-tr069.setportmapping    add    ${cpe_internet_interface}    9202    9202
    ...    9202    9202    UDP    ${pc['lan_ip']}    true
    Run keyword if    '${TRMode}'=='TR181'    l3-tr069.setportmappingTR181    add    ${cpe_internet_interface}    9202    9202
    ...    9202    9202    UDP    ${pc['lan_ip']}    true
    ${cap_dist_id}=    ta_start_capt_udp_packet    ${pc['lan_interface'][3]}    -dst_port 9202
    ta_send_udp_packet    ${pc['wan_interface'][3]}    -mac_src ${pc_wan_mac} -ip_src ${pc['wan_ip']} -mac_dest ${cpe_gateway_mac} -ip_dest ${cpe_internet_ip} -dst_port 9202 -message_count 3
    sleep    2s
    ${cap_result_dict}=    ta_stop_capt_udp_packet    ${pc['lan_interface'][3]}    -dist_id ${cap_dist_id}
    Should Not Be Equal As Strings    ${cap_result_dict}    NONE
    [Teardown]    Run Keyword    Run Keyword If    '${TRMode}'=='TR098'    l3-tr069.setportmapping    clear
    ...    ELSE IF    '${TRMode}'=='TR181'    l3-tr069.setportmappingTR181    clear

05
    [Documentation]    port mapping multiple port for udp packet
    ...
    ...    --2017-01-09: edit by rock. split NAT suite to NAT, PASSTHROUGH, PORTMAPPING; Get environment values in GetENV on STARTUP
    Pass Execution If    '${TRMode}'=='TR181'    Skip test mapping multiple, because TR181 no this requirement.
    Run keyword if    '${TRMode}'=='TR098'    l3-tr069.setportmapping    add    ${cpe_internet_interface}    9221    9230
    ...    9221    9230    UDP    ${pc['lan_ip']}    true
    # check udp port 9221
    ${cap_dist_id}=    ta_start_capt_udp_packet    ${pc['lan_interface'][3]}    -dst_port 9221
    ta_send_udp_packet    ${pc['wan_interface'][3]}    -mac_src ${pc_wan_mac} -ip_src ${pc['wan_ip']} -mac_dest ${cpe_gateway_mac} -ip_dest ${cpe_internet_ip} -dst_port 9221 -message_count 3
    sleep    2s
    ${cap_result_dict}=    ta_stop_capt_udp_packet    ${pc['lan_interface'][3]}    -dist_id ${cap_dist_id}
    Should Not Be Equal As Strings    ${cap_result_dict}    NONE
    # check udp port 9225
    ${cap_dist_id}=    ta_start_capt_udp_packet    ${pc['lan_interface'][3]}    -dst_port 9225
    ta_send_udp_packet    ${pc['wan_interface'][3]}    -mac_src ${pc_wan_mac} -ip_src ${pc['wan_ip']} -mac_dest ${cpe_gateway_mac} -ip_dest ${cpe_internet_ip} -dst_port 9225 -message_count 3
    sleep    2s
    ${cap_result_dict}=    ta_stop_capt_udp_packet    ${pc['lan_interface'][3]}    -dist_id ${cap_dist_id}
    Should Not Be Equal As Strings    ${cap_result_dict}    NONE
    # check udp port 9230
    ${cap_dist_id}=    ta_start_capt_udp_packet    ${pc['lan_interface'][3]}    -dst_port 9230
    ta_send_udp_packet    ${pc['wan_interface'][3]}    -mac_src ${pc_wan_mac} -ip_src ${pc['wan_ip']} -mac_dest ${cpe_gateway_mac} -ip_dest ${cpe_internet_ip} -dst_port 9230 -message_count 3
    sleep    2s
    ${cap_result_dict}=    ta_stop_capt_udp_packet    ${pc['lan_interface'][3]}    -dist_id ${cap_dist_id}
    Should Not Be Equal As Strings    ${cap_result_dict}    NONE
    [Teardown]    Run Keyword    Run Keyword If    '${TRMode}'=='TR098'    l3-tr069.setportmapping    clear
    ...    ELSE IF    '${TRMode}'=='TR181'    l3-tr069.setportmappingTR181    clear

06
    [Documentation]    multiple port port mapping to single port for udp
    ...
    ...    --2017-01-09: edit by rock. split NAT suite to NAT, PASSTHROUGH, PORTMAPPING; Get environment values in GetENV on STARTUP
    Run keyword if    '${TRMode}'=='TR098'    l3-tr069.setportmapping    add    ${cpe_internet_interface}    9271    9280
    ...    9288    9288    UDP    ${pc['lan_ip']}    true
    Run keyword if    '${TRMode}'=='TR181'    l3-tr069.setportmappingTR181    add    ${cpe_internet_interface}    9271    9280
    ...    9288    9288    UDP    ${pc['lan_ip']}    true
    # check udp port 9271 to 9288
    ${cap_dist_id}=    ta_start_capt_udp_packet    ${pc['lan_interface'][3]}    -dst_port 9288
    ta_send_udp_packet    ${pc['wan_interface'][3]}    -mac_src ${pc_wan_mac} -ip_src ${pc['wan_ip']} -mac_dest ${cpe_gateway_mac} -ip_dest ${cpe_internet_ip} -dst_port 9271 -message_count 3
    sleep    2s
    ${cap_result_dict}=    ta_stop_capt_udp_packet    ${pc['lan_interface'][3]}    -dist_id ${cap_dist_id}
    Should Not Be Equal As Strings    ${cap_result_dict}    NONE
    # check udp port 9277 to 9288
    ${cap_dist_id}=    ta_start_capt_udp_packet    ${pc['lan_interface'][3]}    -dst_port 9288
    ta_send_udp_packet    ${pc['wan_interface'][3]}    -mac_src ${pc_wan_mac} -ip_src ${pc['wan_ip']} -mac_dest ${cpe_gateway_mac} -ip_dest ${cpe_internet_ip} -dst_port 9277 -message_count 3
    sleep    2s
    ${cap_result_dict}=    ta_stop_capt_udp_packet    ${pc['lan_interface'][3]}    -dist_id ${cap_dist_id}
    Should Not Be Equal As Strings    ${cap_result_dict}    NONE
    # check udp port 9280
    ${cap_dist_id}=    ta_start_capt_udp_packet    ${pc['lan_interface'][3]}    -dst_port 9288
    ta_send_udp_packet    ${pc['wan_interface'][3]}    -mac_src ${pc_wan_mac} -ip_src ${pc['wan_ip']} -mac_dest ${cpe_gateway_mac} -ip_dest ${cpe_internet_ip} -dst_port 9280 -message_count 3
    sleep    2s
    ${cap_result_dict}=    ta_stop_capt_udp_packet    ${pc['lan_interface'][3]}    -dist_id ${cap_dist_id}
    Should Not Be Equal As Strings    ${cap_result_dict}    NONE
    [Teardown]    Run Keyword    Run Keyword If    '${TRMode}'=='TR098'    l3-tr069.setportmapping    clear
    ...    ELSE IF    '${TRMode}'=='TR181'    l3-tr069.setportmappingTR181    clear

07
    [Documentation]    delete one of active rules
    ...
    ...    --2017-01-09: edit by rock. split NAT suite to NAT, PASSTHROUGH, PORTMAPPING; Get environment values in GetENV on STARTUP
    #add 1st rule single udp port external 1111 to internal 1112
    Run keyword if    '${TRMode}'=='TR098'    l3-tr069.setportmapping    add    ${cpe_internet_interface}    1111    1111
    ...    1112    1112    UDP    ${pc['lan_ip']}    true
    ${index}=    Run keyword if    '${TRMode}'=='TR181'    l3-tr069.setportmappingTR181    add    ${cpe_internet_interface}    1111
    ...    1111    1112    1112    UDP    ${pc['lan_ip']}    true
    ## check udp external port 1111, packets should be received at 1112
    ${cap_dist_id}=    ta_start_capt_udp_packet    ${pc['lan_interface'][3]}    -dst_port 1112
    ta_send_udp_packet    ${pc['wan_interface'][3]}    -mac_src ${pc_wan_mac} -ip_src ${pc['wan_ip']} -mac_dest ${cpe_gateway_mac} -ip_dest ${cpe_internet_ip} -dst_port 1111 -message_count 3
    sleep    2s
    ${cap_result_dict}=    ta_stop_capt_udp_packet    ${pc['lan_interface'][3]}    -dist_id ${cap_dist_id}
    Should Not Be Equal As Strings    ${cap_result_dict}    NONE
    ## check udp external port 1112, no packet should be received at 1112
    ${cap_dist_id}=    ta_start_capt_udp_packet    ${pc['lan_interface'][3]}    -dst_port 1112
    ta_send_udp_packet    ${pc['wan_interface'][3]}    -mac_src ${pc_wan_mac} -ip_src ${pc['wan_ip']} -mac_dest ${cpe_gateway_mac} -ip_dest ${cpe_internet_ip} -dst_port 1112 -message_count 3
    sleep    2s
    ${cap_result_dict}=    ta_stop_capt_udp_packet    ${pc['lan_interface'][3]}    -dist_id ${cap_dist_id}
    Should Be Equal As Strings    ${cap_result_dict}    NONE
    #add 2nd rule single tcp port external 1111-1150 to internal 1112
    Run keyword if    '${TRMode}'=='TR098'    l3-tr069.setportmapping    add    ${cpe_internet_interface}    1111    1150
    ...    1112    1112    TCP    ${pc['lan_ip']}    true
    Run keyword if    '${TRMode}'=='TR181'    l3-tr069.setportmappingTR181    add    ${cpe_internet_interface}    1111    1150
    ...    1112    1112    TCP    ${pc['lan_ip']}    true
    ## check tcp external port 1150, packets should be received at 1112
    ${cap_dist_id}=    ta_start_capt_tcp_packet    ${pc['lan_interface'][3]}    -tcp_dest_port 1112
    ta_send_tcp_packet    ${pc['wan_interface'][3]}    -mac_src ${pc_wan_mac} -ip_src ${pc['wan_ip']} -mac_dest ${cpe_gateway_mac} -ip_dest ${cpe_internet_ip} -tcp_dest_port 1150 -packet_count 3 -tcp_control_bits 000010
    sleep    2s
    ${cap_result_dict}=    ta_stop_capt_tcp_packet    ${pc['lan_interface'][3]}    -dist_id ${cap_dist_id}
    Should Not Be Equal As Strings    ${cap_result_dict}    NONE
    ## check tcp external port 1111, packets should be received at 1112
    ${cap_dist_id}=    ta_start_capt_tcp_packet    ${pc['lan_interface'][3]}    -tcp_dest_port 1112
    ta_send_tcp_packet    ${pc['wan_interface'][3]}    -mac_src ${pc_wan_mac} -ip_src ${pc['wan_ip']} -mac_dest ${cpe_gateway_mac} -ip_dest ${cpe_internet_ip} -tcp_dest_port 1111 -packet_count 3 -tcp_control_bits 000010
    sleep    2s
    ${cap_result_dict}=    ta_stop_capt_tcp_packet    ${pc['lan_interface'][3]}    -dist_id ${cap_dist_id}
    Should Not Be Equal As Strings    ${cap_result_dict}    NONE
    ## check udp external port 1112, no packet should be received at 1112
    ${cap_dist_id}=    ta_start_capt_udp_packet    ${pc['lan_interface'][3]}    -dst_port 1112
    ta_send_udp_packet    ${pc['wan_interface'][3]}    -mac_src ${pc_wan_mac} -ip_src ${pc['wan_ip']} -mac_dest ${cpe_gateway_mac} -ip_dest ${cpe_internet_ip} -dst_port 1112 -message_count 3
    sleep    2s
    ${cap_result_dict}=    ta_stop_capt_udp_packet    ${pc['lan_interface'][3]}    -dist_id ${cap_dist_id}
    Should Be Equal As Strings    ${cap_result_dict}    NONE
    #add 3rd rule udp ports external 5555-5560 to internal 5555-5560,TR181 not support mapping to multiple port.
    Run keyword if    '${TRMode}'=='TR098'    l3-tr069.setportmapping    add    ${cpe_internet_interface}    5555    5560
    ...    5555    5560    UDP    ${pc['lan_ip']}    true
    Run keyword if    '${TRMode}'=='TR181'    l3-tr069.setportmappingTR181    add    ${cpe_internet_interface}    5555    5560
    ...    5555    5560    UDP    ${pc['lan_ip']}    true
    ## check udp external port 5555, packets should be received at 5555
    ${cap_dist_id}=    ta_start_capt_udp_packet    ${pc['lan_interface'][3]}    -dst_port 5555
    ta_send_udp_packet    ${pc['wan_interface'][3]}    -mac_src ${pc_wan_mac} -ip_src ${pc['wan_ip']} -mac_dest ${cpe_gateway_mac} -ip_dest ${cpe_internet_ip} -dst_port 5555 -message_count 3
    sleep    2s
    ${cap_result_dict}=    ta_stop_capt_udp_packet    ${pc['lan_interface'][3]}    -dist_id ${cap_dist_id}
    Should Not Be Equal As Strings    ${cap_result_dict}    NONE
    ## check udp external port 5560, packet should be received at 5560,just for tr098
    ${cap_dist_id}=    ta_start_capt_udp_packet    ${pc['lan_interface'][3]}    -dst_port 5560
    ta_send_udp_packet    ${pc['wan_interface'][3]}    -mac_src ${pc_wan_mac} -ip_src ${pc['wan_ip']} -mac_dest ${cpe_gateway_mac} -ip_dest ${cpe_internet_ip} -dst_port 5560 -message_count 3
    sleep    2s
    ${cap_result_dict}=    ta_stop_capt_udp_packet    ${pc['lan_interface'][3]}    -dist_id ${cap_dist_id}
    Run keyword if    '${TRMode}'=='TR098'    Should Not Be Equal As Strings    ${cap_result_dict}    NONE
    #delete 1st rule single udp port external 1111 to internal 1112
    TriggerInform
    Run keyword if    '${TRMode}'=='TR098'    l3-tr069.setportmapping    delete    internet_interface=${cpe_internet_interface}    number=1
    Run keyword if    '${TRMode}'=='TR181'    l3-tr069.setportmappingTR181    delete    internet_interface=${cpe_internet_interface}    number=${index}
    #verify 1st rule has deleted. Send udp packets to external port 1111, no packets should be received at 1112
    ${cap_dist_id}=    ta_start_capt_udp_packet    ${pc['lan_interface'][3]}    -dst_port 1112
    ta_send_udp_packet    ${pc['wan_interface'][3]}    -mac_src ${pc_wan_mac} -ip_src ${pc['wan_ip']} -mac_dest ${cpe_gateway_mac} -ip_dest ${cpe_internet_ip} -dst_port 1111 -message_count 3
    sleep    2s
    ${cap_result_dict}=    ta_stop_capt_udp_packet    ${pc['lan_interface'][3]}    -dist_id ${cap_dist_id}
    Should Be Equal As Strings    ${cap_result_dict}    NONE
    # verify 2nd rule still works
    ## check tcp external port 1150, packets should be received
    ${cap_dist_id}=    ta_start_capt_tcp_packet    ${pc['lan_interface'][3]}    -tcp_dest_port 1112
    ta_send_tcp_packet    ${pc['wan_interface'][3]}    -mac_src ${pc_wan_mac} -ip_src ${pc['wan_ip']} -mac_dest ${cpe_gateway_mac} -ip_dest ${cpe_internet_ip} -tcp_dest_port 1150 -packet_count 3 -tcp_control_bits 000010
    sleep    2s
    ${cap_result_dict}=    ta_stop_capt_tcp_packet    ${pc['lan_interface'][3]}    -dist_id ${cap_dist_id}
    Should Not Be Equal As Strings    ${cap_result_dict}    NONE
    ## check tcp external port 1111, packets should be received
    ${cap_dist_id}=    ta_start_capt_tcp_packet    ${pc['lan_interface'][3]}    -tcp_dest_port 1112
    ta_send_tcp_packet    ${pc['wan_interface'][3]}    -mac_src ${pc_wan_mac} -ip_src ${pc['wan_ip']} -mac_dest ${cpe_gateway_mac} -ip_dest ${cpe_internet_ip} -tcp_dest_port 1111 -packet_count 3 -tcp_control_bits 000010
    sleep    2s
    ${cap_result_dict}=    ta_stop_capt_tcp_packet    ${pc['lan_interface'][3]}    -dist_id ${cap_dist_id}
    Should Not Be Equal As Strings    ${cap_result_dict}    NONE
    # verify 3rd rule still works
    ## check udp external port 5555, packets should be received
    ${cap_dist_id}=    ta_start_capt_udp_packet    ${pc['lan_interface'][3]}    -dst_port 5555
    ta_send_udp_packet    ${pc['wan_interface'][3]}    -mac_src ${pc_wan_mac} -ip_src ${pc['wan_ip']} -mac_dest ${cpe_gateway_mac} -ip_dest ${cpe_internet_ip} -dst_port 5555 -message_count 3
    sleep    2s
    ${cap_result_dict}=    ta_stop_capt_udp_packet    ${pc['lan_interface'][3]}    -dist_id ${cap_dist_id}
    Should Not Be Equal As Strings    ${cap_result_dict}    NONE
    ## check udp external port 5560, packet should be received,just for tr098
    ${cap_dist_id}=    ta_start_capt_udp_packet    ${pc['lan_interface'][3]}    -dst_port 5560
    ta_send_udp_packet    ${pc['wan_interface'][3]}    -mac_src ${pc_wan_mac} -ip_src ${pc['wan_ip']} -mac_dest ${cpe_gateway_mac} -ip_dest ${cpe_internet_ip} -dst_port 5560 -message_count 3
    sleep    2s
    ${cap_result_dict}=    ta_stop_capt_udp_packet    ${pc['lan_interface'][3]}    -dist_id ${cap_dist_id}
    Run keyword if    '${TRMode}'=='TR098'    Should Not Be Equal As Strings    ${cap_result_dict}    NONE
    [Teardown]    Run Keyword    Run Keyword If    '${TRMode}'=='TR098'    l3-tr069.setportmapping    clear
    ...    ELSE IF    '${TRMode}'=='TR181'    l3-tr069.setportmappingTR181    clear

08
    [Documentation]    DMZ test by TCP
    ...
    ...    --2017-01-09: edit by rock. split NAT suite to NAT, PASSTHROUGH, PORTMAPPING; Get environment values in GetENV on STARTUP
    Pass Execution If    '${TRMode}'=='TR181'    Skip test dmz node, because TR181 no this requirement.
    ${passed}=    Run Keyword And Return Status    Should Contain    ${cpe_internet_interface}    WANPPPConnection
    ${path}=    Set Variable If    ${passed}    ${cpe_internet_interface}.X_ASB_COM_DmzPppHostCfg.    '${passed}' == 'False'    ${cpe_internet_interface}.X_ASB_COM_DmzIpHostCfg.
    log    ${path}
    TriggerInform
    ${status}=    SetParameterValuesEx    ${path}InternalClient ${pc['lan_ip']} ${path}DmzEnabled true
    Should Be Equal    ${status}    0
    sleep    3s
    # check tcp port 9301
    ${cap_dist_id}=    ta_start_capt_tcp_packet    ${pc['lan_interface'][3]}    -tcp_dest_port 9301
    ${mac_src}=    Remove String    ${pc['wan_mac']}    :
    ta_send_tcp_packet    ${pc['wan_interface'][3]}    -mac_src ${pc_wan_mac} -ip_src ${pc['wan_ip']} -mac_dest ${cpe_gateway_mac} -ip_dest ${cpe_internet_ip} -tcp_dest_port 9301 -tcp_control_bits 000010 -packet_count 3
    ${cap_result_dict}=    ta_stop_capt_tcp_packet    ${pc['lan_interface'][3]}    -dist_id ${cap_dist_id}
    Should Not Be Equal As Strings    ${cap_result_dict}    NONE
    # check tcp port 9302
    ${cap_dist_id}=    ta_start_capt_tcp_packet    ${pc['lan_interface'][3]}    -tcp_dest_port 9302
    ${mac_src}=    Remove String    ${pc['wan_mac']}    :
    ta_send_tcp_packet    ${pc['wan_interface'][3]}    -mac_src ${pc_wan_mac} -ip_src ${pc['wan_ip']} -mac_dest ${cpe_gateway_mac} -ip_dest ${cpe_internet_ip} -tcp_dest_port 9302 -tcp_control_bits 000010 -packet_count 3
    ${cap_result_dict}=    ta_stop_capt_tcp_packet    ${pc['lan_interface'][3]}    -dist_id ${cap_dist_id}
    Should Not Be Equal As Strings    ${cap_result_dict}    NONE
    # check tcp port 9303
    ${cap_dist_id}=    ta_start_capt_tcp_packet    ${pc['lan_interface'][3]}    -tcp_dest_port 9303
    ${mac_src}=    Remove String    ${pc['wan_mac']}    :
    ta_send_tcp_packet    ${pc['wan_interface'][3]}    -mac_src ${pc_wan_mac} -ip_src ${pc['wan_ip']} -mac_dest ${cpe_gateway_mac} -ip_dest ${cpe_internet_ip} -tcp_dest_port 9303 -tcp_control_bits 000010 -packet_count 3
    ${cap_result_dict}=    ta_stop_capt_tcp_packet    ${pc['lan_interface'][3]}    -dist_id ${cap_dist_id}
    Should Not Be Equal As Strings    ${cap_result_dict}    NONE
    [Teardown]    Run Keywords    SetParameterValuesEx    ${path}DmzEnabled false
    ...    AND    L2-Tr069.CloseClient

09
    [Documentation]    DMZ test by UDP
    ...
    ...    --2017-01-09: edit by rock. split NAT suite to NAT, PASSTHROUGH, PORTMAPPING; Get environment values in GetENV on STARTUP
    Pass Execution If    '${TRMode}'=='TR181'    Skip test dmz node, because TR181 no this requirement.
    ${cap_dist_id}=    ta_start_capt_icmp_message    ${pc['wan_interface'][3]}    -icmp_type 08 -ip_src ${cpe_internet_ip}
    ta_send_icmp_message    ${pc['lan_interface'][3]}    -mac_src ${pc_lan_mac} -ip_src ${pc['lan_ip']} -mac_dest ${cpe_lan_mac} -ip_dest ${pc['wan_ip']} -message_count 3 -message_delay 1000
    sleep    2s
    ${cap_result_dict}=    ta_stop_capt_icmp_message    ${pc['wan_interface'][3]}    -dist_id ${cap_dist_id}
    Should Not Be Equal As Strings    ${cap_result_dict}    NONE
    ${cpe_wan_mac}=    Get From Dictionary    ${cap_result_dict}    -mac_src
    ${passed}=    Run Keyword And Return Status    Should Contain    ${cpe_internet_interface}    WANPPPConnection
    ${path}=    Set Variable If    ${passed}    ${cpe_internet_interface}.X_ASB_COM_DmzPppHostCfg.    '${passed}' == 'False'    ${cpe_internet_interface}.X_ASB_COM_DmzIpHostCfg.
    log    ${path}
    TriggerInform
    ${status}=    SetParameterValuesEx    ${path}InternalClient ${pc['lan_ip']} ${path}DmzEnabled true
    Should Be Equal    ${status}    0
    sleep    3s
    # check udp port 9307
    ${cap_dist_id}=    ta_start_capt_udp_packet    ${pc['lan_interface'][3]}    -dst_port 9307
    ${cpe_wan_mac}=    Get From Dictionary    ${cap_result_dict}    -mac_src
    ta_send_udp_packet    ${pc['wan_interface'][3]}    -mac_src ${pc_wan_mac} -ip_src ${pc['wan_ip']} -mac_dest ${cpe_gateway_mac} -ip_dest ${cpe_internet_ip} -dst_port 9307 -message_count 3
    sleep    2s
    ${cap_result_dict}=    ta_stop_capt_udp_packet    ${pc['lan_interface'][3]}    -dist_id ${cap_dist_id}
    Should Not Be Equal As Strings    ${cap_result_dict}    NONE
    # check udp port 9308
    ${cap_dist_id}=    ta_start_capt_udp_packet    ${pc['lan_interface'][3]}    -dst_port 9308
    ta_send_udp_packet    ${pc['wan_interface'][3]}    -mac_src ${pc_wan_mac} -ip_src ${pc['wan_ip']} -mac_dest ${cpe_gateway_mac} -ip_dest ${cpe_internet_ip} -dst_port 9308 -message_count 3
    sleep    2s
    ${cap_result_dict}=    ta_stop_capt_udp_packet    ${pc['lan_interface'][3]}    -dist_id ${cap_dist_id}
    Should Not Be Equal As Strings    ${cap_result_dict}    NONE
    # check udp port 9309
    ${cap_dist_id}=    ta_start_capt_udp_packet    ${pc['lan_interface'][3]}    -dst_port 9309
    ta_send_udp_packet    ${pc['wan_interface'][3]}    -mac_src ${pc_wan_mac} -ip_src ${pc['wan_ip']} -mac_dest ${cpe_gateway_mac} -ip_dest ${cpe_internet_ip} -dst_port 9309 -message_count 3
    sleep    2s
    ${cap_result_dict}=    ta_stop_capt_udp_packet    ${pc['lan_interface'][3]}    -dist_id ${cap_dist_id}
    Should Not Be Equal As Strings    ${cap_result_dict}    NONE
    [Teardown]    Run Keywords    SetParameterValuesEx    ${path}DmzEnabled false
    ...    AND    L2-Tr069.CloseClient

10
    [Documentation]    packets should not forward to LAN when DMZ disabled
    ...
    ...    --2017-01-09: edit by rock. split NAT suite to NAT, PASSTHROUGH, PORTMAPPING; Get environment values in GetENV on STARTUP
    Pass Execution If    '${TRMode}'=='TR181'    Skip test dmz node, because TR181 no this requirement.
    ${passed}=    Run Keyword And Return Status    Should Contain    ${cpe_internet_interface}    WANPPPConnection
    ${path}=    Set Variable If    ${passed}    ${cpe_internet_interface}.X_ASB_COM_DmzPppHostCfg.    '${passed}' == 'False'    ${cpe_internet_interface}.X_ASB_COM_DmzIpHostCfg.
    log    ${path}
    TriggerInform
    @{parameter_list}=    GetParameterValuesEx    ${path}DmzEnabled
    L2-Tr069.CloseClient
    ${dmz_status}=    Fetch From Right    @{parameter_list}[0]    ${SPACE}
    Should Be Equal As Strings    ${dmz_status}    false
    # check tcp port 9301
    ${cap_dist_id}=    ta_start_capt_tcp_packet    ${pc['lan_interface'][3]}    -tcp_dest_port 9301 -ip_src ${pc['wan_ip']}
    ta_send_tcp_packet    ${pc['wan_interface'][3]}    -mac_src ${pc_wan_mac} -ip_src ${pc['wan_ip']} -mac_dest ${cpe_gateway_mac} -ip_dest ${cpe_internet_ip} -tcp_dest_port 9301 -tcp_control_bits 000010 -packet_count 3
    ${cap_result_dict}=    ta_stop_capt_tcp_packet    ${pc['lan_interface'][3]}    -dist_id ${cap_dist_id}
    ${passed}=    Run Keyword And Return Status    Should Match Regexp    ${cap_result_dict}    NONE
    Run Keyword If    ${passed}    Should Be Equal As Strings    ${cap_result_dict}    NONE
    ${ip_src}=    Run Keyword If    '${passed}'=='False'    Get From Dictionary    ${cap_result_dict}    -ip_src
    Run Keyword If    '${passed}'=='False'    Should Not Be Equal    ${ip_src}    ${pc['wan_ip']}
    Comment    Should Not Contain    ${cap_result_dict}    ${pc['wan_ip']}
    # check udp port 9309
    ${cap_dist_id}=    ta_start_capt_udp_packet    ${pc['lan_interface'][3]}    -dst_port 9309 -ip_src ${pc['wan_ip']}
    ta_send_udp_packet    ${pc['wan_interface'][3]}    -mac_src ${pc_wan_mac} -ip_src ${pc['wan_ip']} -mac_dest ${cpe_gateway_mac} -ip_dest ${cpe_internet_ip} -dst_port 9309 -message_count 3
    sleep    2s
    ${cap_result_dict}=    ta_stop_capt_udp_packet    ${pc['lan_interface'][3]}    -dist_id ${cap_dist_id}
    Comment    Should Not Contain    ${cap_result_dict}    ${pc['wan_ip']}
    ${passed}=    Run Keyword And Return Status    Should Match Regexp    ${cap_result_dict}    NONE
    Run Keyword If    ${passed}    Should Be Equal As Strings    ${cap_result_dict}    NONE
    ${ip_src}=    Run Keyword If    '${passed}'=='False'    Get From Dictionary    ${cap_result_dict}    -ip_src
    Run Keyword If    '${passed}'=='False'    Should Not Be Equal    ${ip_src}    ${pc['wan_ip']}
    [Teardown]    L2-Tr069.CloseClient

11
    [Documentation]    Title: IPoE Portfowarding Rule
    ...    Objective: Create a IPoE portfowarding rule via TR069, and check if rule take effect.
    ...
    ...    The author:
    ...    Wuyang.Shi@alcatel-sbell.com.cn
    #VFSP not support the second wan
    Pass Execution If    '${ont['opid']}'=='VFSP'    Skip choose the second wan, because VFSP no this requirement.
    l3-selenium2.LoginGUI    ${ont['gui_type']}    ${ont['url_protocol']}://${ont['ip']}    ${ont['gui_username']}    ${ont['gui_password']}
    ${wan_services}    create list    INTERNET
    l3-selenium2.SetWan    ${ont['gui_type']}    ${ont['url_protocol']}://${ont['ip']}    add    mode=dhcp    vlan_id=1003    wan_services=${wan_services}
    ${Dict}=    l3-selenium2.GetWanStatus    ${ont['gui_type']}    ${ont['url_protocol']}://${ont['ip']}    1003
    ${cpe_dhcpinternet_ip}=    Get From Dictionary    ${Dict}    ip
    l3-selenium2.LogoutGUI    ${ont['gui_type']}    ${ont['url_protocol']}://${ont['ip']}
    Run keyword if    '${TRMode}'=='TR098'    l3-tr069.setportmapping    add    1003    9201    9201
    ...    9201    9201    TCP    ${pc['lan_ip']}    true
    Run keyword if    '${TRMode}'=='TR181'    l3-tr069.setportmappingTR181    add    1003    9201    9201
    ...    9201    9201    TCP    ${pc['lan_ip']}    true
    ${cap_dist_id}=    ta_start_capt_tcp_packet    ${pc['lan_interface'][3]}    -tcp_dest_port 9201
    ta_send_tcp_packet    ${pc['wan_interface'][3]}    -mac_src ${pc_wan_mac} -ip_src ${pc['wan_ip']} -mac_dest ${cpe_gateway_mac} -ip_dest ${cpe_dhcpinternet_ip} -tcp_dest_port 9201 -tcp_control_bits 000010 -packet_count 3
    sleep    2s
    ${cap_result_dict}=    ta_stop_capt_tcp_packet    ${pc['lan_interface'][3]}    -dist_id ${cap_dist_id}
    Should Not Be Equal As Strings    ${cap_result_dict}    NONE
    [Teardown]    Run Keywords    run keyword if    'TRMode'=='TR098'    l3-tr069.setportmapping    clear
    ...    ELSE IF    'TRMode'=='TR181'    l3-tr069.setportmapping181    clear
    ...    AND    RecoveryWANForTR069PortMapping

12
    [Documentation]    Title: Disable Active Rule
    ...    Objective: Create multiple portforwarding rules and make sure that all rules can work well, keep port forwarding session active(run some applications), then try to disable one of rules, check active session deactived immediately after rule disabled.
    ...
    ...    The author:
    ...    Wuyang.Shi@alcatel-sbell.com.cn
    #add 1st rule single udp port external 1111 to internal 1112
    Run keyword if    '${TRMode}'=='TR098'    l3-tr069.setportmapping    add    ${cpe_internet_interface}    1111    1111
    ...    1112    1112    UDP    ${pc['lan_ip']}    true
    ${index}=    Run keyword if    '${TRMode}'=='TR181'    l3-tr069.setportmappingTR181    add    ${cpe_internet_interface}    1111
    ...    1111    1112    1112    UDP    ${pc['lan_ip']}    true
    ## check udp external port 1111, packets should be received at 1112
    ${cap_dist_id}=    ta_start_capt_udp_packet    ${pc['lan_interface'][3]}    -dst_port 1112
    ta_send_udp_packet    ${pc['wan_interface'][3]}    -mac_src ${pc_wan_mac} -ip_src ${pc['wan_ip']} -mac_dest ${cpe_gateway_mac} -ip_dest ${cpe_internet_ip} -dst_port 1111 -message_count 3
    sleep    2s
    ${cap_result_dict}=    ta_stop_capt_udp_packet    ${pc['lan_interface'][3]}    -dist_id ${cap_dist_id}
    Should Not Be Equal As Strings    ${cap_result_dict}    NONE
    ## check udp external port 1112, no packet should be received at 1112
    ${cap_dist_id}=    ta_start_capt_udp_packet    ${pc['lan_interface'][3]}    -dst_port 1112
    ta_send_udp_packet    ${pc['wan_interface'][3]}    -mac_src ${pc_wan_mac} -ip_src ${pc['wan_ip']} -mac_dest ${cpe_gateway_mac} -ip_dest ${cpe_internet_ip} -dst_port 1112 -message_count 3
    sleep    2s
    ${cap_result_dict}=    ta_stop_capt_udp_packet    ${pc['lan_interface'][3]}    -dist_id ${cap_dist_id}
    Should Be Equal As Strings    ${cap_result_dict}    NONE
    #add 2nd rule single tcp port external 1111-1150 to internal 1112
    Run keyword if    '${TRMode}'=='TR098'    l3-tr069.setportmapping    add    ${cpe_internet_interface}    1111    1150
    ...    1112    1112    TCP    ${pc['lan_ip']}    true
    Run keyword if    '${TRMode}'=='TR181'    l3-tr069.setportmappingTR181    add    ${cpe_internet_interface}    1111    1150
    ...    1112    1112    TCP    ${pc['lan_ip']}    true
    ## check tcp external port 1150, packets should be received at 1112
    ${cap_dist_id}=    ta_start_capt_tcp_packet    ${pc['lan_interface'][3]}    -tcp_dest_port 1112
    ta_send_tcp_packet    ${pc['wan_interface'][3]}    -mac_src ${pc_wan_mac} -ip_src ${pc['wan_ip']} -mac_dest ${cpe_gateway_mac} -ip_dest ${cpe_internet_ip} -tcp_dest_port 1150 -packet_count 3 -tcp_control_bits 000010
    sleep    2s
    ${cap_result_dict}=    ta_stop_capt_tcp_packet    ${pc['lan_interface'][3]}    -dist_id ${cap_dist_id}
    Should Not Be Equal As Strings    ${cap_result_dict}    NONE
    ## check tcp external port 1111, packets should be received at 1112
    ${cap_dist_id}=    ta_start_capt_tcp_packet    ${pc['lan_interface'][3]}    -tcp_dest_port 1112
    ta_send_tcp_packet    ${pc['wan_interface'][3]}    -mac_src ${pc_wan_mac} -ip_src ${pc['wan_ip']} -mac_dest ${cpe_gateway_mac} -ip_dest ${cpe_internet_ip} -tcp_dest_port 1111 -packet_count 3 -tcp_control_bits 000010
    sleep    2s
    ${cap_result_dict}=    ta_stop_capt_tcp_packet    ${pc['lan_interface'][3]}    -dist_id ${cap_dist_id}
    Should Not Be Equal As Strings    ${cap_result_dict}    NONE
    ## check udp external port 1112, no packet should be received at 1112
    ${cap_dist_id}=    ta_start_capt_udp_packet    ${pc['lan_interface'][3]}    -dst_port 1112
    ta_send_udp_packet    ${pc['wan_interface'][3]}    -mac_src ${pc_wan_mac} -ip_src ${pc['wan_ip']} -mac_dest ${cpe_gateway_mac} -ip_dest ${cpe_internet_ip} -dst_port 1112 -message_count 3
    sleep    2s
    ${cap_result_dict}=    ta_stop_capt_udp_packet    ${pc['lan_interface'][3]}    -dist_id ${cap_dist_id}
    Should Be Equal As Strings    ${cap_result_dict}    NONE
    #add 3rd rule udp ports external 5555-5560 to internal 5555-5560,tr181 not support mapping to multiple port
    Run keyword if    '${TRMode}'=='TR098'    l3-tr069.setportmapping    add    ${cpe_internet_interface}    5555    5560
    ...    5555    5560    UDP    ${pc['lan_ip']}    true
    Run keyword if    '${TRMode}'=='TR181'    l3-tr069.setportmappingTR181    add    ${cpe_internet_interface}    5555    5560
    ...    5555    5560    UDP    ${pc['lan_ip']}    true
    ## check udp external port 5555, packets should be received at 5555
    ${cap_dist_id}=    ta_start_capt_udp_packet    ${pc['lan_interface'][3]}    -dst_port 5555
    ta_send_udp_packet    ${pc['wan_interface'][3]}    -mac_src ${pc_wan_mac} -ip_src ${pc['wan_ip']} -mac_dest ${cpe_gateway_mac} -ip_dest ${cpe_internet_ip} -dst_port 5555 -message_count 3
    sleep    2s
    ${cap_result_dict}=    ta_stop_capt_udp_packet    ${pc['lan_interface'][3]}    -dist_id ${cap_dist_id}
    Should Not Be Equal As Strings    ${cap_result_dict}    NONE
    ## check udp external port 5560, packet should be received at 5560,just for tr098
    ${cap_dist_id}=    ta_start_capt_udp_packet    ${pc['lan_interface'][3]}    -dst_port 5560
    ta_send_udp_packet    ${pc['wan_interface'][3]}    -mac_src ${pc_wan_mac} -ip_src ${pc['wan_ip']} -mac_dest ${cpe_gateway_mac} -ip_dest ${cpe_internet_ip} -dst_port 5560 -message_count 3
    sleep    2s
    ${cap_result_dict}=    ta_stop_capt_udp_packet    ${pc['lan_interface'][3]}    -dist_id ${cap_dist_id}
    Run keyword if    '${TRMode}'=='TR098'    Should Not Be Equal As Strings    ${cap_result_dict}    NONE
    #disable 1st rule single udp port external 1111 to internal 1112
    TriggerInform
    ${path_for_dis}=    Set variable if    '${TRMode}'=='TR098'    InternetGatewayDevice.WANDevice.1.WANConnectionDevice.1.WANPPPConnection.1.PortMapping.1.    Device.NAT.PortMapping.${index}.
    ${status}=    Run keyword if    '${TRMode}'=='TR098'    SetParameterValuesEx    ${path_for_dis}PortMappingEnabled false
    ...    ELSE IF    '${TRMode}'=='TR181'    SetParameterValuesEx    ${path_for_dis}Enable false
    Should Be Equal    ${status}    0
    #verify 1st rule has deleted. Send udp packets to external port 1111, no packets should be received at 1112
    ${cap_dist_id}=    ta_start_capt_udp_packet    ${pc['lan_interface'][3]}    -dst_port 1112
    ta_send_udp_packet    ${pc['wan_interface'][3]}    -mac_src ${pc_wan_mac} -ip_src ${pc['wan_ip']} -mac_dest ${cpe_gateway_mac} -ip_dest ${cpe_internet_ip} -dst_port 1111 -message_count 3
    sleep    2s
    ${cap_result_dict}=    ta_stop_capt_udp_packet    ${pc['lan_interface'][3]}    -dist_id ${cap_dist_id}
    Should Be Equal As Strings    ${cap_result_dict}    NONE
    # verify 2nd rule still works
    ## check tcp external port 1150, packets should be received
    ${cap_dist_id}=    ta_start_capt_tcp_packet    ${pc['lan_interface'][3]}    -tcp_dest_port 1112
    ta_send_tcp_packet    ${pc['wan_interface'][3]}    -mac_src ${pc_wan_mac} -ip_src ${pc['wan_ip']} -mac_dest ${cpe_gateway_mac} -ip_dest ${cpe_internet_ip} -tcp_dest_port 1150 -packet_count 3 -tcp_control_bits 000010
    sleep    2s
    ${cap_result_dict}=    ta_stop_capt_tcp_packet    ${pc['lan_interface'][3]}    -dist_id ${cap_dist_id}
    Should Not Be Equal As Strings    ${cap_result_dict}    NONE
    ## check tcp external port 1111, packets should be received
    ${cap_dist_id}=    ta_start_capt_tcp_packet    ${pc['lan_interface'][3]}    -tcp_dest_port 1112
    ta_send_tcp_packet    ${pc['wan_interface'][3]}    -mac_src ${pc_wan_mac} -ip_src ${pc['wan_ip']} -mac_dest ${cpe_gateway_mac} -ip_dest ${cpe_internet_ip} -tcp_dest_port 1111 -packet_count 3 -tcp_control_bits 000010
    sleep    2s
    ${cap_result_dict}=    ta_stop_capt_tcp_packet    ${pc['lan_interface'][3]}    -dist_id ${cap_dist_id}
    Should Not Be Equal As Strings    ${cap_result_dict}    NONE
    # verify 3rd rule still works
    ## check udp external port 5555, packets should be received
    ${cap_dist_id}=    ta_start_capt_udp_packet    ${pc['lan_interface'][3]}    -dst_port 5555
    ta_send_udp_packet    ${pc['wan_interface'][3]}    -mac_src ${pc_wan_mac} -ip_src ${pc['wan_ip']} -mac_dest ${cpe_gateway_mac} -ip_dest ${cpe_internet_ip} -dst_port 5555 -message_count 3
    sleep    2s
    ${cap_result_dict}=    ta_stop_capt_udp_packet    ${pc['lan_interface'][3]}    -dist_id ${cap_dist_id}
    Should Not Be Equal As Strings    ${cap_result_dict}    NONE
    ## check udp external port 5560, packet should be received,just for tr098
    ${cap_dist_id}=    ta_start_capt_udp_packet    ${pc['lan_interface'][3]}    -dst_port 5560
    ta_send_udp_packet    ${pc['wan_interface'][3]}    -mac_src ${pc_wan_mac} -ip_src ${pc['wan_ip']} -mac_dest ${cpe_gateway_mac} -ip_dest ${cpe_internet_ip} -dst_port 5560 -message_count 3
    sleep    2s
    ${cap_result_dict}=    ta_stop_capt_udp_packet    ${pc['lan_interface'][3]}    -dist_id ${cap_dist_id}
    Run keyword if    '${TRMode}'=='TR098'    Should Not Be Equal As Strings    ${cap_result_dict}    NONE
    [Teardown]    Run Keyword    Run Keyword If    '${TRMode}'=='TR098'    l3-tr069.setportmapping    clear
    ...    ELSE IF    '${TRMode}'=='TR181'    l3-tr069.setportmappingTR181    clear

13
    [Documentation]    Title: PortMappingLeaseDuration test
    ...    Objective: Create a port forwarding rule, then set PortMappingLeaseDuration to a non-zero value, check if port forwarding rule can be deleted automatically when timeout
    ...
    ...    The author:
    ...    Wuyang.Shi@alcatel-sbell.com.cn
    Run keyword if    '${TRMode}'=='TR098'    l3-tr069.setportmapping    add    ${cpe_internet_interface}    9201    9201
    ...    9201    9201    TCP    ${pc['lan_ip']}    true
    ${index}=    Run keyword if    '${TRMode}'=='TR181'    l3-tr069.setportmappingTR181    add    ${cpe_internet_interface}    9201
    ...    9201    9201    9201    TCP    ${pc['lan_ip']}    true
    ${cap_dist_id}=    ta_start_capt_tcp_packet    ${pc['lan_interface'][3]}    -tcp_dest_port 9201
    ta_send_tcp_packet    ${pc['wan_interface'][3]}    -mac_src ${pc_wan_mac} -ip_src ${pc['wan_ip']} -mac_dest ${cpe_gateway_mac} -ip_dest ${cpe_internet_ip} -tcp_dest_port 9201 -tcp_control_bits 000010 -packet_count 3
    sleep    2s
    ${cap_result_dict}=    ta_stop_capt_tcp_packet    ${pc['lan_interface'][3]}    -dist_id ${cap_dist_id}
    Should Not Be Equal As Strings    ${cap_result_dict}    NONE
    ## set PortMappingLeaseDuration to a non-zero value, check if port forwarding rule can be deleted automatically when timeout
    TriggerInform
    ${path_for_dis}=    Set variable if    '${TRMode}'=='TR098'    InternetGatewayDevice.WANDevice.1.WANConnectionDevice.1.WANPPPConnection.1.PortMapping.1.    Device.NAT.PortMapping.${index}.
    ${status}=    Run keyword if    '${TRMode}'=='TR098'    SetParameterValuesEx    ${path_for_dis}PortMappingLeaseDuration 30
    ...    ELSE IF    '${TRMode}'=='TR181'    SetParameterValuesEx    ${path_for_dis}LeaseDuration 30
    Should Be Equal    ${status}    0
    Should Be Equal    ${status}    0
    sleep    30s
    ${cap_dist_id}=    ta_start_capt_tcp_packet    ${pc['lan_interface'][3]}    -tcp_dest_port 9201
    ta_send_tcp_packet    ${pc['wan_interface'][3]}    -mac_src ${pc_wan_mac} -ip_src ${pc['wan_ip']} -mac_dest ${cpe_gateway_mac} -ip_dest ${cpe_internet_ip} -tcp_dest_port 9201 -tcp_control_bits 000010 -packet_count 3
    sleep    2s
    ${cap_result_dict}=    ta_stop_capt_tcp_packet    ${pc['lan_interface'][3]}    -dist_id ${cap_dist_id}
    Log Many    ${cap_result_dict}
    ${passed}=    Run Keyword And Return Status    Should Match Regexp    ${cap_result_dict}    NONE
    Run Keyword If    ${passed}    Should Be Equal As Strings    ${cap_result_dict}    NONE
    ${tcp_dest_port}=    Run Keyword If    '${passed}'=='False'    Get From Dictionary    ${cap_result_dict}    -tcp_dest_port
    Run Keyword If    '${passed}'=='False'    Should Not Be Equal    ${tcp_dest_port}    9201
    [Teardown]    Run Keyword    Run Keyword If    '${TRMode}'=='TR098'    l3-tr069.setportmapping    clear
    ...    ELSE IF    '${TRMode}'=='TR181'    l3-tr069.setportmappingTR181    clear

*** Keywords ***
SuiteSetup
    [Documentation]    == History ==
    ...    _*Rev 1:*_ 23. June, 2017 --- Cai Jinglu \ <Jinglu.A.Cai@alcatel-sbell.com.cn>: Before HDR56, ${ex_end_path} should be X_ASB_COM_ExternalPortEnd, in HDR56 MXXT, MXXV and SAIB uses ExternalPortEndRange to replace X_ASB_COM_ExternalPortEnd. From HDR5601, all OPIDs use ExternalPortEndRange.
    Should Be Equal As Strings    ${startup_status}    PASS
    Create Http Context    localhost:8015
    ${pata_handle}=    StartPCTA    ${pcta['ip']}    ${pcta['username']}    ${pcta['password']}    ${pcta['path']}
    #from HDR5601 all OPIDs use standard port mapping tr069 parameters
    Comment    ${mx_status}=    run keyword and return status    Should Match Regexp    ${ont['opid']}    MXXT|MXXV|SAIB
    Comment    ${ex_end_path}=    Set variable if    ${mx_status}    ExternalPortEndRange    X_ASB_COM_ExternalPortEnd
    ${ex_end_path}=    Set variable    ExternalPortEndRange
    Set Suite Variable    ${ex_end_path}

SuiteTeardown
    ClosePCTA
    [Teardown]    EnableRecovery    1

RecoveryWanForTR069PortMapping
    l3-selenium2.LoginGUI    ${ont['gui_type']}    ${ont['url_protocol']}://${ont['ip']}    ${ont['gui_username']}    ${ont['gui_password']}
    ${service}    create list    1003
    l3-selenium2.SetWan    ${ont['gui_type']}    ${ont['url_protocol']}://${ont['ip']}    delete    service=${service}
    l3-selenium2.LogoutGUI    ${ont['gui_type']}    ${ont['url_protocol']}://${ont['ip']}
