*** Settings ***
Resource          %{ROBOTREPO}/HLK/res/l2-common.txt
Resource          %{ROBOTREPO}/HLK/res/l2-selenium2-CTC.txt
Resource          %{ROBOTREPO}/HLK/res/l2-selenium2-CTC4FM5301.txt
Resource          %{ROBOTREPO}/HLK/res/l2-selenium2-CTC4QT.txt
Resource          %{ROBOTREPO}/HLK/res/l2-selenium2-CU.txt
Resource          %{ROBOTREPO}/HLK/res/l2-selenium2-G120GE.txt
Resource          %{ROBOTREPO}/HLK/res/l2-selenium2-G120WF.txt
Resource          %{ROBOTREPO}/HLK/res/l2-selenium2-G140WC.txt
Resource          %{ROBOTREPO}/HLK/res/l2-selenium2-G240GC.txt
Resource          %{ROBOTREPO}/HLK/res/l2-selenium2-G240GE.txt
Resource          %{ROBOTREPO}/HLK/res/l2-selenium2-G240WA.txt
Resource          %{ROBOTREPO}/HLK/res/l2-selenium2-G240WB.txt
Resource          %{ROBOTREPO}/HLK/res/l2-selenium2-G240WC.txt
Resource          %{ROBOTREPO}/HLK/res/l2-selenium2-G240WE.txt
Resource          %{ROBOTREPO}/HLK/res/l2-selenium2-G240WF.txt
Resource          %{ROBOTREPO}/HLK/res/l2-selenium2-G240WZA.txt
Resource          %{ROBOTREPO}/HLK/res/l2-selenium2-G241WA.txt
Resource          %{ROBOTREPO}/HLK/res/l2-selenium2-G440GA.txt
Resource          %{ROBOTREPO}/HLK/res/l2-selenium2-GLB.txt
Resource          %{ROBOTREPO}/HLK/res/l2-selenium2-I120E.txt
Resource          %{ROBOTREPO}/HLK/res/l2-selenium2-I120EQT.txt
Resource          %{ROBOTREPO}/HLK/res/l2-selenium2-I240GD.txt
Resource          %{ROBOTREPO}/HLK/res/l2-selenium2-I240WA.txt
Resource          %{ROBOTREPO}/HLK/res/l2-selenium2-I241WS.txt
Resource          %{ROBOTREPO}/HLK/res/l2-selenium2-TELMEX.txt
Resource          %{ROBOTREPO}/HLK/res/l2-selenium2-VFSP.txt
Resource          %{ROBOTREPO}/HLK/res/l2-selenium2-HA020WA.txt
Resource          %{ROBOTREPO}/HLK/res/l2-selenium2-HA030WB.txt
Resource          %{ROBOTREPO}/HLK/res/l3-tr069.txt
Resource          %{ROBOTREPO}/HLK/res/l2-selenium2-G240WH.txt

*** Keywords ***
AddDomainMapping
    [Arguments]    ${dut_gui_type}    ${base_url}    ${origin_domain}    ${new_domain}
    Run Keyword    L2-Selenium2-${dut_gui_type}.AddDomainMapping    ${base_url}    ${origin_domain}    ${new_domain}
    [Teardown]

AddDomainResolution
    [Arguments]    ${dut_gui_type}    ${base_url}    ${domain_name}    ${ip}
    Run Keyword    L2-Selenium2-${dut_gui_type}.AddDomainResolution    ${base_url}    ${domain_name}    ${ip}
    [Teardown]

BuildConnectionMode3
    [Documentation]    == Discription ==
    ...    ---
    ...    *Author :* Alfred <xin.q.zhang@alcatel-sbell.com.cn>
    ...
    ...    *Date :* July. 14th, 2017
    ...
    ...    What is "Connection Mode 3" ? This is an very interesting Topic. It comes from China Telecome Test Spec in early time. But now, we redefined this termnology. Here, it means an connection mode looks like that:
    ...    - WAN1 : Service INTERNET vlan_id: 1001
    ...    - WAN2 : Service TR069 vlan_id: 1002
    ...
    ...    "So, What is that?" You may wanna to ask me. The answer is "Just an connection service and vlan configuration requirement, which used for our ATC commonly test usage." Am I clear ? ... Maybe not. But ... I know no more.
    ...    ---
    ...    == Examples ==
    ...
    ...    For example, sometimes, your case need change current wan connection vlan or service . Then you should remenber this keyword , it will help you to recover your connection . But only this keyword is not enough to do all job for this intention. You'd better use it with Update Env together. Thus will be better.
    ...    that:
    ...    | *l3-selenium2.BuildConnectionMode3* | |
    ...    | *l3-selenium2.UpdateEnv* | |
    ...
    ...    ---
    ...    == Assumption ==
    ...    *CAUTION:* Please make sure the DUT LAN Side TELNET Port is open.
    ...    ---
    ...    == Customers ==
    ...
    ...    COMMON except VIET
    ...
    ...    ---
    ...    == History ==
    ...
    ...    *Rev 0:* July. 14, 2017 _Alfred <xin.q.zhang@alcatel-sbell.com.cn>_ Create this keyword Documentation.
    ...
    ...    *Rev 1:* July. 14, 2017 _Alfred <xin.q.zhang@alcatel-sbell.com.cn>_ Fix [ http://135.251.200.225/project/issues/376 | BUG 376 ] .
    ...
    ...    *Rev 2:* Aug. 03, 2017 _Alfred <xin.q.zhang@alcatel-sbell.com.cn>_ Fix [ http://135.251.200.225/project/issues/844 | BUG 844 ]
    ${ses}    SSHLibrary.Get Connection
    log    ${ses.host}
    log    ${ses.index}
    Comment    OpenLanSideTelnet
    l3-selenium2.LoginGUI    ${ont['gui_type']}    ${ont['url_protocol']}://${ont['ip']}    ${ont['gui_username']}    ${ont['gui_password']}
    Comment    l3-selenium2.EnableTelnet    ${ont['gui_type']}    ${ont['url_protocol']}://${ont['ip']}
    l3-selenium2.DeleteAllConnection    ${ont['gui_type']}    ${ont['url_protocol']}://${ont['ip']}
    l3-selenium2.CreatePPPoEConnection    ${ont['gui_type']}    ${ont['url_protocol']}://${ont['ip']}    1001    ${pppoe['username']}    ${pppoe['password']}    INTERNET
    ...    IPTV
    l3-selenium2.CreateDHCPConnection    ${ont['gui_type']}    ${ont['url_protocol']}://${ont['ip']}    1002    TR069
    sleep    10s
    Run Keyword If    "${ont['opid']}"!='VFSP'    l3-selenium2.SetTelnet    enable
    l3-selenium2.LogoutGUI    ${ont['gui_type']}    ${ont['url_protocol']}://${ont['ip']}
    ${res}    SetVariable    ${False}
    ${res}    RunKeywordAndReturnStatus    L3-Telnet.LoginTelnet    ${ont['ip']}    23    ${ont['telnet_username']}    ${ont['telnet_password']}
    L3-Telnet.EXECommand    cfgcli -s InternetGatewayDevice.WANDevice.1.WANConnectionDevice.1.WANPPPConnection.1.Username ${pppoe['username']}
    L3-Telnet.EXECommand    cfgcli -s InternetGatewayDevice.WANDevice.1.WANConnectionDevice.1.WANPPPConnection.1.Password ${pppoe['password']}
    [Teardown]    RunKeywords    RunKeywordIf    ${res}    L2-Telnet.CloseConnection
    ...    AND    RunKeywordIf    ${ses.index}!=${None}    SSHLibrary.SwitchConnection    ${ses.index}

BuildConnectionMode4
    [Documentation]    == Discription ==
    ...    ---
    ...    *Author :* Alfred <xin.q.zhang@alcatel-sbell.com.cn>
    ...
    ...    *Date :* Aug. 18th, 2017
    ...
    ...    What is "Connection Mode 4" ? Just WAN Connection Settings for Testing IGMP Via PPPoE WAN Connection.
    ...    - WAN1 : Service INTERNET + IPTV vlan_id: 1001
    ...    - WAN2 : Service TR069 vlan_id: 1002
    ...
    ...    ---
    ...    == Examples ==
    ...
    ...    For example, sometimes, your case need change current wan connection vlan or service . Then you should remenber this keyword , it will help you to recover your connection . But only this keyword is not enough to do all job for this intention. You'd better use it with Update Env together. Thus will be better.
    ...    that:
    ...    | *l3-selenium2.BuildConnectionMode4* | |
    ...    | *l3-selenium2.UpdateEnv* | |
    ...
    ...    ---
    ...    == Assumption ==
    ...    *CAUTION:* Please make sure the DUT LAN Side TELNET Port is open.
    ...    ---
    ...    == Customers ==
    ...
    ...    So far, it is fit to most of our test except VIET. Since thie VIET cannot be modify the PPPoE Connection in our ENVIROMENT so, we can only test IGMP Via IPoE mode.
    ...
    ...    ---
    ...    == History ==
    ...
    ...    *Rev 0:* Aug. 18th, 2017 _Alfred <xin.q.zhang@alcatel-sbell.com.cn>_ Create this keyword.
    ...
    ...    *Rev 1:* Aug. 25th, 2017 _Alfred <xin.q.zhang@alcatel-sbell.com.cn>_ Fix [ http://135.251.200.225/project/issues/967 | BUG 967 ]
    ${ses}    SSHLibrary.Get Connection
    log    ${ses.host}
    log    ${ses.index}
    l3-selenium2.LoginGUI    ${ont['gui_type']}    ${ont['url_protocol']}://${ont['ip']}    ${ont['gui_username']}    ${ont['gui_password']}
    Comment    l3-selenium2.EnableTelnet    ${ont['gui_type']}    ${ont['url_protocol']}://${ont['ip']}
    l3-selenium2.DeleteAllConnection    ${ont['gui_type']}    ${ont['url_protocol']}://${ont['ip']}
    l3-selenium2.CreatePPPoEConnection    ${ont['gui_type']}    ${ont['url_protocol']}://${ont['ip']}    1001    ${pppoe['username']}    ${pppoe['password']}    INTERNET
    ...    IPTV
    l3-selenium2.CreateDHCPConnection    ${ont['gui_type']}    ${ont['url_protocol']}://${ont['ip']}    1002    TR069
    sleep    10s
    Run Keyword If    "${ont['opid']}"!='VFSP'    l3-selenium2.SetTelnet    enable
    l3-selenium2.LogoutGUI    ${ont['gui_type']}    ${ont['url_protocol']}://${ont['ip']}
    ${res}    SetVariable    ${False}
    ${res}    RunKeywordAndReturnStatus    L3-Telnet.LoginTelnet    ${ont['ip']}    23    ${ont['telnet_username']}    ${ont['telnet_password']}
    L3-Telnet.LoginTelnet    ${ont['ip']}    ${ont['telnet_port']}    ${ont['telnet_username']}    ${ont['telnet_password']}
    L3-Telnet.EXECommand    cfgcli -s InternetGatewayDevice.WANDevice.1.WANConnectionDevice.1.WANPPPConnection.1.Username ${pppoe['username']}
    L3-Telnet.EXECommand    cfgcli -s InternetGatewayDevice.WANDevice.1.WANConnectionDevice.1.WANPPPConnection.1.Password ${pppoe['password']}
    [Teardown]    RunKeywords    RunKeywordIf    ${res}    L2-Telnet.CloseConnection
    ...    AND    RunKeywordIf    ${ses.index}!=${None}    SSHLibrary.SwitchConnection    ${ses.index}

BuildConnectionMode5
    [Documentation]    == Discription ==
    ...    ---
    ...    *Author :* Alfred <xin.q.zhang@alcatel-sbell.com.cn>
    ...
    ...    *Date :* Aug. 18th, 2017
    ...
    ...    What is "Connection Mode 5" ? Just WAN Connection Settings for Testing IGMP Via IPoE WAN Connection.
    ...    - WAN1 : Service INTERNET + IPTV vlan_id: 1003
    ...    - WAN2 : Service TR069 vlan_id: 1002
    ...
    ...    ---
    ...    == Examples ==
    ...
    ...    For example, sometimes, your case need change current wan connection vlan or service . Then you should remenber this keyword , it will help you to recover your connection . But only this keyword is not enough to do all job for this intention. You'd better use it with Update Env together. Thus will be better.
    ...    that:
    ...    | *l3-selenium2.BuildConnectionMode5* | |
    ...    | *l3-selenium2.UpdateEnv* | |
    ...
    ...    ---
    ...    == Assumption ==
    ...    *CAUTION:* Please make sure the DUT LAN Side TELNET Port is open.
    ...    ---
    ...    == Customers ==
    ...
    ...    So far, it is fit to most of our test except VIET. Since thie VIET cannot be modify the PPPoE Connection in our ENVIROMENT so, we can only test IGMP Via IPoE mode.
    ...
    ...    ---
    ...    == History ==
    ...
    ...    *Rev 0:* Aug. 18th, 2017 _Alfred <xin.q.zhang@alcatel-sbell.com.cn>_ Create this keyword.
    ...
    ...    *Rev 1:* Aug. 25th, 2017 _Alfred <xin.q.zhang@alcatel-sbell.com.cn>_ Fix [ http://135.251.200.225/project/issues/967 | BUG 967 ], Please follow the link for more detail infomation.
    ${ses}    SSHLibrary.Get Connection
    log    ${ses.host}
    log    ${ses.index}
    Comment    OpenLanSideTelnet
    l3-selenium2.LoginGUI    ${ont['gui_type']}    ${ont['url_protocol']}://${ont['ip']}    ${ont['gui_username']}    ${ont['gui_password']}
    Comment    l3-selenium2.EnableTelnet    ${ont['gui_type']}    ${ont['url_protocol']}://${ont['ip']}
    l3-selenium2.DeleteAllConnection    ${ont['gui_type']}    ${ont['url_protocol']}://${ont['ip']}
    l3-selenium2.CreateDHCPConnection    ${ont['gui_type']}    ${ont['url_protocol']}://${ont['ip']}    1002    TR069
    l3-selenium2.CreateDHCPConnection    ${ont['gui_type']}    ${ont['url_protocol']}://${ont['ip']}    1003    INTERNET    IPTV
    sleep    10s
    l3-selenium2.LogoutGUI    ${ont['gui_type']}    ${ont['url_protocol']}://${ont['ip']}
    [Teardown]    RunKeywordIf    ${ses.index}!=${None}    SSHLibrary.SwitchConnection    ${ses.index}

ChangeTimeZone
    [Arguments]    ${dut_gui_type}    ${base_url}    ${timeZ}
    ${time}=    Run Keyword    l2-Selenium2-${dut_gui_type}.ChangeTimeZone    ${base_url}    ${timeZ}
    Return From Keyword    ${time}

ChangeWanService
    [Arguments]    ${dut_gui_type}    ${base_url}    ${vlan_id}    @{wan_service}
    Run Keyword    L2-Selenium2-${dut_gui_type}.ChangeWanService    ${base_url}    ${vlan_id}    @{wan_service}

CheckWanConnectionStatusByIndex
    [Arguments]    ${dut_gui_type}    ${base_url}    ${Index}
    ${dict}=    Run Keyword    L2-Selenium2-${dut_gui_type}.GetWanStatusByIndex    ${base_url}    ${Index}
    ${wan_link_status}=    Get From Dictionary    ${pDict}    wan_link_status
    Run Keyword If    '${wan_link_status}'!='Up'    Fail    WAN ${Index} Link Status is ${wan_link_status}

ClearDomainMapping
    [Arguments]    ${dut_gui_type}    ${base_url}
    [Documentation]    this is stupid keyword, but no better method now.
    ...    Delete Domain Mapping id 0-7.
    Run Keyword    L2-Selenium2-${dut_gui_type}.ClearDomainMapping    ${base_url}
    [Teardown]

ClearDomainResolution
    [Arguments]    ${dut_gui_type}    ${base_url}
    [Documentation]    this is stupid keyword, but no better method now.
    ...    Delete Domain Resolution id 0-7.
    Run Keyword    L2-Selenium2-${dut_gui_type}.ClearDomainResolution    ${base_url}
    [Teardown]

ClearPortForwarding
    [Arguments]    ${dut_gui_type}    ${number}
    : FOR    ${I}    INRANGE    1    5
    \    Run Keyword    L2-Selenium2-${ont['gui_type']}.ClearPortForwarding    ${number}    ${i}

ConfigFirewall
    [Arguments]    ${dut_gui_type}    ${base_url}    ${status}    ${level}
    Run Keyword    L2-Selenium2-${dut_gui_type}.ConfigFirewall    ${base_url}    ${status}    ${level}

ConfigFirewallAdvanced
    [Arguments]    ${dut_gui_type}    ${base_url}    ${status}    ${level_name}
    [Documentation]    *Author:* Tony Zhao<zixiao.zhao@nokia-sbell.com>
    Run Keyword    L2-Selenium2-${dut_gui_type}.ConfigFirewallAdvanced    ${base_url}    ${status}    ${level_name}

ConfigTR069
    [Arguments]    ${dut_gui_type}    ${base_url}    ${acs_url}    ${acs_username}    ${acs_password}    ${connection_request_username}
    ...    ${connection_request_password}
    Run Keyword    L2-Selenium2-${dut_gui_type}.ConfigTR069    ${base_url}    ${acs_url}    ${acs_username}    ${acs_password}    ${connection_request_username}
    ...    ${connection_request_password}
    [Teardown]

CreateAnIPoEWanConnForIGMPTest
    l3-selenium2.LoginGUI    ${ont['gui_type']}    ${ont['url_protocol']}://${ont['ip']}    ${ont['gui_username']}    ${ont['gui_password']}
    l3-selenium2.CreateDHCPConnection    ${ont['gui_type']}    ${ont['url_protocol']}://${ont['ip']}    1003    IPTV
    sleep    10s
    l3-selenium2.LogoutGUI    ${ont['gui_type']}    ${ont['url_protocol']}://${ont['ip']}

CreateBridgeConnection
    [Arguments]    ${dut_gui_type}    ${base_url}    ${type}    ${vlan_mode}    ${vlan_id}    @{lan_bind}
    ${alert}    Run Keyword    L2-Selenium2-${dut_gui_type}.CreateBridgeConnection    ${base_url}    ${type}    ${vlan_mode}    ${vlan_id}
    ...    @{lan_bind}
    Return From Keyword    ${alert}
    Set Suite Variable    ${alert}    ${alert}

CreateDHCPConnection
    [Arguments]    ${dut_gui_type}    ${base_url}    ${vlan_id}    @{wan_services}
    Run Keyword    L2-Selenium2-${dut_gui_type}.CreateDHCPConnection    ${base_url}    ${vlan_id}    @{wan_services}

CreateLANDHCP6Prefix
    [Arguments]    ${dut_gui_type}    ${base_url}    ${prefix_type}    ${static_prefix}
    [Documentation]    *Author:* Tony Zhao<zixiao.zhao@nokia-sbell.com>
    Run Keyword    L2-Selenium2-${dut_gui_type}.CreateLANDHCP6Prefix    ${base_url}    ${prefix_type}    ${static_prefix}

CreatePPPoEConnection
    [Arguments]    ${dut_gui_type}    ${base_url}    ${vlan_id}    ${pppoe_username}    ${pppoe_password}    @{wan_services}
    Run Keyword    L2-Selenium2-${dut_gui_type}.CreatePPPoEConnection    ${base_url}    ${vlan_id}    ${pppoe_username}    ${pppoe_password}    @{wan_services}

DHCPOption
    [Arguments]    ${dut_gui_type}    ${base_url}    ${vlan_id}    @{wan_services}
    Run Keyword    L2-Selenium2-${dut_gui_type}.DHCPOption    ${base_url}    ${vlan_id}    @{wan_services}

DNSProxyEnabled
    [Arguments]    ${dut_gui_type}    ${base_url}
    [Documentation]    If ${enable_status}=${True}, means DNS proxy is enabled on WebGUI, else, DNS proxy is disabled.
    ...
    ...    author: Cai Jinglu
    ${enable_status}=    Run Keyword    L2-Selenium2-${dut_gui_type}.DNSProxyEnabled    ${base_url}
    Return From Keyword    ${enable_status}

DeleteAllConnection
    [Arguments]    ${dut_gui_type}    ${base_url}
    Run Keyword    L2-Selenium2-${dut_gui_type}.DeleteAllConnection    ${base_url}

DeleteBlackList
    [Arguments]    ${dut_gui_type}    ${base_url}
    Run Keyword    L2-Selenium2-${dut_gui_type}.DeleteBlackList    ${base_url}

DeleteDNSTable
    [Arguments]    ${location}
    [Documentation]    This Keyword is used to get Domain-To-IpAddress (d2a) table or Domain-To-Domain (d2d) table from DNS configuration page. ${locater} should be d2a or d2d.
    ...
    ...    Author: Tony Zhao
    Run Keyword    L2-Selenium2-${ont['gui_type']}.DeleteDNSTable    ${location}

DeleteIPRoutingTable
    [Arguments]    ${dut_gui_type}    ${base_url}
    [Documentation]    Delete IP routing table
    ...
    ...    Author: li lin
    Run Keyword    L2-Selenium2-${dut_gui_type}.DeleteIPRoutingTable    ${base_url}

DeletePortForwarding
    [Arguments]    ${dut_gui_type}    ${index}    ${number}
    Run Keyword    L2-Selenium2-${ont['gui_type']}.DeletePortForwarding    ${index}    ${number}

DeletePortForwardingTable
    [Arguments]    ${dut_gui_type}    ${base_url}
    [Documentation]    Author: li lin
    Run Keyword    L2-Selenium2-${dut_gui_type}.DeletePortForwardingTable    ${base_url}

DeleteSpecConnection
    [Arguments]    ${dut_gui_type}    ${base_url}    @{service}
    Run Keyword    L2-Selenium2-${dut_gui_type}.DeleteSpecConnection    ${base_url}    @{service}

DeleteWhiteList
    [Arguments]    ${dut_gui_type}    ${base_url}
    Run Keyword    L2-Selenium2-${dut_gui_type}.DeleteWhiteList    ${base_url}

DisableTelnet
    [Arguments]    ${base_url}
    L1-Selenium2.GoTo    ${ont['url_protocol']}://${ont['ip']}/httptelnetcfg.cgi
    sleep    2s
    L1-Selenium2.SelectCheckbox    xpath=//input[@name='lan_telnet_disable']
    sleep    1s
    L1-Selenium2.ClickButton    xpath=//input[@value="Save"]
    sleep    3s

DisableWanByIndex
    [Arguments]    ${dut_gui_type}    ${base_url}    ${Index}
    Run Keyword    L2-Selenium2-${dut_gui_type}.EnWanByIndex    ${base_url}    ${Index}    ${False}

EnableTelnet
    [Arguments]    ${dut_gui_type}    ${base_url}
    l1-selenium2.Go TO    ${base_url}/?lang=eng
    Run Keyword    L2-Selenium2-${dut_gui_type}.EnableTelnet    ${base_url}

EnableWanByIndex
    [Arguments]    ${dut_gui_type}    ${base_url}    ${Index}
    Run Keyword    L2-Selenium2-${dut_gui_type}.EnWanByIndex    ${base_url}    ${Index}    ${True}

ExportBackupAndRestore
    [Arguments]    ${dut_gui_type}    ${base_url}
    [Documentation]    not done
    ...
    ...    Author: li lin
    Run Keyword    L2-Selenium2-${dut_gui_type}.ExportBackupAndRestore    ${base_url}

FactoryReset
    [Arguments]    ${dut_gui_type}    ${base_url}
    [Documentation]    == Discription ==
    ...    ---
    ...    *Author :* Yaping ZHANG <yaping.zhang@nokia-sbell.com>
    ...
    ...    *Date :* Octomber. 20, 2017
    ...
    ...    FactoryReset means Reset ONT to factory default. And all configurations will be cleared
    ...
    ...    This keyword is used to reset ONT to factory default from web UI.
    ...
    ...    Each ONT has an hidden page.
    ...    ---
    ...    == Examples ==
    ...
    ...    For example,
    ...    If for G-240W-B(telmex), from HDR5701, the factory default hidden page is http://192.168.1.254/restore.cgi
    ...
    ...    ---
    ...    == Assumption ==
    ...    *CAUTION:* If do this action, all configurations will be cleared.
    ...    ---
    ...    == Customers ==
    ...
    ...    COMMON
    ...
    ...    ---
    ...    == History ==
    ...
    ...    *Rev 0:* Octomber. 20, 2017 _yaping zhang <yaping.zhang@nokia-sbell.com>_ Create this keyword Documentation.
    Run Keyword    L2-Selenium2-${dut_gui_type}.FactoryReset    ${base_url}

GetALGCfg
    [Arguments]    ${dut_gui_type}
    ${pDict}=    Run Keyword    L2-Selenium2-${dut_gui_type}.GetALGCfg
    Return From Keyword    ${pDict}

GetAllTimeZones
    [Arguments]    ${base_url}
    [Documentation]    Get all possible time zones and their time zone names as a list, store them in a dictionary. The local time zone is the key, and its time zone name list is the value. Return the dictionary.
    ...
    ...    author: Cai Jinglu
    ${time_zone_dict}=    Run Keyword    L2-Selenium2-${ont['gui_type']}.GetAllTimeZones    ${base_url}
    Return From Keyword    ${time_zone_dict}

GetAppDDNSsetting
    [Arguments]    ${dut_gui_type}    ${base_url}    ${service_name}
    [Documentation]    *Author:* Benson Qiu <Renjie.Qiu@alcatel-sbell.com.cn>
    ${pDict}=    Run Keyword    L2-Selenium2-${dut_gui_type}.GetAppDDNSsetting    ${base_url}    ${service_name}
    Return From Keyword    ${pDict}

GetAppNTPsetting
    [Arguments]    ${dut_gui_type}    ${base_url}    ${service_name}
    [Documentation]    *Author:* Benson Qiu <Renjie.Qiu@alcatel-sbell.com.cn>
    ${pDict}=    Run Keyword    L2-Selenium2-${dut_gui_type}.GetAppNTPsetting    ${base_url}    ${service_name}
    Return From Keyword    ${pDict}

GetAppUPNPsetting
    [Arguments]    ${dut_gui_type}    ${base_url}
    [Documentation]    *Author:* Benson Qiu <Renjie.Qiu@alcatel-sbell.com.cn>
    ${pDict}=    Run Keyword    L2-Selenium2-${dut_gui_type}.GetAppUPNPsetting    ${base_url}
    Return From Keyword    ${pDict}

GetDDNSAttribute
    [Arguments]    ${dut_gui_type}    ${base_url}    ${service_name}
    [Documentation]    *Author:* Roy Xu<Zengle.Xu@alcatel-sbell.com.cn>
    ${pDict}=    Run Keyword    L2-Selenium2-${dut_gui_type}.GetDDNSAttribute    ${base_url}    ${service_name}
    Return From Keyword    ${pDict}

GetDMZCfg
    [Arguments]    ${dut_gui_type}    ${base_url}
    Run Keyword    L2-Selenium2-${dut_gui_type}.GetDMZCfg    ${base_url}

GetDNSTable
    [Arguments]    ${locater}
    [Documentation]    This Keyword is used to get Domain-To-IpAddress (d2a) table or Domain-To-Domain (d2d) table from DNS configuration page. ${locater} should be d2a or d2d.
    ...
    ...    Author: Cai Jinglu
    ${list}=    Run Keyword    L2-Selenium2-${ont['gui_type']}.GetDNSTable    ${locater}
    Return From Keyword    ${list}

GetDNSsetting
    [Arguments]    ${dut_gui_type}    ${base_url}    ${setting}=all
    [Documentation]    _*Rev 1:*_ 7. July, 2017 --- Cai Jinglu \ <Jinglu.A.Cai@alcatel-sbell.com.cn>: add parameter ${setting}, if ${setting}=proxy, return keyword when proxy status is obtained.
    ${pDict}=    Run Keyword    L2-Selenium2-${dut_gui_type}.GetDNSsetting    ${base_url}    ${setting}
    Return From Keyword    ${pDict}

GetDNSsettingAttribute
    [Arguments]    ${dut_gui_type}    ${base_url}
    [Documentation]    *Author:* Roy Xu<Zengle.Xu@alcatel-sbell.com.cn>
    ${pDict}=    Run Keyword    L2-Selenium2-${dut_gui_type}.GetDNSsettingAttribute    ${base_url}
    Return From Keyword    ${pDict}

GetDeviceInfo
    [Arguments]    ${dut_gui_type}    ${base_url}
    ${pDict}=    Run Keyword    l2-Selenium2-${dut_gui_type}.GetDeviceInfo    ${base_url}
    Return From Keyword    ${pDict}

GetFirewallStatus
    [Arguments]    ${dut_gui_type}    ${base_url}
    ${pDict}=    Run Keyword    L2-Selenium2-${dut_gui_type}.GetFirewallStatus    ${base_url}
    Return From Keyword    ${pDict}

GetIPFilterAttribute
    [Arguments]    ${dut_gui_type}    ${base_url}    ${service_name}
    [Documentation]    *Author:* benson qiu<RenJie.Qiu@alcatel-sbell.com.cn>
    ${pDict}    Run Keyword    L2-Selenium2-${dut_gui_type}.GetIPFilterAttribute    ${base_url}    ${service_name}
    Return From Keyword    ${pDict}

GetIPRoutingTable
    [Arguments]    ${dut_gui_type}    ${base_url}
    [Documentation]    Get ip routing table via web gui.
    ...
    ...    Author: li lin
    ${pDict}=    Run Keyword    l2-Selenium2-${dut_gui_type}.GetIPRoutingTable    ${base_url}
    Return From Keyword    ${pDict}

GetIPRoutingsetting
    [Arguments]    ${dut_gui_type}    ${base_url}    ${service_name}
    ${pDict}=    Run Keyword    L2-Selenium2-${dut_gui_type}.GetIPRoutingsetting    ${base_url}    ${service_name}
    Return From Keyword    ${pDict}

GetIProutingattribute
    [Arguments]    ${dut_gui_type}    ${base_url}    ${service_name}
    [Documentation]    *Author:* benson qiu<RenJie.Qiu@alcatel-sbell.com.cn>
    ${pDict}    Run Keyword    L2-Selenium2-${dut_gui_type}.GetIProutingattribute    ${base_url}    ${service_name}
    Return From Keyword    ${pDict}

GetInternetMobile
    [Arguments]    ${dut_gui_type}    ${base_url}
    ${pDict}=    Run Keyword    L2-Selenium2-${dut_gui_type}.GetInternetMobile    ${base_url}
    Return From Keyword    ${pDict}

GetLANConfiguration
    [Arguments]    ${dut_gui_type}    ${base_url}
    [Documentation]    *Author:* Roy Xu<Zengle.Xu@alcatel-sbell.com.cn>
    ${pDict}    Run Keyword    L2-Selenium2-${dut_gui_type}.GetLANConfiguration    ${base_url}
    Return From Keyword    ${pDict}

GetLanDHCPentryattribute
    [Arguments]    ${dut_gui_type}    ${base_url}    ${wanname}
    [Documentation]    *Author:* benson qiu<RenJie.Qiu@alcatel-sbell.com.cn>
    ${pDict}    Run Keyword    L2-Selenium2-${dut_gui_type}.GetLanDHCPentryattribute    ${base_url}    ${wanname}
    Return From Keyword    ${pDict}

GetLanIPsetting
    [Arguments]    ${dut_gui_type}    ${base_url}    ${service_name}
    [Documentation]    *Author:* Benson Qiu <Renjie.Qiu@alcatel-sbell.com.cn>
    ${pDict}=    Run Keyword    L2-Selenium2-${dut_gui_type}.GetLanIPsetting    ${base_url}    ${service_name}
    Return From Keyword    ${pDict}

GetLanIPsettingattribute
    [Arguments]    ${dut_gui_type}    ${base_url}    ${service_name}
    [Documentation]    *Author:* Benson Qiu <Renjie.Qiu@alcatel-sbell.com.cn>
    ${pDict}=    Run Keyword    L2-Selenium2-${dut_gui_type}.GetLanIPsettingAttribute    ${base_url}    ${service_name}
    Return From Keyword    ${pDict}

GetLanIPv6settingAttribute
    [Arguments]    ${dut_gui_type}    ${base_url}    ${service_name}
    [Documentation]    *Author:* Benson Qiu <Renjie.Qiu@alcatel-sbell.com.cn>
    ${pDict}=    Run Keyword    L2-Selenium2-${dut_gui_type}.GetLanIPv6settingAttribute    ${base_url}    ${service_name}
    Return From Keyword    ${pDict}

GetLanPortMode
    [Arguments]    ${dut_gui_type}
    ${pDict}=    Run Keyword    L2-Selenium2-${dut_gui_type}.GetLanPortMode
    Return From Keyword    ${pDict}

GetLanPortsMode
    [Arguments]    ${dut_gui_type}    ${base_url}    ${service_name}
    [Documentation]    *Author:* Benson Qiu <Renjie.Qiu@alcatel-sbell.com.cn>
    ${pDict}=    Run Keyword    L2-Selenium2-${dut_gui_type}.GetLanPortsMode    ${base_url}    ${service_name}
    Return From Keyword    ${pDict}

GetLanPortsModeAttrlbute
    [Arguments]    ${dut_gui_type}    ${base_url}    ${service_name}
    [Documentation]    *Author:* Benson Qiu <Renjie.Qiu@alcatel-sbell.com.cn>
    ${pDict}=    Run Keyword    L2-Selenium2-${dut_gui_type}.GetLanPortsModeAttrlbute    ${base_url}    ${service_name}
    Return From Keyword    ${pDict}

GetLanStatus
    [Arguments]    ${dut_gui_type}    ${base_url}
    [Documentation]    Get Lan Status information
    ...
    ...    Author: li lin
    ${pDict}=    Run Keyword    l2-Selenium2-${dut_gui_type}.GetLanStatus    ${base_url}
    Return From Keyword    ${pDict}

GetLog
    [Arguments]    ${dut_gui_type}    ${base_url}    ${write_level}    ${read_level}
    [Documentation]    Author: li lin
    ${pDict}=    Run Keyword    L2-Selenium2-${dut_gui_type}.GetLog    ${base_url}    ${write_level}    ${read_level}
    Return From Keyword    ${pDict}

GetMacFilterAttribute
    [Arguments]    ${dut_gui_type}    ${base_url}    ${service_name}
    [Documentation]    *Author:* Benson Qiu <Renjie.Qiu@alcatel-sbell.com.cn>
    ${pDict}=    Run Keyword    L2-Selenium2-${dut_gui_type}.GetMacFilterAttribute    ${base_url}    ${service_name}
    Return From Keyword    ${pDict}

GetMobileStatus
    [Arguments]    ${dut_gui_type}    ${base_url}
    ${pDict}=    Run Keyword    L2-Selenium2-${dut_gui_type}.GetMobileStatus    ${base_url}
    Return From Keyword    ${pDict}

GetNTPAttribute
    [Arguments]    ${dut_gui_type}    ${base_url}    ${service_name}
    [Documentation]    *Author:* Roy Xu<Zengle.Xu@alcatel-sbell.com.cn>
    ${pDict}=    Run Keyword    L2-Selenium2-${dut_gui_type}.GetNTPAttribute    ${base_url}    ${service_name}
    Return From Keyword    ${pDict}

GetNTPCfg
    [Arguments]    ${dut_gui_type}    ${base_url}
    ${pDict}=    Run Keyword    L2-Selenium2-${dut_gui_type}.GetNTPCfg    ${base_url}
    Return From Keyword    ${pDict}

GetNTPValue
    [Arguments]    ${dut_gui_type}    ${base_url}
    ${time}=    Run Keyword    l2-Selenium2-${dut_gui_type}.GetNTPValue    ${base_url}
    Return From Keyword    ${time}

GetNumOfWans
    [Arguments]    ${dut_gui_type}    ${base_url}
    ${pDict}=    Run Keyword    L2-Selenium2-${dut_gui_type}.GetNumOfWans
    Return From Keyword    ${pDict}
    Comment    Run Keyword    L2-Selenium2-${dut_gui_type}.GetNumOfWans

GetOntTypeOnGui
    [Arguments]    ${dut_gui_type}    ${base_url}
    ${pDict}=    Run Keyword    l2-Selenium2-${dut_gui_type}.GetOntTypeOnGui    ${base_url}
    Return From Keyword    ${pDict}

GetOpticsModuleStatus
    [Arguments]    ${dut_gui_type}    ${base_url}
    ${pDict}=    Run Keyword    l2-Selenium2-${dut_gui_type}.GetOpticsModuleStatus    ${base_url}
    Return From Keyword    ${pDict}

GetPingTestResult
    [Arguments]    ${dut_gui_type}    ${base_url}    ${wan_interface}    ${destination_ip_domain}
    [Documentation]    *Author:* Roy Xu<Zengle.Xu@alcatel-sbell.com.cn>
    ${TestResult}=    Run Keyword    L2-Selenium2-${dut_gui_type}.GetPingTestResult    ${base_url}    ${wan_interface}    ${destination_ip_domain}
    Return From Keyword    ${TestResult}

GetPortForwardAttribute
    [Arguments]    ${dut_gui_type}    ${base_url}    ${service_name}
    [Documentation]    *Author:* Roy Xu<Zengle.Xu@alcatel-sbell.com.cn>
    ${pDict}=    Run Keyword    L2-Selenium2-${dut_gui_type}.GetPortForwardAttribute    ${base_url}    ${service_name}
    Return From Keyword    ${pDict}

GetPortForwarding
    [Arguments]    ${dut_gui_type}    ${base_url}
    [Documentation]    == Discription ==
    ...    ---
    ...    *Author :* Wuyang.Shi<Wuyang.Shi@alcatel-sbell.com.cn>
    ...
    ...    *Date :* July. 14th, 2017
    ...
    ...    GetPortForwarding return a list,every list value contain dictionary.
    ...    ---
    ...    == Examples ==
    ...
    ...    For example, sometimes, your case need get portforwarding rule.
    ...    that:
    ...
    ...    | ${list}= | *l3-selenium2.GetPortForwarding* | add | ${ont['gui_type']} | ${ont['url_protocol']}://${ont['ip']} |
    ...
    ...    ---
    ...    == Assumption ==
    ...    *CAUTION:* Please make sure the INTERNET WAN already obtain ip.
    ...    ---
    ...    == Customers ==
    ...
    ...    COMMON
    ...
    ...    ---
    ...    == History ==
    ...
    ...    *Rev 0:* July. 14, 2017 Wuyang.Shi<Wuyang.Shi@alcatel-sbell.com.cn>_ Create this keyword Documentation.
    ${list}=    Run Keyword    L2-Selenium2-${dut_gui_type}.GetPortForwarding    ${base_url}
    Return From Keyword    ${list}

GetPortForwardingTable
    [Arguments]    ${dut_gui_type}    ${base_url}
    [Documentation]    Author: li lin
    ${pDict}=    Run Keyword    l2-Selenium2-${dut_gui_type}.GetPortForwardingTable    ${base_url}
    Return From Keyword    ${pDict}

GetPortTriggering
    [Arguments]    ${dut_gui_type}
    [Documentation]    item=${count}
    ...
    ...    application_name=${application_name}
    ...
    ...    wan_connection=${wan_connection}
    ...
    ...    open_port=${open_port}
    ...
    ...    triggering_port=${triggering_port}
    ...
    ...    expire_time=${expire_time}
    ...
    ...    open_protocol=${open_protocol}
    ...
    ...    trigger_protocol=${trigger_protocol}
    ...
    ...    status=${status}
    ...
    ...    delete=${delete}
    ${list}=    Run Keyword    L2-Selenium2-${dut_gui_type}.GetPortTriggering
    Return From Keyword    ${list}

GetPortTriggeringAttribute
    [Arguments]    ${dut_gui_type}    ${base_url}    ${service_name}
    [Documentation]    *Author:* Roy Xu<Zengle.Xu@alcatel-sbell.com.cn>
    ${pDict}=    Run Keyword    L2-Selenium2-${dut_gui_type}.GetPortTriggeringAttribute    ${base_url}    ${service_name}
    Return From Keyword    ${pDict}

GetSLIDValue
    [Arguments]    ${dut_gui_type}    ${base_url}
    ${pDict}=    Run Keyword    l2-Selenium2-${dut_gui_type}.GetSLIDValue    ${base_url}
    Return From Keyword    ${pDict}

GetSSIDCfg
    [Arguments]    ${dut_gui_type}    ${SSIDIndex}
    ${pDict}=    Run Keyword    L2-Selenium2-${dut_gui_type}.GetSSIDCfg
    Return From Keyword    ${pDict}

GetSecurityALGsetting
    [Arguments]    ${dut_gui_type}    ${base_url}    ${service_name}
    [Documentation]    *Author:* Benson Qiu <Renjie.Qiu@alcatel-sbell.com.cn>
    ${pDict}=    Run Keyword    L2-Selenium2-${dut_gui_type}.GetSecurityALGsetting    ${base_url}    ${service_name}
    Return From Keyword    ${pDict}

GetSecurityALGsettingAttribute
    [Arguments]    ${dut_gui_type}    ${base_url}    ${service_name}
    [Documentation]    *Author:* Benson Qiu <Renjie.Qiu@alcatel-sbell.com.cn>
    ${pDict}=    Run Keyword    L2-Selenium2-${dut_gui_type}.GetSecurityALGsettingAttribute    ${base_url}    ${service_name}
    Return From Keyword    ${pDict}

GetSecurityAccessControlCfgAttribute
    [Arguments]    ${dut_gui_type}    ${base_url}    ${service_name}
    [Documentation]    *Author:* Benson Qiu <Renjie.Qiu@alcatel-sbell.com.cn>
    ${pDict}=    Run Keyword    L2-Selenium2-${dut_gui_type}.GetSecurityAccessControlCfgAttribute    ${base_url}    ${service_name}
    Return From Keyword    ${pDict}

GetSecurityAccessControlCfgValue
    [Arguments]    ${dut_gui_type}    ${base_url}    ${service_name}
    [Documentation]    *Author:* Benson Qiu <Renjie.Qiu@alcatel-sbell.com.cn>
    ${pDict}=    Run Keyword    L2-Selenium2-${dut_gui_type}.GetSecurityAccessControlCfgValue    ${base_url}    ${service_name}
    Return From Keyword    ${pDict}

GetSecurityDMZsetting
    [Arguments]    ${dut_gui_type}    ${base_url}    ${service_name}
    [Documentation]    *Author:* Benson Qiu <Renjie.Qiu@alcatel-sbell.com.cn>
    ${pDict}=    Run Keyword    L2-Selenium2-${dut_gui_type}.GetSecurityDMZsetting    ${base_url}    ${service_name}
    Return From Keyword    ${pDict}

GetSecurityDMZsettingAttribute
    [Arguments]    ${dut_gui_type}    ${base_url}    ${service_name}
    [Documentation]    *Author:* Benson Qiu <Renjie.Qiu@alcatel-sbell.com.cn>
    ${pDict}=    Run Keyword    L2-Selenium2-${dut_gui_type}.GetSecurityDMZsettingAttribute    ${base_url}    ${service_name}
    Return From Keyword    ${pDict}

GetSecurityFirelevelandDosattack
    [Arguments]    ${dut_gui_type}    ${base_url}    ${service_name}
    [Documentation]    *Author:* Benson Qiu <Renjie.Qiu@alcatel-sbell.com.cn>
    ${pDict}=    Run Keyword    L2-Selenium2-${dut_gui_type}.GetSecurityFirelevelandDosattack    ${base_url}    ${service_name}
    Return From Keyword    ${pDict}

GetSecurityFirelevelandDosattackAttribute
    [Arguments]    ${dut_gui_type}    ${base_url}    ${service_name}
    [Documentation]    *Author:* Benson Qiu <Renjie.Qiu@alcatel-sbell.com.cn>
    ${pDict}=    Run Keyword    L2-Selenium2-${dut_gui_type}.GetSecurityFirelevelandDosattackAttribute    ${base_url}    ${service_name}
    Return From Keyword    ${pDict}

GetSecurityHTTPTelnetAttribute
    [Arguments]    ${dut_gui_type}    ${base_url}    ${service_name}
    ${pDict}=    Run Keyword    L2-Selenium2-${dut_gui_type}.GetSecurityHTTPTelnetAttribute    ${base_url}    ${service_name}
    Return From Keyword    ${pDict}

GetSecurityHTTPTelnetValue
    [Arguments]    ${dut_gui_type}    ${base_url}    ${service_name}
    ${pDict}=    Run Keyword    L2-Selenium2-${dut_gui_type}.GetSecurityHTTPTelnetValue    ${base_url}    ${service_name}
    Return From Keyword    ${pDict}

GetSettingsMobile
    [Arguments]    ${dut_gui_type}    ${base_url}
    ${pDict}=    Run Keyword    L2-Selenium2-${dut_gui_type}.GetSettingsMobile    ${base_url}
    Return From Keyword    ${pDict}

GetStatus
    [Arguments]    ${dut_gui_type}    ${base_url}
    [Documentation]    Get Lan Status information
    ...
    ...    Author: shi wuyang
    ${pDict}=    Run Keyword    l2-Selenium2-${dut_gui_type}.GetStatus    ${base_url}
    Return From Keyword    ${pDict}

GetTR069Status
    [Arguments]    ${dut_gui_type}    ${base_url}
    ${pDict}=    Run Keyword    L2-Selenium2-${dut_gui_type}.GetTR069Status    ${base_url}
    Return From Keyword    ${pDict}

GetTR069StatusAttribute
    [Arguments]    ${dut_gui_type}    ${base_url}
    [Documentation]    *Author:* Roy Xu<Zengle.Xu@alcatel-sbell.com.cn>
    ${pDict}=    Run Keyword    L2-Selenium2-${dut_gui_type}.GetTR069StatusAttribute    ${base_url}
    Return From Keyword    ${pDict}

GetURLFilterAttribute
    [Arguments]    ${dut_gui_type}    ${base_url}    ${service_name}
    [Documentation]    *Author:* Benson Qiu <Renjie.Qiu@alcatel-sbell.com.cn>
    ${pDict}=    Run Keyword    L2-Selenium2-${dut_gui_type}.GetURLFilterAttribute    ${base_url}    ${service_name}
    Return From Keyword    ${pDict}

GetUSBStorage
    [Arguments]    ${dut_gui_type}    ${base_url}    ${host_num}
    ${pDict}=    Run Keyword    L2-Selenium2-${dut_gui_type}.GetUSBStorage    ${base_url}    ${host_num}
    Return From Keyword    ${pDict}

GetUSBstorageAttribute
    [Arguments]    ${dut_gui_type}    ${base_url}    ${service_name}
    [Documentation]    *Author:* Roy Xu<Zengle.Xu@alcatel-sbell.com.cn>
    ${pDict}=    Run Keyword    L2-Selenium2-${dut_gui_type}.GetUSBstorageAttribute    ${base_url}    ${service_name}
    Return From Keyword    ${pDict}

GetUpnpDLNAAttribute
    [Arguments]    ${dut_gui_type}    ${base_url}    ${service_name}
    [Documentation]    *Author:* Roy Xu<Zengle.Xu@alcatel-sbell.com.cn>
    ${pDict}=    Run Keyword    L2-Selenium2-${dut_gui_type}.GetUpnpDLNAAttribute    ${base_url}    ${service_name}
    Return From Keyword    ${pDict}

GetWANCfg
    [Arguments]    ${dut_gui_type}    ${WanIndex}
    ${pDict}=    Run Keyword    L2-Selenium2-${dut_gui_type}.GetWANCfg
    Return From Keyword    ${pDict}

GetWANConfigurationValue
    [Arguments]    ${dut_gui_type}    ${base_url}    ${service_name}
    [Documentation]    *Author:* Roy Xu<Zengle.Xu@alcatel-sbell.com.cn>
    ${pDict}=    Run Keyword    L2-Selenium2-${dut_gui_type}.GetWANConfigurationValue    ${base_url}    ${service_name}
    Return From Keyword    ${pDict}

GetWANConfigurationValueAttribute
    [Arguments]    ${dut_gui_type}    ${base_url}    ${service_name}
    [Documentation]    *Author:* Roy Xu<Zengle.Xu@alcatel-sbell.com.cn>
    ${pDict}=    Run Keyword    L2-Selenium2-${dut_gui_type}.GetWANConfigurationValueAttribute    ${base_url}    ${service_name}
    Return From Keyword    ${pDict}

GetWANDHCPConfigurationValue
    [Arguments]    ${dut_gui_type}    ${base_url}    ${wan_name}
    [Documentation]    *Author:* Roy Xu<Zengle.Xu@alcatel-sbell.com.cn>
    ${pDict}=    Run Keyword    L2-Selenium2-${dut_gui_type}.GetWANDHCPConfigurationValue    ${base_url}    ${wan_name}
    Return From Keyword    ${pDict}

GetWANInterface
    [Arguments]    ${dut_gui_type}    ${base_url}
    @{list}    Run Keyword    L2-Selenium2-${dut_gui_type}.GetWANInterface    ${base_url}
    Return From Keyword    @{list}

GetWANStatus
    [Arguments]    ${dut_gui_type}    ${base_url}    ${service_name}
    [Documentation]    == Discription ==
    ...    ---
    ...    *Author :* Wuyang.Shi<Wuyang.Shi@alcatel-sbell.com.cn>
    ...
    ...    *Date :* July. 14th, 2017
    ...
    ...    GetWANStatus return a dictionary,inculde all parameters in wan_status page
    ...
    ...    ---
    ...    == Examples ==
    ...
    ...    For example, sometimes, your case need add pppoe wan.
    ...    that:
    ...
    ...    | ${Dict} | *l3-selenium2.GetWANStatus* | ${ont['gui_type']} | ${ont['url_protocol']}://${ont['ip']} | 1003 |
    ...
    ...    ---
    ...    == Assumption ==
    ...    *CAUTION:* Please make sure the olt had configured the vlan.
    ...    ---
    ...    == Customers ==
    ...
    ...    COMMON
    ...
    ...    ---
    ...    == History ==
    ...
    ...    *Rev 0:* July. 14, 2017 Wuyang.Shi<Wuyang.Shi@alcatel-sbell.com.cn>_ Create this keyword Documentation.
    ...
    ...
    ...
    ...    Author:SHI Wuyang
    ${pDict}=    Run Keyword    L2-Selenium2-${dut_gui_type}.GetWANStatus    ${base_url}    ${service_name}
    Return From Keyword    ${pDict}

GetWANStatusByIndex
    [Arguments]    ${dut_gui_type}    ${base_url}    ${service_name}
    ${pDict}=    Run Keyword    L2-Selenium2-${dut_gui_type}.GetWANStatusByIndex    ${base_url}    ${service_name}
    Return From Keyword    ${pDict}

GetWanDHCPAttritube
    [Arguments]    ${dut_gui_type}    ${base_url}    ${wan_name}
    [Documentation]    *Author:* Roy Xu<Zengle.Xu@alcatel-sbell.com.cn>
    ${pDict}=    Run Keyword    L2-Selenium2-${dut_gui_type}.GetWANDHCPAttritube    ${base_url}    ${wan_name}
    Return From Keyword    ${pDict}

GetWifiCfg
    [Arguments]    ${dut_gui_type}    ${base_url}
    ${pDict}=    Run Keyword    L2-Selenium2-${dut_gui_type}.GetWifiCfg    ${base_url}
    Return From Keyword    ${pDict}

GetacsInfo
    [Arguments]    ${dut_gui_type}    ${base_url}    ${URL}
    ${URL}    Run Keyword    L2-Selenium2-${dut_gui_type}.GetacsInfo    ${base_url}
    Return From Keyword    ${URL}

GetusernameInfo
    [Arguments]    ${dut_gui_type}    ${base_url}    ${URL}
    ${URL}    Run Keyword    L2-Selenium2-${dut_gui_type}.GetusernameInfo    ${base_url}
    Return From Keyword    ${URL}

HttpWanDisable
    [Arguments]    ${dut_gui_type}    ${base_url}    ${service_name}
    Run Keyword    L2-Selenium2-${dut_gui_type}.HttpWanDisable    ${base_url}    ${service_name}

HttpWanEnable
    [Arguments]    ${dut_gui_type}    ${base_url}    ${service_name}
    Run Keyword    L2-Selenium2-${dut_gui_type}.HttpWanEnable    ${base_url}    ${service_name}

ImportBackupAndRestore
    [Arguments]    ${dut_gui_type}    ${base_url}    ${file_path}
    Run Keyword    L2-Selenium2-${dut_gui_type}.ImportBackupAndRestore    ${base_url}    ${file_path}

LANDHCP6Enable
    [Arguments]    ${dut_gui_type}    ${base_url}    ${Value}    ${prefix}
    Run Keyword    L2-Selenium2-${dut_gui_type}.LANDHCP6Enable    ${base_url}    ${Value}    ${prefix}

LANDHCPEnable
    [Arguments]    ${dut_gui_type}    ${base_url}    ${Value}
    Run Keyword    L2-Selenium2-${dut_gui_type}.LANDHCPEnable    ${base_url}    ${Value}

LoginGUI
    [Arguments]    ${dut_gui_type}    ${base_url}    ${gui_username}    ${gui_password}
    [Documentation]    1. Tue Dec 15 2015 , xqzhang : Add " _*Delete All Cookies*_ " to clean the cookies in current session. Because some times , these cookies may cause unexpected test fail.
    log    ${base_url}
    Run Keyword    L2-Selenium2-${dut_gui_type}.LoginGUI    ${base_url}    ${gui_username}    ${gui_password}

LogoutGUI
    [Arguments]    ${dut_gui_type}    ${base_url}
    Run Keyword    L2-Selenium2-${dut_gui_type}.LogoutGUI    ${base_url}
    [Teardown]

MacFilterBlackList
    [Arguments]    ${dut_gui_type}    ${base_url}
    Run Keyword    L2-Selenium2-${dut_gui_type}.MacFilterBlackList    ${base_url}

MacFilterBlackList1
    [Arguments]    ${dut_gui_type}    ${base_url}    ${mac_src}
    Run Keyword    L2-Selenium2-${dut_gui_type}.MacFilterBlackList1    ${base_url}    ${mac_src}

MacFilterWhiteList
    [Arguments]    ${dut_gui_type}    ${base_url}    ${lan_mac}
    Run Keyword    L2-Selenium2-${dut_gui_type}.MacFilterWhiteList    ${base_url}    ${lan_mac}

ModifyLANConfiguration
    [Arguments]    ${dut_gui_type}    ${base_url}    ${IPv4Address}    ${SubnetMask}    ${StartIPAddress}    ${EndIPAddress}
    ...    ${DHCPLeaseTime}
    [Documentation]    *Author:* Roy Xu<Zengle.Xu@alcatel-sbell.com.cn>
    Run Keyword    L2-Selenium2-${dut_gui_type}.ModifyLANConfiguration    ${base_url}    ${IPv4Address}    ${SubnetMask}    ${StartIPAddress}    ${EndIPAddress}
    ...    ${DHCPLeaseTime}

ModifyLANDHCP6Prefix
    [Arguments]    ${dut_gui_type}    ${base_url}    ${prefix_type}    ${static_prefix}
    [Documentation]    *Author:* Tony Zhao<zixiao.zhao@nokia-sbell.com>
    Run Keyword    L2-Selenium2-${dut_gui_type}.ModifyLANDHCP6Prefix    ${base_url}    ${prefix_type}    ${static_prefix}

ModifyPPPoEWANAccountByIndex
    [Arguments]    ${dut_gui_type}    ${base_url}    ${Index}    ${Username}    ${Password}
    Run Keyword    L2-Selenium2-${dut_gui_type}.ModifyPPPoEWANAccountByIndex    ${base_url}    ${Index}    ${Username}    ${Password}

ModifyWebPassword
    [Arguments]    ${dut_gui_type}    ${base_url}    ${gui_password}
    [Documentation]    *Author:* Roy Xu<Zengle.Xu@alcatel-sbell.com.cn>
    Run Keyword    L2-Selenium2-${dut_gui_type}.ModifyWebPassword    ${base_url}    ${gui_password}

Reboot
    [Arguments]    ${dut_gui_type}    ${base_url}
    Run Keyword    L2-Selenium2-${dut_gui_type}.Reboot    ${base_url}
    #Enable Telnet after Reboot ONT for TELMEX
    ${passed}=    Run Keyword And Return Status    Should Match Regexp    ${ont['opid']}    MXXT|MXXV|SAIB
    Run Keyword if    ${passed}    l3-selenium2.LoginGUI    ${ont['gui_type']}    ${ont['url_protocol']}://${ont['ip']}    ${ont['gui_username']}    ${ont['gui_password']}
    Run Keyword if    ${passed}    l3-selenium2.SetTelnet    enable
    #enable telnet for VIET ONT
    ${opid_viet}    Run Keyword And Return Status    Should Match Regexp    ${ont['opid']}    VIET
    Run Keyword if    ${opid_viet}    ExecWithLog    setont -t
    Run Keyword if    ${opid_viet}    Create HTTP Context    localhost:8015
    Run Keyword if    ${opid_viet}    TriggerInform
    Run Keyword if    ${opid_viet}    l3-tr069.SetTelnet    enable
    #enable super account for VIET ONT
    ${status}=    Run Keyword if    ${opid_viet}    SetParameterValuesEx    InternetGatewayDevice.X_Authentication.WebAccount.Enable 1
    Run Keyword if    ${opid_viet}    Should Be Equal    ${status}    0
    Run Keyword if    ${opid_viet}    CloseClient

RebootDut
    [Arguments]    ${GuiType}
    [Documentation]    Mon Oct 26, 10:49 \ \ \ Writer: Alfred Zhang (Xin.Q.Zhang@alcatel-sbell.com.cn)
    ...
    ...    Reboot the DUT by web .
    ...
    ...    | =Argument= | =Detail= |
    ...    | _GuiType_ | Used to switch to right gui keyword. |
    Run Keyword    l2-selenium2-${GuiType}.RebootDut

SetAccessControl
    [Arguments]    ${base_url}    ${interface}    ${protocol}    ${enabled}=${False}
    [Documentation]    == Set Access Control ==
    ...
    ...    This keyword is used to set which protocol is allowd/denied at LAN/specified WAN interface.
    ...
    ...    This keyword doesn't include the function to set Trusted Networks on Access Control page.
    ...
    ...    ${interface} should be "LAN" or the WAN interface name. If use the WAN service name such as "INTERNET", or "TR069", it will select the first WAN which matches this service. So the full WAN interface is recommended for this variable.
    ...
    ...    ${protocol} can be "icmp", "telnet", "ssh", "http", "tr69", "https" and "sftp".
    ...
    ...    ${enabled} can be "${True}" or "${False}".
    ...
    ...    *Author:* Cai Jinglu \ <jinglu.a.cai@nokia-sbell.com>
    ...
    ...    *Last Revisor:* Cai Jinglu \<jinglu.a.cai@nokia-sbell.com>
    ...    ---
    ...    == Customer ==
    ...
    ...    All AONTs except MXXT, MXXV, SAIB, DUXX, TLAR, VIVA, VFTK and ENTB and brdlt ONTs
    ...    ---
    ...    == History ==
    ...    _*Rev 0:*_ 2018-01-15 --- Cai Jinglu \ <jinglu.a.cai@nokia-sbell.com>: Create this keyword.
    Run Keyword    L2-Selenium2-${ont['gui_type']}.SetAccessControl    ${base_url}    ${interface}    ${protocol}    ${enabled}

SetApplist
    [Arguments]    ${dut_gui_type}    ${base_url}    ${appname}    ${interface}
    Run Keyword    L2-Selenium2-${dut_gui_type}.SetApplist    ${base_url}    ${appname}    ${interface}
    Sleep    5s

SetDHCPStatic
    [Arguments]    ${dut_gui_type}    ${base_url}    ${mac}    ${ip}
    Run Keyword    L2-Selenium2-${dut_gui_type}.SetDHCPStatic    ${base_url}    ${mac}    ${ip}

SetDMZ
    [Arguments]    ${dut_gui_type}    ${base_url}    ${ipaddress}    ${interface}    ${status}
    Run Keyword    L2-Selenium2-${dut_gui_type}.SetDMZ    ${base_url}    ${ipaddress}    ${interface}    ${status}
    Sleep    5s

SetDNSProxy
    [Arguments]    ${value}
    Run Keyword    L2-Selenium2-${ont['gui_type']}.SetDNSProxy    ${value}

SetDNSTable
    [Arguments]    ${dn}    ${da}    ${od}    ${nd}
    [Documentation]    This Keyword is used to set Domain-To-IpAddress (d2a) table or Domain-To-Domain (d2d) table from DNS configuration page. ${locater} should be d2a or d2d.
    ...
    ...    Author: Tony Zhao
    Run Keyword    L2-Selenium2-${ont['gui_type']}.SetDNSTable    ${dn}    ${da}    ${od}    ${nd}

SetDiagnostics
    [Arguments]    ${dut_gui_type}    ${base_url}    ${service_name}    ${ipordomain}    ${pingCout}    ${packetLen}
    ...    ${hops}    @{test_services}
    [Documentation]    Test Diagnostics
    ...
    ...    Author: li lin
    [Tags]
    ${pDict}=    Run Keyword    L2-Selenium2-${dut_gui_type}.SetDiagnostics    ${base_url}    ${service_name}    ${ipordomain}    ${pingCout}
    ...    ${packetLen}    ${hops}    @{test_services}
    Return From Keyword    ${pDict}

SetDiagnosticsViaCancel
    [Arguments]    ${dut_gui_type}    ${base_url}    ${service_name}    ${ipordomain}    ${pingCout}    ${packetLen}
    ...    ${hops}    @{test_services}
    ${pDict}=    Run Keyword    L2-Selenium2-${dut_gui_type}.SetDiagnosticsViaCancel    ${base_url}    ${service_name}    ${ipordomain}    ${pingCout}
    ...    ${packetLen}    ${hops}    @{test_services}
    Return From Keyword    ${pDict}

SetFirewall
    [Arguments]    ${dut_gui_type}    ${base_url}    ${level}    ${attackprotection}=1
    Run Keyword    L2-Selenium2-${dut_gui_type}.SetFirewall    ${base_url}    ${level}    ${attackprotection}

SetFirewallChainAddition
    [Arguments]    ${dut_gui_type}    ${base_url}
    [Documentation]    *Author:* Tony Zhao<zixiao.zhao@nokia-sbell.com>
    Run Keyword    L2-Selenium2-${dut_gui_type}.SetFirewallChainAddition    ${base_url}

SetFirewallChainDeletion
    [Arguments]    ${dut_gui_type}    ${base_url}    ${chain_id}
    [Documentation]    *Author:* Tony Zhao<zixiao.zhao@nokia-sbell.com>
    Run Keyword    L2-Selenium2-${dut_gui_type}.SetFirewallChainDeletion    ${base_url}    ${chain_id}

SetFirewallLevelAddition
    [Arguments]    ${dut_gui_type}    ${base_url}    ${policy}    ${level_name}
    [Documentation]    *Author:* Tony Zhao<zixiao.zhao@nokia-sbell.com>
    Run Keyword    L2-Selenium2-${dut_gui_type}.SetFirewallLevelAddition    ${base_url}    ${policy}    ${level_name}

SetFirewallLevelDeletion
    [Arguments]    ${dut_gui_type}    ${base_url}    ${policy}    ${level_name}
    [Documentation]    *Author:* Tony Zhao<zixiao.zhao@nokia-sbell.com>
    Run Keyword    L2-Selenium2-${dut_gui_type}.SetFirewallLevelDeletion    ${base_url}    ${level_id}

SetFirewallRuleAddition
    [Arguments]    ${dut_gui_type}    ${base_url}    ${chain_id}
    [Documentation]    *Author:* Tony Zhao<zixiao.zhao@nokia-sbell.com>
    Run Keyword    L2-Selenium2-${dut_gui_type}.SetFirewallRuleAddition    ${base_url}    ${chain_id}

SetFirewallRuleDeletion
    [Arguments]    ${dut_gui_type}    ${base_url}    ${chain}    ${rule_id}
    [Documentation]    *Author:* Tony Zhao<zixiao.zhao@nokia-sbell.com>
    Run Keyword    L2-Selenium2-${dut_gui_type}.SetFirewallRuleDeletion    ${base_url}    ${chain}    ${rule_id}

SetHTTP
    [Arguments]    ${base_url}    ${side}    ${status}
    [Documentation]    Author:XuZengle
    Run Keyword    L2-Selenium2-${ont['gui_type']}.SetHTTP    ${base_url}    ${ont['opid']}    ${side}    ${status}
    Sleep    5s

SetIPRouting
    [Arguments]    ${dut_gui_type}    ${base_url}    ${dst_ip}    ${netmask}    ${gateway}    ${service_name}
    ...    ${policy_index}
    [Documentation]    Add IP Routing table.
    ...
    ...    Author: li lin
    [Tags]
    Run Keyword    L2-Selenium2-${dut_gui_type}.SetIPRouting    ${base_url}    ${dst_ip}    ${netmask}    ${gateway}    ${service_name}
    ...    ${policy_index}

SetIPfilter
    [Arguments]    ${dut_gui_type}=default    ${status}=default    ${action}=default    ${base_url}=default    ${mode}=default    ${internal_client}=default
    ...    ${remote_ipaddress}=default    ${remote_netmask}=default    ${local_ipaddress}=default    ${local_netmask}=default    ${protocol}=default    ${source_portnum}=default
    ...    ${source_eportnum}=default    ${dest_portnum}=default    ${dest_eportnum}=default
    [Documentation]    == Discription ==
    ...    ---
    ...    *Author :* Roy Xu<Zengle.Xu@alcatel-sbell.com.cn>
    ...
    ...    *Date :* Oct. 23. 2017
    ...
    ...    Enable/Disable and Add/Delete IPfilter Rule , _*status*_ mean enable IPfilter function, _*action*_ mean to add/Delete IPfilter Rules.
    ...
    ...    == Example ==
    ...
    ...    for example if you want to enable ipfilter function, like that:
    ...
    ...    | *L3-Selenium2.SetIPFilter* | dut_gui_type=${ont['gui_type']} | status=enable |
    ...
    ...    for example if you want to add one ipfilter rule, like that:
    ...
    ...    | *L3-Selenium2.SetIPfilter* | dut_gui_type=${ont['gui_type']} | status=enable | \ action=add \ | base_url=${ont['url_protocol']}://${ont['ip']} | mode=upstream | internal_client=custom | \ \ remote_ipaddress=10.18.90.253 | remote_netmask=255.255.255.0 | \ local_ipaddress=192.168.0.111 | local_netmask=255.255.255.0 | protocol=TCP | \ source_portnum=20001 | source_eportnum=20002 | dest_portnum=20001 | \ dest_eportnum=20002 |
    #if action is add, add ipfilter rule
    run keyword if    '${action}'=='add'    L2-Selenium2-${dut_gui_type}.SetIPfilter    ${base_url}    ${status}    ${mode}    ${internal_client}
    ...    ${remote_ipaddress}    ${remote_netmask}    ${local_ipaddress}    ${local_netmask}    ${protocol}    ${source_portnum}
    ...    ${source_eportnum}    ${dest_portnum}    ${dest_eportnum}
    #if action is delete, delete ipfilter rule
    run keyword if    '${action}'=='delete'    L2-Selenium2-${dut_gui_type}.DeleteIPfilter    ${base_url}    ${mode}    ${protocol}    ${local_ipaddress}
    ...    ${remote_ipaddress}

SetInternetMobile
    [Arguments]    ${dut_gui_type}    ${base_url}    ${pin_number}=${ont['pin_num']}    ${mobile_enable}=disable    ${pin_enable}=disable    ${change_pin}=disable
    Run Keyword    L2-Selenium2-${dut_gui_type}.SetInternetMobile    ${base_url}    ${pin_number}    ${mobile_enable}    ${pin_enable}    ${change_pin}

SetLANDNS
    [Arguments]    ${first_lan_dns}=${EMPTY}    ${second_lan_dns}=${EMPTY}    ${button}=ok
    [Documentation]    Set manual LAN DNS.
    ...    if dns=${EMPTY}, Set the value to ${EMPTY}, if this value = keep, then do not set this value.
    ...    if button=ok, confirm the action, if button=cancel and all other values, click on cancel when alert appears.
    ...
    ...    author: Cai Jinglu
    Run Keyword    L2-Selenium2-${ont['gui_type']}.SetLANDNS    ${first_lan_dns}    ${second_lan_dns}    ${button}

SetLan
    [Arguments]    ${base_url}=default    ${ont_submask}=default    ${host_name}=default    ${first_lan_dns}=default    ${second_lan_dns}=default    ${dhcp_enable}=default
    ...    ${dhcp_pool_sta}=default    ${dhcp_pool_en}=default    ${lease_time}=default
    [Documentation]    == Discription ==
    ...    ---
    ...
    ...    configure lan web.
    ...
    ...    *Editor:* Lin.H.Li@nokia-sbell.com
    Run Keyword    L2-Selenium2-${ont['gui_type']}.SetLan    ${base_url}    ${ont_submask}    ${host_name}    ${first_lan_dns}    ${second_lan_dns}
    ...    ${dhcp_enable}    ${dhcp_pool_sta}    ${dhcp_pool_en}    ${lease_time}

SetLog
    [Arguments]    ${dut_gui_type}    ${base_url}    ${write_level}    ${read_level}
    [Documentation]    Author: li lin
    ${pDict}=    Run Keyword    L2-Selenium2-${dut_gui_type}.SetLog    ${base_url}    ${write_level}    ${read_level}
    Return From Keyword    ${pDict}

SetMacFilter
    [Arguments]    ${ports}    ${type}    ${action}=save    ${addr}=${EMPTY}
    [Documentation]    == Summary ==
    ...
    ...    Configure WebGUI mac filter page.
    ...
    ...    ${ports} indicate which port(s) are enabled with mac filter. For example, enable LAN1, ${ports} should be 1. To enable more than 1 port, use comma to separate ports. For example, LAN1~LAN4 are all enabled, use "1,2,3,4". If set "keep" to ${ports}, then keep the current configuration. If set "0" to ${ports}, all ports will be disabled with mac filter.
    ...
    ...    ${type} is mac filter type, which should be block or allow. If setting other values except block/allow, mac filter will remain the current type.
    ...
    ...    ${action} can be "save" or "delete". Other values or ${EMPTY} will make no action. if ${action}=delete, only do delete address action, the ${ports} and ${type} set will not be saved.
    ...
    ...    ${addr} can be set to a mac address or ${EMPTY} or "all". It will add or delete the corresponding mac addr to/from mac list based on ${action}. if ${action}=delete, ${addr}=all, will delete all address in mac filter.
    ...
    ...    *Author:* Cai Jinglu
    ...
    ...    ---
    ...    == Customer ==
    ...
    ...    All AONTs
    ...    ---
    ...    == History ==
    ...    _*Rev 0:*_ 10. May, 2017 --- Cai Jinglu \ <Jinglu.A.Cai@alcatel-sbell.com.cn>: Create this keyword.
    ...
    ...    _*Rev 1:* _20. July, 2017 --- Cai Jinglu \ <Jinglu.A.Cai@alcatel-sbell.com.cn>: Modify the keyword since mac filter configuration on Web is changed from HDR57, RCR: ALU02329357
    ${alert_msg}=    Run Keyword    L2-Selenium2-${ont['gui_type']}.SetMacFilter    ${ports}    ${type}    ${action}    ${addr}
    #filter mode block
    ${filter_mode}=    Set Variable if    '${type}'=='block' and '${action}'=='save'    block    '${type}'=='allow' and '${action}'=='save'    allow    ${filter_mode}
    Set Suite Variable    ${filter_mode}
    Return From Keyword    ${alert_msg}

SetNTP
    [Arguments]    ${dut_gui_type}    ${opid}    ${base_url}    ${Status}    ${NTPServer1}=default    ${NTPServer2}=default.net
    ...    ${NTPServer3}=default.net    ${IntervalTime}=default    ${TimeZone}=default
    Run Keyword    L2-Selenium2-${dut_gui_type}.SetNTP    ${opid}    ${base_url}    ${Status}    ${NTPServer1}    ${NTPServer2}
    ...    ${NTPServer3}    ${IntervalTime}    ${TimeZone}
    Sleep    5s

SetParentControlURL
    [Arguments]    ${dut_gui_type}    ${base_url}    ${status}    ${policy_name}    ${addr}    ${type}
    ...    ${start_time}    ${end_time}    @{date}
    Run Keyword    L2-Selenium2-${dut_gui_type}.SetParentControlURL    ${base_url}    ${status}    ${policy_name}    ${addr}    ${type}
    ...    ${start_time}    ${end_time}    @{date}

SetPassword
    [Arguments]    ${dut_gui_type}    ${base_url}    ${newpasswd}    ${repasswd}    ${prompt}=log    ${origpwd}=${ont['gui_password']}
    [Documentation]    Author: li lin
    ${msg}    Run Keyword    L2-Selenium2-${dut_gui_type}.SetPassword    ${base_url}    ${newpasswd}    ${repasswd}    ${prompt}
    ...    ${origpwd}
    Return From Keyword    ${msg}

SetPortForwarding
    [Arguments]    ${dut_gui_type}    ${base_url}    ${appname}    ${wanstartport}    ${wanendport}    ${lanstartport}
    ...    ${lanendport}    ${protocol}    ${interface}=default
    Run Keyword    L2-Selenium2-${dut_gui_type}.SetPortForwarding    ${base_url}    ${appname}    ${wanstartport}    ${wanendport}    ${lanstartport}
    ...    ${lanendport}    ${protocol}    ${interface}
    Sleep    5s

SetPortForwardingTable
    [Documentation]    Author: li lin
    [Tags]    UNUSE
    Run Keyword    L2-Selenium2-${dut_gui_type}.SetPortForwardingTable    ${base_url}    ${appname}    ${startwport}    ${endwport}    ${startlport}
    ...    ${endlport}    ${}

SetPortMapping
    [Arguments]    ${action}    ${dut_gui_type}    ${base_url}=default    ${appname}=default    ${wanstartport}=default    ${wanendport}=default
    ...    ${lanstartport}=default    ${lanendport}=default    ${protocol}=default    ${interface}=default    ${index}=default    ${delete_nu}=default
    ...    ${clear_nu}=default
    [Documentation]    == Discription ==
    ...    ---
    ...    *Author :* Wuyang.Shi<Wuyang.Shi@alcatel-sbell.com.cn>
    ...
    ...    *Date :* July. 14th, 2017
    ...
    ...    SetPortMapping include three action:add,delete,clear
    ...
    ...    ---
    ...    == Examples ==
    ...
    ...    For example, sometimes, your case need add portforwarding rule.
    ...    that:
    ...
    ...    | *l3-selenium2.SetPortMapping* | add | ${ont['gui_type']} | ${ont['url_protocol']}://${ont['ip']} | | 9201 | 9201 | 9201 | 9201 | TCP | PPPoE |
    ...
    ...    For example, sometimes, your case need delete portforwarding rule.
    ...    that:
    ...
    ...    | *l3-selenium2.SetPortMapping* | delete | ${ont['gui_type']} | index=1 | delete_nu=2 |
    ...
    ...
    ...    For example, sometimes, your case need clear portforwarding rule.
    ...    that:
    ...
    ...    | *l3-selenium2.SetPortMapping* | clear | ${ont['gui_type']} | clear_nu=28 |
    ...
    ...    ---
    ...    == Assumption ==
    ...    *CAUTION:* Please make sure the INTERNET WAN already obtain ip.
    ...    ---
    ...    == Customers ==
    ...
    ...    COMMON
    ...
    ...    ---
    ...    == History ==
    ...
    ...    *Rev 0:* July. 14, 2017 Wuyang.Shi<Wuyang.Shi@alcatel-sbell.com.cn>_ Create this keyword Documentation.
    run keyword if    '${action}'=='add'    L2-Selenium2-${dut_gui_type}.SetPortForwarding    ${base_url}    ${appname}    ${wanstartport}    ${wanendport}
    ...    ${lanstartport}    ${lanendport}    ${protocol}    ${interface}
    run keyword if    '${action}'=='delete'    L2-Selenium2-${dut_gui_type}.DeletePortForwarding    ${index}    ${delete_nu}
    run keyword if    '${action}'=='clear'    L2-Selenium2-${dut_gui_type}.ClearPortForwarding    ${clear_nu}

SetPortTriggering
    [Arguments]    ${dut_gui_type}    ${random_app}=disable    ${select_app}=disable    ${app_name}=none    ${open_port_start}=2000    ${open_port_end}=2000
    ...    ${trigger_port_start}=2000    ${trigger_port_end}=2000    ${expire_time}=600    ${open_protocol}=UDP    ${trigger_protocol}=UDP    ${enable_trigger}=enable
    ...    ${wan_interface}=INTERNET    ${delete}=disable    ${confict_with_portforwarding}=disable    ${invalid}=disable
    [Documentation]    The main parameter ${select_app} means whether select app name .
    ...    If yes,please set the parameter to enable|yes|select. Besides you must speci the app name ,just like : VPN/phone the application name contain some phase.
    ...
    ...    For example:
    ...
    ...    1.
    ...
    ...    If you want select app :
    ...
    ...    | =select_app=yes= | | =select_app=enable= | | =select_app=select= |
    ...
    ...    | =app_name=VPN= |
    ...
    ...    2.
    ...
    ...    If not,no need set these two parameters or do not set 'select_app' to yes|enable|select
    ...
    ...    Just remind:
    ...
    ...    If you test confict with port forwarding.
    ...
    ...    *And firstly add port forwarding rules and then port triggering,you must make the parameter ${confict_with_portforwarding} enable.*
    ...
    ...    3.
    ...
    ...    If just test the invalid parameter which the rules can not be set, please make the parameter ${invalid}=enable.
    ...
    ...    *Author:* *Yue Hong*
    ${alert}=    Run Keyword    L2-Selenium2-${dut_gui_type}.SetPortTriggering    ${random_app}    ${select_app}    ${app_name}    ${open_port_start}
    ...    ${open_port_end}    ${trigger_port_start}    ${trigger_port_end}    ${expire_time}    ${open_protocol}    ${trigger_protocol}
    ...    ${enable_trigger}    ${wan_interface}    ${delete}    ${confict_with_portforwarding}    ${invalid}
    Return From Keyword    ${alert}

SetSLID
    [Arguments]    ${dut_gui_type}    ${base_url}    ${newslid}    ${mode}
    [Documentation]    set new SLID for ont.
    ...
    ...
    ...    *Author:* *Li Lin*
    Run Keyword    L2-Selenium2-${dut_gui_type}.SetSLID    ${base_url}    ${newslid}    ${mode}

SetSettingsMobile
    [Arguments]    ${dut_gui_type}    ${base_url}    ${network_selected}=None    ${network_selection_enable}=false    ${backup_selected}=None    ${backup_selection_enable}=false
    ...    ${input}=disabled    ${MobileDisconnectIdleTime}=None    ${DNSQueryInterval}=None    ${ICMPQueryInterval}=None    ${DataWanToMobileDelayTime}=None    ${DataMobileToWanDelayTime}=None
    ${message}=    Run Keyword If    '${input}'=='enable'    L2-Selenium2-${dut_gui_type}.SetSettingsMobile    ${base_url}    ${network_selected}    ${network_selection_enable}
    ...    ${backup_selected}    ${backup_selection_enable}    ${input}    ${MobileDisconnectIdleTime}    ${DNSQueryInterval}    ${ICMPQueryInterval}
    ...    ${DataWanToMobileDelayTime}    ${DataMobileToWanDelayTime}
    Return From Keyword If    '${input}'=='enable'    ${message}
    Run Keyword If    '${input}'!='enable'    L2-Selenium2-${dut_gui_type}.SetSettingsMobile    ${base_url}    ${network_selected}    ${network_selection_enable}    ${backup_selected}
    ...    ${backup_selection_enable}    ${input}    ${MobileDisconnectIdleTime}    ${DNSQueryInterval}    ${ICMPQueryInterval}    ${DataWanToMobileDelayTime}
    ...    ${DataMobileToWanDelayTime}

SetTelnet
    [Arguments]    ${status}
    [Documentation]    update the keyword according to ont'OPID.
    ...
    ...    Editor: Li Lin
    ${opid}    set Variable    ${ont['opid']}
    log    ${opid}
    Run Keyword If    '${opid}'=='VFSP' or '${opid}'=='VIET'    l3-serial.SetTelnet    ${status}
    ...    ELSE IF    '${opid}'!='VFSP'    L2-Selenium2-${ont['gui_type']}.SetTelnet    ${ont['url_protocol']}://${ont['ip']}    ${ont['opid']}    ${status}
    ...    ELSE    log    pls check your opid.

SetUSBStorage
    [Arguments]    ${dut_gui_type}    ${base_url}    ${status}    ${username}=none    ${password}=none
    Run Keyword    L2-Selenium2-${dut_gui_type}.SetUSBStorage    ${base_url}    ${status}    ${username}    ${password}

SetUpnp
    [Arguments]    ${dut_gui_type}    ${base_url}    ${status}
    Run Keyword    L2-Selenium2-${dut_gui_type}.SetUpnp    ${base_url}    ${status}

SetUrlFilter
    [Arguments]    ${status}    ${type}    ${addr}=${EMPTY}
    Run Keyword    L2-Selenium2-${ont['gui_type']}.SetUrlFilter    ${status}    ${type}    ${addr}
    #url filter is added or removed if ${addr} is not equal to ${EMPTY}, ${list_empty} should be changed
    ${list_empty}=    Set Variable if    '${addr}'=='${EMPTY}'    ${list_empty}    '${addr}'=='delete'    True    False
    Set Suite Variable    ${list_empty}
    #change filter status
    ${filter_status}=    Set Variable if    '${status}'=='enable'    enable    '${status}'=='disable'    disable    ${filter_status}
    Set Suite Variable    ${filter_status}
    #filter mode block
    ${filter_mode}=    Set Variable if    '${type}'=='block'    block    '${type}'=='allow'    allow    ${filter_mode}
    Set Suite Variable    ${filter_mode}

SetWAN
    [Arguments]    ${dut_gui_type}    ${base_url}    ${action}    ${service}=default    ${mode}=default    ${connection_type}=default
    ...    ${enable}=default    ${vlan_mode}=enable    ${vlan_id}=default    ${vlan_pri}=default    ${pppoe_username}=default    ${pppoe_password}=default
    ...    ${ip_mode}=default    ${ip}=default    ${net}=default    ${gateway}=default    ${pri_dns}=default    ${sec_dns}=default
    ...    ${ter_dns}=default    ${manual_dns}=default    ${wan_services}=default
    [Documentation]    == Discription ==
    ...    ---
    ...    *Author :* Wuyang.Shi<Wuyang.Shi@alcatel-sbell.com.cn>
    ...
    ...    *Date :* July. 14th, 2017
    ...
    ...    SetWAN include four action:add,delete,clear,modify,and action add include three mode:pppoe,dhcp,static
    ...
    ...    tips:
    ...    1.@{wan_services} and @{service} are list variable in l2 keyword ,but in this keyword arguments are scalar variable,so must define list variable in case when use the arguments.
    ...
    ...    2.${mode} used to select create three connection mode.
    ...
    ...    3.@{wan_services} must be define when create and modify.
    ...
    ...    4.create arguments:
    ...
    ...    (1)pppoe type:
    ...    ${dut_gui_type} | ${base_url} | ${vlan_id} | ${pppoe_username} | ${pppoe_password} |${manual_dns} | @{wan_services}
    ...
    ...    (2)dhcp type:
    ...    ${dut_gui_type} | ${base_url} | ${vlan_id} | ${manual_dns} | ${wan_services}
    ...
    ...    (3)static type
    ...    ${dut_gui_type} | ${base_url} | ${vlan_id} | ${vlan_pri} | ${ip} | ${net} | ${gateway} | ${pri_dns} | ${sec_dns} | ${ter_dns} | ${wan_services}
    ...
    ...    delete arguments:
    ...    ${dut_gui_type} | ${base_url} | ${service}
    ...
    ...    clear arguments:
    ...    ${dut_gui_type} | ${base_url}
    ...
    ...    modify arguments:
    ...    ${base_url} | ${service} | ${connection_type} | ${status} | ${vlan_mode} | ${vlan_id} | ${vlan_pri} | ${pppoe_username} | ${pppoe_password} | ${ip_mode} | ${ip} | ${net} | ${gateway} | ${pri_dns} | ${sec_dns} | ${ter_dns} | ${manual_dns} | ${wan_service}
    ...
    ...    total 21 arguments:
    ...    ${dut_gui_type} | ${base_url} | ${action} | ${service}=default | ${wanlist}=default | ${mode}=default | ${connection_type}=default | ${status}=default | ${vlan_mode}=enable | ${vlan_id}=default | ${vlan_pri}=default | ${pppoe_username}=default | ${pppoe_password}=default | ${ip_mode}=default | ${ip}=default | ${net}=default | ${gateway}=default | ${pri_dns}=default | ${sec_dns}=default | ${ter_dns}=default |${manual_dns} | ${wan_services}=default
    ...
    ...    ---
    ...    == Examples ==
    ...
    ...    For example, sometimes, your case need add pppoe wan.
    ...    that:
    ...
    ...    | ${wan_services} | *create list* | INTERNET |
    ...    | *l3-selenium2.SetWAN* | ${ont['gui_type']} | ${ont['url_protocol']}://${ont['ip']} | add | mode=pppoe |vlan_id=1001 | pppoe_username=hgutest | pppoe_password=123456 | ${manual_dns} | wan_services=${wan_services}
    ...
    ...
    ...    For example, sometimes, your case need add dhcp wan.
    ...    that:
    ...
    ...    | ${wan_services} | *create list* | INTERNET |
    ...    | *l3-selenium2.SetWAN* | ${ont['gui_type']} | ${ont['url_protocol']}://${ont['ip']} | add | mode=dhcp | vlan_id=1002 | wan_services=${wan_services} | \ For example, sometimes, your case need add static wan.
    ...    that:
    ...
    ...    | ${wan_services} | *create list* | INTERNET |
    ...    | *l3-selenium2.SetWAN* | ${ont['gui_type']} | ${ont['url_protocol']}://${ont['ip']} | add | mode=static |vlan_id=1003 | vlan_pri=0 | ip=10.10.10.10 | net=255.255.255.0 | gateway=10.10.10.1 | wan_services=${wan_services} | \ For example, sometimes, your case need delete wan,you delete the wan which vlan id 1001.
    ...    that:
    ...
    ...    | ${service} | *create list* | 1001 |
    ...    | *l3-selenium2.SetWAN* | ${ont['gui_type']} | ${ont['url_protocol']}://${ont['ip']} | delete | service=${service} |
    ...
    ...    For example, sometimes, your case need clear wan.
    ...    that:
    ...
    ...    | *l3-selenium2.SetWAN* | ${ont['gui_type']} | ${ont['url_protocol']}://${ont['ip']} | clear |
    ...
    ...
    ...    For example, sometimes, your case need modify wan,you modify vlan id 1001 wan enable.
    ...    that:
    ...
    ...    | ${wan_services} | *create list* | INTERNET |
    ...    | *l3-selenium2.SetWAN* | ${ont['gui_type']} | ${ont['url_protocol']}://${ont['ip']} | modify | service=1001 | enable=enable | wan_services=${wan_services} |
    ...
    ...
    ...    ---
    ...    == Assumption ==
    ...    *CAUTION:* Please make sure the olt had configured the vlan.
    ...    ---
    ...    == Customers ==
    ...
    ...    COMMON
    ...
    ...    ---
    ...    == History ==
    ...
    ...    *Rev 0:* July. 14, 2017 Wuyang.Shi<Wuyang.Shi@alcatel-sbell.com.cn>_ Create this keyword Documentation.
    ...
    ...
    ...
    ...    Author:SHI Wuyang
    Run Keyword if    '${action}'=='add' and '${mode}'=='pppoe'    L2-Selenium2-${dut_gui_type}.AddPPPoEConnection    ${base_url}    ${vlan_id}    ${pppoe_username}    ${pppoe_password}
    ...    ${manual_dns}    @{wan_services}
    Run Keyword if    '${action}'=='add' and '${mode}'=='dhcp'    L2-Selenium2-${dut_gui_type}.AddDHCPConnection    ${base_url}    ${vlan_id}    ${manual_dns}    @{wan_services}
    Run Keyword if    '${action}'=='add' and '${mode}'=='static'    L2-Selenium2-${dut_gui_type}.AddStaticConnection    ${base_url}    ${vlan_id}    ${vlan_pri}    ${ip}
    ...    ${net}    ${gateway}    ${pri_dns}    ${sec_dns}    ${ter_dns}    @{wan_services}
    Run Keyword if    '${action}'=='delete'    L2-Selenium2-${dut_gui_type}.DeleteSpecConnection    ${base_url}    @{service}
    Run Keyword if    '${action}'=='clear'    L2-Selenium2-${dut_gui_type}.DeleteAllConnection    ${base_url}
    Run Keyword if    '${action}'=='modify'    L2-Selenium2-${dut_gui_type}.Modifywan    ${base_url}    ${service}    ${connection_type}    ${enable}
    ...    ${vlan_mode}    ${vlan_id}    ${vlan_pri}    ${pppoe_username}    ${pppoe_password}    ${ip_mode}
    ...    ${ip}    ${net}    ${gateway}    ${pri_dns}    ${sec_dns}    ${ter_dns}
    ...    ${manual_dns}    @{wan_services}

SetWANDNS
    [Arguments]    ${wan_name}    ${dns}
    [Documentation]    == Summary ==
    ...
    ...    Configure WAN DNS on WebGUI.
    ...
    ...    ${wan_name} is the full name of a WAN connection which can be selected on WAN configuration page.
    ...
    ...    ${dns} is the manual dns set on this WAN connection.
    ...
    ...    *Author:* Cai Jinglu
    ...
    ...    ---
    ...    == Customer ==
    ...
    ...    All AONTs
    ...    ---
    ...    == History ==
    ...    _*Rev 0:*_ 15. June, 2017 --- Cai Jinglu \ <Jinglu.A.Cai@alcatel-sbell.com.cn>: Create this keyword.
    Run Keyword    L2-Selenium2-${ont['gui_type']}.SetWANDNS    ${wan_name}    ${dns}

SetWANStatus
    [Arguments]    ${dut_gui_type}    ${base_url}    ${service_name}    ${connection_type}    ${connection_status}    ${nat_status}
    ...    ${vlan_status}    ${vlan_id}    ${connection_trigger}=AlwaysOn    ${pppoe_username}=none    ${pppoe_password}=none
    ${pDict}=    Run Keyword    L2-Selenium2-${dut_gui_type}.SetWANStatus    ${base_url}    ${service_name}    ${connection_type}    ${connection_status}
    ...    ${nat_status}    ${vlan_status}    ${vlan_id}    ${connection_trigger}    ${pppoe_username}    ${pppoe_password}

SetWPS
    Run Keyword    L2-Selenium2-${ont['gui_type']}.SetWPS

TFTPDisable
    [Arguments]    ${dut_gui_type}    ${base_url}
    Run Keyword    L2-Selenium2-${dut_gui_type}.TFTPDisable    ${base_url}

TFTPEnable
    [Arguments]    ${dut_gui_type}    ${base_url}
    l1-selenium2.Go TO    ${base_url}/?lang=eng
    Run Keyword    L2-Selenium2-${dut_gui_type}.TFTPEnable    ${base_url}

TelnetWanDisable
    [Arguments]    ${dut_gui_type}    ${base_url}    ${service_name}
    Run Keyword    L2-Selenium2-${dut_gui_type}.TelnetWanDisable    ${base_url}    ${service_name}

TelnetWanEnable
    [Arguments]    ${dut_gui_type}    ${base_url}    ${service_name}
    Run Keyword    L2-Selenium2-${dut_gui_type}.TelnetWanEnable    ${base_url}    ${service_name}

UpdateEnv
    [Documentation]    == Discription ==
    ...    ---
    ...    *Author :* Rock <Xuchun.Wang@alcatel-sbell.com.cn>
    ...
    ...    *Date :* Aug. 31th, 2017
    ...
    ...    | This keyword was copied from Mr. Rock's Test STARTUP mechnisam . Its target is to update the ENV variable when some CASE cause the test context be changed.
    ...    |
    ...    ---
    ...    == Examples ==
    ...
    ...    For example, sometimes, your case need change current wan connection vlan or service . Then you should remenber this keyword , it will help you to recover your connection . But only this keyword is not enough to do all job for this intention. You'd better use it with Update Env together. Thus will be better.
    ...    that:
    ...    | *l3-selenium2.BuildConnectionMode3* | |
    ...    | *l3-selenium2.UpdateEnv* | |
    ...
    ...    ---
    ...    == Assumption ==
    ...    *CAUTION:* Please make sure the DUT LAN Side TELNET Port is open.
    ...    ---
    ...    == CAUTION ==
    ...    | This keyword use HTTP Library , and this library is working in SCOP: *ROBOT_LIBRARY_SCOPE = 'TEST SUITE'*. [ http://robotframework.org/robotframework/latest/RobotFrameworkUserGuide.html#id714 |Ref ], that means "_*A new instance is created for every test suite. The lowest-level test suites, created from test case files and containing test cases, have instances of their own, and higher-level suites all get their own instances for their possible setups and teardowns.*_"
    ...    ---
    ...    == Customers ==
    ...
    ...    COMMON except VIET
    ...
    ...    ---
    ...    == History ==
    ...
    ...    *Rev 0:* 2017 _Rock WANG <Xuchun.WANG@alcatel-sbell.com.cn>_ Create this keyword Documentation.
    ...
    ...    *Rev 1:* Aug. 31, 2017 _Alfred <xin.q.zhang@alcatel-sbell.com.cn>_ Fix [ http://135.251.200.225/project/issues/999 | BUG 999] .
    ...
    ...    *Rev 2:* Sep, 06, 2017 _Alfred <xin.q.zhang@nookia-sbell.com>_ Fix [ http://135.251.200.225/project/issues/997 | BUG 997] .
    # First of all, before every thing, we should check current DM model type use Is181
    ${is181}    Is181mode
    ${dm}    SetVariableIf    ${is181}    TR181    TR098
    log    ${\n}first step
    TriggerInform
    log    ${\n}after TriggerInform
    # GET WAN INTERNET Interface
    log    ${\n}GET WAN INTERNET Interface
    ${cpe_internet_interface}=    SearchWANConnection    INTERNET    ${dm}
    # GET WAN INTERNET IP
    log    ${\n}GET WAN INTERNET IP --- for TR098 it is \${cpe_internet_interface}.ExternalIPAddress , TR181 is \${cpe_internet_interface}.IPv4Address.1.IPAddress
    ${wan}    SetVariableIf    ${is181}    ${cpe_internet_interface}.IPv4Address.1.IPAddress    ${cpe_internet_interface}.ExternalIPAddress
    @{parameter_list}=    GetParameterValuesEx    ${wan}
    ${cpe_internet_ip}=    Fetch From Right    @{parameter_list}[0]    ${SPACE}
    log    ${\n}The INTERNET IP is ${cpe_internet_ip}
    # GET WAN TR069 Interface
    log    ${\n}GET WAN TR069 Interface
    ${cpe_tr069_interface}=    SearchWANConnection    TR069    ${dm}
    # GET WAN tr069 IP
    log    ${\n}GET WAN tr069 IP
    ${wan}    SetVariableIf    ${is181}    ${cpe_tr069_interface}.IPv4Address.1.IPAddress    ${cpe_tr069_interface}.ExternalIPAddress
    @{parameter_list}=    GetParameterValuesEx    ${wan}
    ${cpe_tr069_ip}=    Fetch From Right    @{parameter_list}[0]    ${SPACE}
    RunKeywordIf    '${cpe_tr069_ip}'=='{}'    FatalError    cpe_tr069_ip MUST Not be empty. Please check your WAN connection chain.
    CloseClient
    # GET CPE LAN MAC
    log    GET CPE LAN MAC
    ${pata_handle}=    StartPCTA    ${pcta['ip']}    ${pcta['username']}    ${pcta['password']}    ${pcta['path']}
    ${pc_lan_mac}=    Remove String    ${pc['lan_mac']}    :
    ${cap_dist_id}=    ta_start_capt_arp_rarp_packet    ${pc['lan_interface'][3]}    -opcode 2 -prot_addr_src ${ont['ip']}
    ta_send_arp_rarp_packet    ${pc['lan_interface'][3]}    -prot_addr_src ${pc['lan_ip']} -mac_src ${pc_lan_mac} -opcode 1 -prot_addr_dest ${ont['ip']} -mac_dest ffffffffffff
    sleep    3s
    ${cap_result_dict}=    ta_stop_capt_arp_rarp_packet    ${pc['lan_interface'][3]}    -dist_id ${cap_dist_id}
    ${cpe_lan_mac}=    Get From Dictionary    ${cap_result_dict}    -hw_addr_src
    # GET WAN INTERNET MAC
    log    ${\n}GET WAN INTERNET MAC
    ${cap_dist_id}=    ta_start_capt_icmp_message    ${pc['wan_interface'][3]}    -icmp_type 08 -ip_src ${cpe_internet_ip}
    ta_send_icmp_message    ${pc['lan_interface'][3]}    -mac_src ${pc_lan_mac} -ip_src ${pc['lan_ip']} -mac_dest ${cpe_lan_mac} -ip_dest ${pc['wan_ip']} -message_count 3 -message_delay 1000
    sleep    3s
    ${cap_result_dict}=    ta_stop_capt_icmp_message    ${pc['wan_interface'][3]}    -dist_id ${cap_dist_id}
    Should Not Be Equal As Strings    ${cap_result_dict}    NONE
    ${cpe_gateway_mac}=    Get From Dictionary    ${cap_result_dict}    -mac_src
    ClosePCTA
    # GET PC LAN INTERFACE MAC
    log    ${\n}GET PC LAN INTERFACE MAC
    ${pc_lan_mac}=    Remove String    ${pc['lan_mac']}    :
    # GET PC WAN INTERFACE MAC
    log    ${\n}GET PC WAN INTERFACE MAC
    ${pc_wan_mac}=    Remove String    ${pc['wan_mac']}    :
    # GET LAN prefix
    ${lan_ip_prefix}    ${lan_ip_tail}    Split String From Right    ${pc['lan_ip']}    .    1
    log    lan_ip_prefix is "${lan_ip_prefix}"
    log    lan_ip_tail is ${lan_ip_tail}
    # SET Global Variables
    log    ${\n}SET Global Variables
    Set Global Variable    ${cpe_internet_interface}    ${cpe_internet_interface}
    Set Global Variable    ${cpe_internet_ip}    ${cpe_internet_ip}
    Set Global Variable    ${cpe_tr069_interface}    ${cpe_tr069_interface}
    Set Global Variable    ${cpe_tr069_ip}    ${cpe_tr069_ip}
    Set Global Variable    ${cpe_gateway_mac}    ${cpe_gateway_mac}
    Set Global Variable    ${cpe_lan_mac}    ${cpe_lan_mac}
    Set Global Variable    ${pc_lan_mac}    ${pc_lan_mac}
    Set Global Variable    ${pc_wan_mac}    ${pc_wan_mac}
    Set Global Variable    ${lan_ip_prefix}    ${lan_ip_prefix}
    Set Global Variable    ${lan_ip_tail}    ${lan_ip_tail}
    [Teardown]    CloseClient

UpgradeFirmware
    [Arguments]    ${dut_gui_type}    ${base_url}    ${file_path}
    Run Keyword    L2-Selenium2-${dut_gui_type}.UpgradeFirmware    ${base_url}    ${file_path}
