*** Settings ***
Default Tags      ALCL    ALCO    LTRW    VNPT    G240WF    G240WB    MXXV
...               SAIB    VIET    BRTI
Library           %{RFPATH}/Python-2.7/lib/python2.7/site-packages/robot/libraries/Process.py
Library           %{RFPATH}/Python-2.7/lib/python2.7/site-packages/robot/libraries/String.py
Resource          %{ROBOTREPO}/HLK/res/l3-selenium2.txt
Resource          %{ROBOTREPO}/HLK/res/l3-telnet.txt
Resource          %{ROBOTREPO}/HLK/res/l3-tr069.txt
Variables         %{ROBOTWS}/args/preconfig.py

*** Test Cases ***
